components/DCmot_PWM_cntrl_ v0.25/simulation/qsim/DCmot_PWM_cntrl.msim.vcd
$comment
	File created using the following command:
		vcd file DCmot_PWM_cntrl.msim.vcd -direction
$end
$date
	Wed May 29 22:26:13 2024
$end
$version
	ModelSim Version 2020.1
$end
$timescale
	1ps
$end

$scope module dcmot_pwm_cntrl_vhd_vec_tst $end
$var wire 1 ! CLK1 $end
$var wire 1 " DCmot_speedv [2] $end
$var wire 1 # DCmot_speedv [1] $end
$var wire 1 $ DCmot_speedv [0] $end
$var wire 1 % PWM_DCmot $end

$scope module i1 $end
$var wire 1 & gnd $end
$var wire 1 ' vcc $end
$var wire 1 ( unknown $end
$var wire 1 ) devoe $end
$var wire 1 * devclrn $end
$var wire 1 + devpor $end
$var wire 1 , ww_devoe $end
$var wire 1 - ww_devclrn $end
$var wire 1 . ww_devpor $end
$var wire 1 / ww_CLK1 $end
$var wire 1 0 ww_DCmot_speedv [2] $end
$var wire 1 1 ww_DCmot_speedv [1] $end
$var wire 1 2 ww_DCmot_speedv [0] $end
$var wire 1 3 ww_PWM_DCmot $end
$var wire 1 4 \~QUARTUS_CREATED_ADC1~_CHSEL_bus\ [4] $end
$var wire 1 5 \~QUARTUS_CREATED_ADC1~_CHSEL_bus\ [3] $end
$var wire 1 6 \~QUARTUS_CREATED_ADC1~_CHSEL_bus\ [2] $end
$var wire 1 7 \~QUARTUS_CREATED_ADC1~_CHSEL_bus\ [1] $end
$var wire 1 8 \~QUARTUS_CREATED_ADC1~_CHSEL_bus\ [0] $end
$var wire 1 9 \~QUARTUS_CREATED_ADC2~_CHSEL_bus\ [4] $end
$var wire 1 : \~QUARTUS_CREATED_ADC2~_CHSEL_bus\ [3] $end
$var wire 1 ; \~QUARTUS_CREATED_ADC2~_CHSEL_bus\ [2] $end
$var wire 1 < \~QUARTUS_CREATED_ADC2~_CHSEL_bus\ [1] $end
$var wire 1 = \~QUARTUS_CREATED_ADC2~_CHSEL_bus\ [0] $end
$var wire 1 > \CLK1~inputclkctrl_INCLK_bus\ [3] $end
$var wire 1 ? \CLK1~inputclkctrl_INCLK_bus\ [2] $end
$var wire 1 @ \CLK1~inputclkctrl_INCLK_bus\ [1] $end
$var wire 1 A \CLK1~inputclkctrl_INCLK_bus\ [0] $end
$var wire 1 B \~QUARTUS_CREATED_GND~I_combout\ $end
$var wire 1 C \~QUARTUS_CREATED_UNVM~~busy\ $end
$var wire 1 D \~QUARTUS_CREATED_ADC1~~eoc\ $end
$var wire 1 E \~QUARTUS_CREATED_ADC2~~eoc\ $end
$var wire 1 F \PWM_DCmot~output_o\ $end
$var wire 1 G \CLK1~input_o\ $end
$var wire 1 H \CLK1~inputclkctrl_outclk\ $end
$var wire 1 I \Add0~0_combout\ $end
$var wire 1 J \Add0~1\ $end
$var wire 1 K \Add0~2_combout\ $end
$var wire 1 L \Add0~3\ $end
$var wire 1 M \Add0~4_combout\ $end
$var wire 1 N \Add0~5\ $end
$var wire 1 O \Add0~6_combout\ $end
$var wire 1 P \Add0~7\ $end
$var wire 1 Q \Add0~8_combout\ $end
$var wire 1 R \counter~2_combout\ $end
$var wire 1 S \Add0~9\ $end
$var wire 1 T \Add0~10_combout\ $end
$var wire 1 U \Add0~11\ $end
$var wire 1 V \Add0~12_combout\ $end
$var wire 1 W \Add0~13\ $end
$var wire 1 X \Add0~14_combout\ $end
$var wire 1 Y \Add0~15\ $end
$var wire 1 Z \Add0~16_combout\ $end
$var wire 1 [ \counter~3_combout\ $end
$var wire 1 \ \Add0~17\ $end
$var wire 1 ] \Add0~19\ $end
$var wire 1 ^ \Add0~20_combout\ $end
$var wire 1 _ \counter~0_combout\ $end
$var wire 1 ` \Add0~21\ $end
$var wire 1 a \Add0~22_combout\ $end
$var wire 1 b \Add0~23\ $end
$var wire 1 c \Add0~24_combout\ $end
$var wire 1 d \Add0~25\ $end
$var wire 1 e \Add0~26_combout\ $end
$var wire 1 f \counter~1_combout\ $end
$var wire 1 g \Equal0~3_combout\ $end
$var wire 1 h \Equal0~0_combout\ $end
$var wire 1 i \Equal0~1_combout\ $end
$var wire 1 j \Equal0~2_combout\ $end
$var wire 1 k \Equal0~4_combout\ $end
$var wire 1 l \Add0~18_combout\ $end
$var wire 1 m \counter~4_combout\ $end
$var wire 1 n \PWM_DCmot~4_combout\ $end
$var wire 1 o \PWM_DCmot~3_combout\ $end
$var wire 1 p \LessThan1~0_combout\ $end
$var wire 1 q \LessThan1~1_combout\ $end
$var wire 1 r \PWM_DCmot~5_combout\ $end
$var wire 1 s \LessThan0~0_combout\ $end
$var wire 1 t \LessThan0~1_combout\ $end
$var wire 1 u \innercounter~2_combout\ $end
$var wire 1 v \Add2~0_combout\ $end
$var wire 1 w \flag[0]~2_combout\ $end
$var wire 1 x \innercounter[2]~4_combout\ $end
$var wire 1 y \Add2~1\ $end
$var wire 1 z \Add2~2_combout\ $end
$var wire 1 { \flag~0_combout\ $end
$var wire 1 | \Add2~3\ $end
$var wire 1 } \Add2~4_combout\ $end
$var wire 1 ~ \Equal1~0_combout\ $end
$var wire 1 !! \Equal1~1_combout\ $end
$var wire 1 "! \Equal1~3_combout\ $end
$var wire 1 #! \Equal1~2_combout\ $end
$var wire 1 $! \Equal1~4_combout\ $end
$var wire 1 %! \Add2~5\ $end
$var wire 1 &! \Add2~6_combout\ $end
$var wire 1 '! \flag~1_combout\ $end
$var wire 1 (! \Add2~7\ $end
$var wire 1 )! \Add2~8_combout\ $end
$var wire 1 *! \Add2~9\ $end
$var wire 1 +! \Add2~10_combout\ $end
$var wire 1 ,! \Add2~11\ $end
$var wire 1 -! \Add2~12_combout\ $end
$var wire 1 .! \Add2~13\ $end
$var wire 1 /! \Add2~14_combout\ $end
$var wire 1 0! \Add2~15\ $end
$var wire 1 1! \Add2~16_combout\ $end
$var wire 1 2! \Add2~17\ $end
$var wire 1 3! \Add2~18_combout\ $end
$var wire 1 4! \Add2~19\ $end
$var wire 1 5! \Add2~20_combout\ $end
$var wire 1 6! \Add2~21\ $end
$var wire 1 7! \Add2~22_combout\ $end
$var wire 1 8! \Add2~23\ $end
$var wire 1 9! \Add2~24_combout\ $end
$var wire 1 :! \Add2~25\ $end
$var wire 1 ;! \Add2~26_combout\ $end
$var wire 1 <! \Add2~27\ $end
$var wire 1 =! \Add2~28_combout\ $end
$var wire 1 >! \Add2~29\ $end
$var wire 1 ?! \Add2~30_combout\ $end
$var wire 1 @! \Add2~31\ $end
$var wire 1 A! \Add2~32_combout\ $end
$var wire 1 B! \Add2~33\ $end
$var wire 1 C! \Add2~34_combout\ $end
$var wire 1 D! \Add2~35\ $end
$var wire 1 E! \Add2~36_combout\ $end
$var wire 1 F! \Add2~37\ $end
$var wire 1 G! \Add2~38_combout\ $end
$var wire 1 H! \Add2~39\ $end
$var wire 1 I! \Add2~40_combout\ $end
$var wire 1 J! \Add2~41\ $end
$var wire 1 K! \Add2~42_combout\ $end
$var wire 1 L! \Add2~43\ $end
$var wire 1 M! \Add2~44_combout\ $end
$var wire 1 N! \Add2~45\ $end
$var wire 1 O! \Add2~46_combout\ $end
$var wire 1 P! \Equal1~6_combout\ $end
$var wire 1 Q! \Equal1~5_combout\ $end
$var wire 1 R! \Add2~47\ $end
$var wire 1 S! \Add2~48_combout\ $end
$var wire 1 T! \Add2~49\ $end
$var wire 1 U! \Add2~50_combout\ $end
$var wire 1 V! \Add2~51\ $end
$var wire 1 W! \Add2~52_combout\ $end
$var wire 1 X! \Add2~53\ $end
$var wire 1 Y! \Add2~54_combout\ $end
$var wire 1 Z! \Equal1~7_combout\ $end
$var wire 1 [! \Add2~55\ $end
$var wire 1 \! \Add2~56_combout\ $end
$var wire 1 ]! \Add2~57\ $end
$var wire 1 ^! \Add2~58_combout\ $end
$var wire 1 _! \Add2~59\ $end
$var wire 1 `! \Add2~60_combout\ $end
$var wire 1 a! \Add2~61\ $end
$var wire 1 b! \Add2~62_combout\ $end
$var wire 1 c! \Equal1~8_combout\ $end
$var wire 1 d! \Equal1~9_combout\ $end
$var wire 1 e! \LessThan0~2_combout\ $end
$var wire 1 f! \innercounter[2]~1_combout\ $end
$var wire 1 g! \innercounter~3_combout\ $end
$var wire 1 h! \innercounter~0_combout\ $end
$var wire 1 i! \DCmot_speedv[2]~input_o\ $end
$var wire 1 j! \DCmot_speedv[1]~input_o\ $end
$var wire 1 k! \DCmot_speedv[0]~input_o\ $end
$var wire 1 l! \PWM_DCmot~0_combout\ $end
$var wire 1 m! \PWM_DCmot~1_combout\ $end
$var wire 1 n! \PWM_DCmot~2_combout\ $end
$var wire 1 o! \PWM_DCmot~6_combout\ $end
$var wire 1 p! \PWM_DCmot~reg0_q\ $end
$var wire 1 q! innercounter [2] $end
$var wire 1 r! innercounter [1] $end
$var wire 1 s! innercounter [0] $end
$var wire 1 t! flag [31] $end
$var wire 1 u! flag [30] $end
$var wire 1 v! flag [29] $end
$var wire 1 w! flag [28] $end
$var wire 1 x! flag [27] $end
$var wire 1 y! flag [26] $end
$var wire 1 z! flag [25] $end
$var wire 1 {! flag [24] $end
$var wire 1 |! flag [23] $end
$var wire 1 }! flag [22] $end
$var wire 1 ~! flag [21] $end
$var wire 1 !" flag [20] $end
$var wire 1 "" flag [19] $end
$var wire 1 #" flag [18] $end
$var wire 1 $" flag [17] $end
$var wire 1 %" flag [16] $end
$var wire 1 &" flag [15] $end
$var wire 1 '" flag [14] $end
$var wire 1 (" flag [13] $end
$var wire 1 )" flag [12] $end
$var wire 1 *" flag [11] $end
$var wire 1 +" flag [10] $end
$var wire 1 ," flag [9] $end
$var wire 1 -" flag [8] $end
$var wire 1 ." flag [7] $end
$var wire 1 /" flag [6] $end
$var wire 1 0" flag [5] $end
$var wire 1 1" flag [4] $end
$var wire 1 2" flag [3] $end
$var wire 1 3" flag [2] $end
$var wire 1 4" flag [1] $end
$var wire 1 5" flag [0] $end
$var wire 1 6" counter [13] $end
$var wire 1 7" counter [12] $end
$var wire 1 8" counter [11] $end
$var wire 1 9" counter [10] $end
$var wire 1 :" counter [9] $end
$var wire 1 ;" counter [8] $end
$var wire 1 <" counter [7] $end
$var wire 1 =" counter [6] $end
$var wire 1 >" counter [5] $end
$var wire 1 ?" counter [4] $end
$var wire 1 @" counter [3] $end
$var wire 1 A" counter [2] $end
$var wire 1 B" counter [1] $end
$var wire 1 C" counter [0] $end
$upscope $end
$upscope $end
$enddefinitions $end
#0
$dumpvars
0!
0%
0&
1'
x(
1)
1*
1+
1,
1-
1.
0/
03
0B
zC
zD
zE
0F
0G
0H
1I
0J
0K
1L
0M
0N
0O
1P
0Q
0R
0S
0T
1U
0V
0W
0X
1Y
0Z
0[
0\
1]
0^
0_
0`
0a
1b
0c
0d
0e
0f
0g
1h
0i
0j
0k
0l
0m
1n
1o
1p
1q
1r
1s
1t
0u
0v
1w
0x
1y
0z
1{
0|
0}
1~
1!!
1"!
1#!
1$!
1%!
0&!
1'!
0(!
0)!
1*!
0+!
0,!
0-!
1.!
0/!
00!
01!
12!
03!
04!
05!
16!
07!
08!
09!
1:!
0;!
0<!
0=!
1>!
0?!
0@!
0A!
1B!
0C!
0D!
0E!
1F!
0G!
0H!
0I!
1J!
0K!
0L!
0M!
1N!
0O!
1P!
1Q!
0R!
0S!
1T!
0U!
0V!
0W!
1X!
0Y!
1Z!
0[!
0\!
1]!
0^!
0_!
0`!
1a!
0b!
1c!
1d!
1e!
0f!
1g!
0h!
1i!
1j!
0k!
1l!
1m!
1n!
0o!
0p!
1"
1#
0$
10
11
02
0q!
0r!
0s!
0t!
0u!
0v!
0w!
0x!
0y!
0z!
0{!
0|!
0}!
0~!
0!"
0""
0#"
0$"
0%"
0&"
0'"
0("
0)"
0*"
0+"
0,"
0-"
0."
0/"
00"
01"
02"
03"
04"
05"
06"
07"
08"
09"
0:"
0;"
0<"
0="
0>"
0?"
0@"
0A"
0B"
0C"
1>
1?
1@
0A
04
05
06
07
08
09
0:
0;
0<
0=
$end
#5000
1!
1/
1G
1A
1H
1C"
0I
1J
1K
#10000
0!
0/
0G
0A
0H
#15000
1!
1/
1G
1A
1H
0C"
1B"
0K
0L
1I
0J
1K
1L
1M
0M
#20000
0!
0/
0G
0A
0H
#25000
1!
1/
1G
1A
1H
1C"
0I
1J
0K
0L
1M
#30000
0!
0/
0G
0A
0H
#35000
1!
1/
1G
1A
1H
0C"
0B"
1A"
0M
1N
1K
1L
1I
0J
0K
1M
0N
1O
0O
#40000
0!
0/
0G
0A
0H
#45000
1!
1/
1G
1A
1H
1C"
0I
1J
1K
#50000
0!
0/
0G
0A
0H
#55000
1!
1/
1G
1A
1H
0C"
1B"
0K
0L
1I
0J
1K
1L
0M
1N
1O
1M
0N
0O
#60000
0!
0/
0G
0A
0H
#65000
1!
1/
1G
1A
1H
1C"
0I
1J
1i
0t
0K
0L
0M
1N
1x
0e!
1o!
1f!
1O
#70000
0!
0/
0G
0A
0H
#75000
1!
1/
1G
1A
1H
0C"
0B"
0A"
1@"
15"
14"
12"
1s!
1p!
1F
1u
0g!
1&!
1z
1v
0y
0~
0O
0P
1j
1M
0N
1K
1L
1I
0J
0i
13
0j
0K
0M
1O
1P
1Q
0$!
0z
0w
1%
0{
0f!
1R
0Q
0R
#80000
0!
0/
0G
0A
0H
#85000
1!
1/
1G
1A
1H
1C"
05"
04"
1z
1|
0v
1y
0I
1J
1K
0z
0|
1w
1}
0%!
1{
0&!
0}
1%!
0{
1&!
0'!
1'!
#90000
0!
0/
0G
0A
0H
#95000
1!
1/
1G
1A
1H
0C"
1B"
15"
1v
0y
0K
0L
1I
0J
1K
1L
1M
1z
1|
0w
1}
0%!
1{
0M
0&!
0'!
#100000
0!
0/
0G
0A
0H
#105000
1!
1/
1G
1A
1H
1C"
05"
14"
13"
02"
1&!
1(!
0}
1%!
0z
0|
0v
1y
0I
1J
0K
0L
1z
1w
1}
0{
0&!
0(!
1)!
0*!
1'!
1+!
1,!
0)!
1*!
0'!
1{
1M
0+!
0,!
1-!
0.!
1/!
10!
0-!
1.!
0/!
00!
11!
02!
13!
14!
01!
12!
03!
04!
15!
06!
17!
18!
05!
16!
07!
08!
19!
0:!
1;!
1<!
09!
1:!
0;!
0<!
1=!
0>!
1?!
1@!
0=!
1>!
0?!
0@!
1A!
0B!
1C!
1D!
0A!
1B!
0C!
0D!
1E!
0F!
1G!
1H!
0E!
1F!
0G!
0H!
1I!
0J!
1K!
1L!
0I!
1J!
0K!
0L!
1M!
0N!
1O!
1R!
0M!
1N!
0O!
0R!
1S!
0T!
1U!
1V!
0S!
1T!
0U!
0V!
1W!
0X!
1Y!
1[!
0W!
1X!
0Y!
0[!
1\!
0]!
1^!
1_!
0\!
1]!
0^!
0_!
1`!
0a!
1b!
0`!
1a!
0b!
#110000
0!
0/
0G
0A
0H
#115000
1!
1/
1G
1A
1H
0C"
0B"
1A"
15"
1v
0y
0M
1N
1K
1L
1I
0J
0K
1M
0N
0O
0P
0z
0w
0{
1Q
1O
1P
0Q
1R
0R
#120000
0!
0/
0G
0A
0H
#125000
1!
1/
1G
1A
1H
1C"
05"
04"
1z
1|
0v
1y
0I
1J
0p
1K
0z
0|
1w
0}
1{
1}
0{
#130000
0!
0/
0G
0A
0H
#135000
1!
1/
1G
1A
1H
0C"
1B"
15"
1v
0y
0K
0L
1I
0J
1K
1L
0M
1N
1z
1|
0w
0}
1{
0O
0P
1M
0N
1O
1P
1Q
1R
0Q
0R
#140000
0!
0/
0G
0A
0H
#145000
1!
1/
1G
1A
1H
1C"
05"
14"
03"
1}
0%!
0z
0|
0v
1y
0I
1J
1i
1j
0K
0L
1z
1w
0}
1%!
0{
1&!
1(!
1)!
0*!
1'!
0&!
0(!
1{
0M
1N
0O
0P
0)!
1*!
0'!
1+!
1,!
1-!
0.!
0+!
0,!
1Q
1R
0-!
1.!
1/!
10!
11!
02!
0/!
00!
01!
12!
13!
14!
15!
06!
03!
04!
05!
16!
17!
18!
19!
0:!
07!
08!
09!
1:!
1;!
1<!
1=!
0>!
0;!
0<!
0=!
1>!
1?!
1@!
1A!
0B!
0?!
0@!
0A!
1B!
1C!
1D!
1E!
0F!
0C!
0D!
0E!
1F!
1G!
1H!
1I!
0J!
0G!
0H!
0I!
1J!
1K!
1L!
1M!
0N!
0K!
0L!
0M!
1N!
1O!
1R!
1S!
0T!
0O!
0R!
0S!
1T!
1U!
1V!
1W!
0X!
0U!
0V!
0W!
1X!
1Y!
1[!
1\!
0]!
0Y!
0[!
0\!
1]!
1^!
1_!
1`!
0a!
0^!
0_!
0`!
1a!
1b!
0b!
#150000
0!
0/
0G
0A
0H
#155000
1!
1/
1G
1A
1H
0C"
0B"
0A"
0@"
1?"
15"
1v
0y
0Q
1S
0h
1O
1P
0j
1M
0N
1K
1L
1I
0J
0i
1p
0K
0M
0O
1Q
0S
1T
0R
0z
0w
0{
0T
1R
#160000
0!
0/
0G
0A
0H
#165000
1!
1/
1G
1A
1H
1C"
05"
04"
1z
1|
0v
1y
1~
0I
1J
1K
1$!
0z
0|
1w
1}
0%!
1{
1&!
1(!
0}
1%!
1'!
1f!
0&!
0(!
1)!
0*!
1+!
1,!
0)!
1*!
0+!
0,!
1-!
0.!
1/!
10!
0-!
1.!
0/!
00!
11!
02!
13!
14!
01!
12!
03!
04!
15!
06!
17!
18!
05!
16!
07!
08!
19!
0:!
1;!
1<!
09!
1:!
0;!
0<!
1=!
0>!
1?!
1@!
0=!
1>!
0?!
0@!
1A!
0B!
1C!
1D!
0A!
1B!
0C!
0D!
1E!
0F!
1G!
1H!
0E!
1F!
0G!
0H!
1I!
0J!
1K!
1L!
0I!
1J!
0K!
0L!
1M!
0N!
1O!
1R!
0M!
1N!
0O!
0R!
1S!
0T!
1U!
1V!
0S!
1T!
0U!
0V!
1W!
0X!
1Y!
1[!
0W!
1X!
0Y!
0[!
1\!
0]!
1^!
1_!
0\!
1]!
0^!
0_!
1`!
0a!
1b!
0`!
1a!
0b!
#170000
0!
0/
0G
0A
0H
#175000
1!
1/
1G
1A
1H
0C"
1B"
15"
14"
12"
1r!
0s!
1g!
0l!
1&!
1z
1v
0y
0~
0K
0L
1I
0J
1K
1L
1M
0$!
0z
0w
0{
0f!
0M
#180000
0!
0/
0G
0A
0H
#185000
1!
1/
1G
1A
1H
1C"
05"
04"
1z
1|
0v
1y
0I
1J
0K
0L
0z
0|
1w
1}
0%!
1{
0&!
0}
1%!
0{
1M
1&!
0'!
1'!
#190000
0!
0/
0G
0A
0H
#195000
1!
1/
1G
1A
1H
0C"
0B"
1A"
15"
1v
0y
0M
1N
1K
1L
1I
0J
0K
1M
0N
1O
1z
1|
0w
1}
0%!
1{
0O
0&!
0'!
#200000
0!
0/
0G
0A
0H
#205000
1!
1/
1G
1A
1H
1C"
05"
14"
13"
02"
1&!
1(!
0}
1%!
0z
0|
0v
1y
0I
1J
1K
1z
1w
1}
0{
0&!
0(!
1)!
0*!
1'!
1+!
1,!
0)!
1*!
0'!
1{
0+!
0,!
1-!
0.!
1/!
10!
0-!
1.!
0/!
00!
11!
02!
13!
14!
01!
12!
03!
04!
15!
06!
17!
18!
05!
16!
07!
08!
19!
0:!
1;!
1<!
09!
1:!
0;!
0<!
1=!
0>!
1?!
1@!
0=!
1>!
0?!
0@!
1A!
0B!
1C!
1D!
0A!
1B!
0C!
0D!
1E!
0F!
1G!
1H!
0E!
1F!
0G!
0H!
1I!
0J!
1K!
1L!
0I!
1J!
0K!
0L!
1M!
0N!
1O!
1R!
0M!
1N!
0O!
0R!
1S!
0T!
1U!
1V!
0S!
1T!
0U!
0V!
1W!
0X!
1Y!
1[!
0W!
1X!
0Y!
0[!
1\!
0]!
1^!
1_!
0\!
1]!
0^!
0_!
1`!
0a!
1b!
0`!
1a!
0b!
#210000
0!
0/
0G
0A
0H
#215000
1!
1/
1G
1A
1H
0C"
1B"
15"
1v
0y
0K
0L
1I
0J
1K
1L
0M
1N
0z
0w
0{
1O
1M
0N
0O
#220000
0!
0/
0G
0A
0H
#225000
1!
1/
1G
1A
1H
1C"
05"
04"
1z
1|
0v
1y
0I
1J
1i
0K
0L
0z
0|
1w
0}
1{
1}
0{
0M
1N
1O
#230000
0!
0/
0G
0A
0H
#235000
1!
1/
1G
1A
1H
0C"
0B"
0A"
1@"
15"
1v
0y
0O
0P
1M
0N
1K
1L
1I
0J
0i
0K
0M
1O
1P
0Q
1S
1z
1|
0w
0}
1{
1T
0R
1Q
0S
0T
1R
#240000
0!
0/
0G
0A
0H
#245000
1!
1/
1G
1A
1H
1C"
05"
14"
03"
1}
0%!
0z
0|
0v
1y
0I
1J
1K
1z
1w
0}
1%!
0{
1&!
1(!
1)!
0*!
1'!
0&!
0(!
1{
0)!
1*!
0'!
1+!
1,!
1-!
0.!
0+!
0,!
0-!
1.!
1/!
10!
11!
02!
0/!
00!
01!
12!
13!
14!
15!
06!
03!
04!
05!
16!
17!
18!
19!
0:!
07!
08!
09!
1:!
1;!
1<!
1=!
0>!
0;!
0<!
0=!
1>!
1?!
1@!
1A!
0B!
0?!
0@!
0A!
1B!
1C!
1D!
1E!
0F!
0C!
0D!
0E!
1F!
1G!
1H!
1I!
0J!
0G!
0H!
0I!
1J!
1K!
1L!
1M!
0N!
0K!
0L!
0M!
1N!
1O!
1R!
1S!
0T!
0O!
0R!
0S!
1T!
1U!
1V!
1W!
0X!
0U!
0V!
0W!
1X!
1Y!
1[!
1\!
0]!
0Y!
0[!
0\!
1]!
1^!
1_!
1`!
0a!
0^!
0_!
0`!
1a!
1b!
0b!
#250000
0!
0/
0G
0A
0H
#255000
1!
1/
1G
1A
1H
0C"
1B"
15"
1v
0y
0K
0L
1I
0J
1K
1L
1M
0z
0w
0{
0M
#260000
0!
0/
0G
0A
0H
#265000
1!
1/
1G
1A
1H
1C"
05"
04"
1z
1|
0v
1y
1~
0I
1J
0K
0L
1$!
0z
0|
1w
1}
0%!
1{
1&!
1(!
0}
1%!
1'!
1f!
1M
0&!
0(!
1)!
0*!
1+!
1,!
0)!
1*!
0+!
0,!
1-!
0.!
1/!
10!
0-!
1.!
0/!
00!
11!
02!
13!
14!
01!
12!
03!
04!
15!
06!
17!
18!
05!
16!
07!
08!
19!
0:!
1;!
1<!
09!
1:!
0;!
0<!
1=!
0>!
1?!
1@!
0=!
1>!
0?!
0@!
1A!
0B!
1C!
1D!
0A!
1B!
0C!
0D!
1E!
0F!
1G!
1H!
0E!
1F!
0G!
0H!
1I!
0J!
1K!
1L!
0I!
1J!
0K!
0L!
1M!
0N!
1O!
1R!
0M!
1N!
0O!
0R!
1S!
0T!
1U!
1V!
0S!
1T!
0U!
0V!
1W!
0X!
1Y!
1[!
0W!
1X!
0Y!
0[!
1\!
0]!
1^!
1_!
0\!
1]!
0^!
0_!
1`!
0a!
1b!
0`!
1a!
0b!
#270000
0!
0/
0G
0A
0H
#275000
1!
1/
1G
1A
1H
0C"
0B"
1A"
15"
14"
12"
1s!
0u
0g!
1h!
1&!
1z
1v
0y
0~
0M
1N
1K
1L
1I
0J
0K
1M
0N
0O
0P
0$!
0z
0w
0{
0f!
0Q
1S
1O
1P
1Q
0S
1T
0R
0T
1R
#280000
0!
0/
0G
0A
0H
#285000
1!
1/
1G
1A
1H
1C"
05"
04"
1z
1|
0v
1y
0I
1J
0p
1K
0z
0|
1w
1}
0%!
1{
0&!
0}
1%!
0{
1&!
0'!
1'!
#290000
0!
0/
0G
0A
0H
#295000
1!
1/
1G
1A
1H
0C"
1B"
15"
1v
0y
0K
0L
1I
0J
1K
1L
0M
1N
1z
1|
0w
1}
0%!
1{
0O
0P
1M
0N
1O
1P
0Q
1S
0&!
0'!
1T
0R
1Q
0S
0T
1R
#300000
0!
0/
0G
0A
0H
#305000
1!
1/
1G
1A
1H
1C"
05"
14"
13"
02"
1&!
1(!
0}
1%!
0z
0|
0v
1y
0I
1J
1i
0K
0L
1z
1w
1}
0{
0&!
0(!
1)!
0*!
1'!
1+!
1,!
0)!
1*!
0'!
1{
0M
1N
0O
0P
0+!
0,!
1-!
0.!
1/!
10!
0-!
1.!
0Q
1S
1T
0R
0/!
00!
11!
02!
13!
14!
01!
12!
03!
04!
15!
06!
17!
18!
05!
16!
07!
08!
19!
0:!
1;!
1<!
09!
1:!
0;!
0<!
1=!
0>!
1?!
1@!
0=!
1>!
0?!
0@!
1A!
0B!
1C!
1D!
0A!
1B!
0C!
0D!
1E!
0F!
1G!
1H!
0E!
1F!
0G!
0H!
1I!
0J!
1K!
1L!
0I!
1J!
0K!
0L!
1M!
0N!
1O!
1R!
0M!
1N!
0O!
0R!
1S!
0T!
1U!
1V!
0S!
1T!
0U!
0V!
1W!
0X!
1Y!
1[!
0W!
1X!
0Y!
0[!
1\!
0]!
1^!
1_!
0\!
1]!
0^!
0_!
1`!
0a!
1b!
0`!
1a!
0b!
#310000
0!
0/
0G
0A
0H
#315000
1!
1/
1G
1A
1H
0C"
0B"
0A"
0@"
0?"
1>"
15"
1v
0y
0T
0U
1Q
0S
1O
1P
1M
0N
1K
1L
1I
0J
0i
1p
0K
0M
0O
0Q
1T
1U
1R
1V
0z
0w
0{
0V
0R
#320000
0!
0/
0G
0A
0H
#325000
1!
1/
1G
1A
1H
1C"
05"
04"
1z
1|
0v
1y
0I
1J
1K
0z
0|
1w
0}
1{
1}
0{
#330000
0!
0/
0G
0A
0H
#335000
1!
1/
1G
1A
1H
0C"
1B"
15"
1v
0y
0K
0L
1I
0J
1K
1L
1M
1z
1|
0w
0}
1{
0M
#340000
0!
0/
0G
0A
0H
#345000
1!
1/
1G
1A
1H
1C"
05"
14"
03"
1}
0%!
0z
0|
0v
1y
0I
1J
0K
0L
1z
1w
0}
1%!
0{
1&!
1(!
1)!
0*!
1'!
0&!
0(!
1{
1M
0)!
1*!
0'!
1+!
1,!
1-!
0.!
0+!
0,!
0-!
1.!
1/!
10!
11!
02!
0/!
00!
01!
12!
13!
14!
15!
06!
03!
04!
05!
16!
17!
18!
19!
0:!
07!
08!
09!
1:!
1;!
1<!
1=!
0>!
0;!
0<!
0=!
1>!
1?!
1@!
1A!
0B!
0?!
0@!
0A!
1B!
1C!
1D!
1E!
0F!
0C!
0D!
0E!
1F!
1G!
1H!
1I!
0J!
0G!
0H!
0I!
1J!
1K!
1L!
1M!
0N!
0K!
0L!
0M!
1N!
1O!
1R!
1S!
0T!
0O!
0R!
0S!
1T!
1U!
1V!
1W!
0X!
0U!
0V!
0W!
1X!
1Y!
1[!
1\!
0]!
0Y!
0[!
0\!
1]!
1^!
1_!
1`!
0a!
0^!
0_!
0`!
1a!
1b!
0b!
#350000
0!
0/
0G
0A
0H
#355000
1!
1/
1G
1A
1H
0C"
0B"
1A"
15"
1v
0y
0M
1N
1K
1L
1I
0J
0K
1M
0N
1O
0z
0w
0{
0O
#360000
0!
0/
0G
0A
0H
#365000
1!
1/
1G
1A
1H
1C"
05"
04"
1z
1|
0v
1y
1~
0I
1J
1K
1$!
0z
0|
1w
1}
0%!
1{
1&!
1(!
0}
1%!
1'!
1f!
0&!
0(!
1)!
0*!
1+!
1,!
0)!
1*!
0+!
0,!
1-!
0.!
1/!
10!
0-!
1.!
0/!
00!
11!
02!
13!
14!
01!
12!
03!
04!
15!
06!
17!
18!
05!
16!
07!
08!
19!
0:!
1;!
1<!
09!
1:!
0;!
0<!
1=!
0>!
1?!
1@!
0=!
1>!
0?!
0@!
1A!
0B!
1C!
1D!
0A!
1B!
0C!
0D!
1E!
0F!
1G!
1H!
0E!
1F!
0G!
0H!
1I!
0J!
1K!
1L!
0I!
1J!
0K!
0L!
1M!
0N!
1O!
1R!
0M!
1N!
0O!
0R!
1S!
0T!
1U!
1V!
0S!
1T!
0U!
0V!
1W!
0X!
1Y!
1[!
0W!
1X!
0Y!
0[!
1\!
0]!
1^!
1_!
0\!
1]!
0^!
0_!
1`!
0a!
1b!
0`!
1a!
0b!
#370000
0!
0/
0G
0A
0H
#375000
1!
1/
1G
1A
1H
0C"
1B"
15"
14"
12"
0r!
0s!
1q!
0m!
1g!
1l!
1&!
1z
1v
0y
0~
0K
0L
1I
0J
1K
1L
0M
1N
0$!
0z
0w
1m!
0n!
0o!
0{
0f!
1n!
1O
1M
0N
0O
1o!
#380000
0!
0/
0G
0A
0H
#385000
1!
1/
1G
1A
1H
1C"
05"
04"
1z
1|
0v
1y
0I
1J
1i
0K
0L
0z
0|
1w
1}
0%!
1{
0&!
0}
1%!
0{
0M
1N
1O
1&!
0'!
1'!
#390000
0!
0/
0G
0A
0H
#395000
1!
1/
1G
1A
1H
0C"
0B"
0A"
1@"
15"
1v
0y
0O
0P
1M
0N
1K
1L
1I
0J
0i
0K
0M
1O
1P
1Q
1z
1|
0w
1}
0%!
1{
1R
0Q
0R
0&!
0'!
#400000
0!
0/
0G
0A
0H
