components/DCmot_PWM_cntrl_0.29 with 20khz/simulation/qsim/DCmot_PWM_cntrl.msim.vcd
$comment
	File created using the following command:
		vcd file DCmot_PWM_cntrl.msim.vcd -direction
$end
$date
	Fri Jun 07 15:10:00 2024
$end
$version
	ModelSim Version 2020.1
$end
$timescale
	1ps
$end

$scope module dcmot_pwm_cntrl_vhd_vec_tst $end
$var wire 1 ! CLK1 $end
$var wire 1 " DCmot_speedv [2] $end
$var wire 1 # DCmot_speedv [1] $end
$var wire 1 $ DCmot_speedv [0] $end
$var wire 1 % PWM_DCmot $end

$scope module i1 $end
$var wire 1 & gnd $end
$var wire 1 ' vcc $end
$var wire 1 ( unknown $end
$var wire 1 ) devoe $end
$var wire 1 * devclrn $end
$var wire 1 + devpor $end
$var wire 1 , ww_devoe $end
$var wire 1 - ww_devclrn $end
$var wire 1 . ww_devpor $end
$var wire 1 / ww_CLK1 $end
$var wire 1 0 ww_DCmot_speedv [2] $end
$var wire 1 1 ww_DCmot_speedv [1] $end
$var wire 1 2 ww_DCmot_speedv [0] $end
$var wire 1 3 ww_PWM_DCmot $end
$var wire 1 4 \~QUARTUS_CREATED_ADC1~_CHSEL_bus\ [4] $end
$var wire 1 5 \~QUARTUS_CREATED_ADC1~_CHSEL_bus\ [3] $end
$var wire 1 6 \~QUARTUS_CREATED_ADC1~_CHSEL_bus\ [2] $end
$var wire 1 7 \~QUARTUS_CREATED_ADC1~_CHSEL_bus\ [1] $end
$var wire 1 8 \~QUARTUS_CREATED_ADC1~_CHSEL_bus\ [0] $end
$var wire 1 9 \~QUARTUS_CREATED_ADC2~_CHSEL_bus\ [4] $end
$var wire 1 : \~QUARTUS_CREATED_ADC2~_CHSEL_bus\ [3] $end
$var wire 1 ; \~QUARTUS_CREATED_ADC2~_CHSEL_bus\ [2] $end
$var wire 1 < \~QUARTUS_CREATED_ADC2~_CHSEL_bus\ [1] $end
$var wire 1 = \~QUARTUS_CREATED_ADC2~_CHSEL_bus\ [0] $end
$var wire 1 > \CLK1~inputclkctrl_INCLK_bus\ [3] $end
$var wire 1 ? \CLK1~inputclkctrl_INCLK_bus\ [2] $end
$var wire 1 @ \CLK1~inputclkctrl_INCLK_bus\ [1] $end
$var wire 1 A \CLK1~inputclkctrl_INCLK_bus\ [0] $end
$var wire 1 B \~QUARTUS_CREATED_GND~I_combout\ $end
$var wire 1 C \~QUARTUS_CREATED_UNVM~~busy\ $end
$var wire 1 D \~QUARTUS_CREATED_ADC1~~eoc\ $end
$var wire 1 E \~QUARTUS_CREATED_ADC2~~eoc\ $end
$var wire 1 F \PWM_DCmot~output_o\ $end
$var wire 1 G \CLK1~input_o\ $end
$var wire 1 H \CLK1~inputclkctrl_outclk\ $end
$var wire 1 I \DCmot_speedv[2]~input_o\ $end
$var wire 1 J \DCmot_speedv[0]~input_o\ $end
$var wire 1 K \DCmot_speedv[1]~input_o\ $end
$var wire 1 L \Add0~0_combout\ $end
$var wire 1 M \Add0~1\ $end
$var wire 1 N \Add0~2_combout\ $end
$var wire 1 O \Add0~3\ $end
$var wire 1 P \Add0~4_combout\ $end
$var wire 1 Q \Add0~5\ $end
$var wire 1 R \Add0~6_combout\ $end
$var wire 1 S \Add0~7\ $end
$var wire 1 T \Add0~8_combout\ $end
$var wire 1 U \Add0~9\ $end
$var wire 1 V \Add0~10_combout\ $end
$var wire 1 W \counter~1_combout\ $end
$var wire 1 X \Add0~11\ $end
$var wire 1 Y \Add0~12_combout\ $end
$var wire 1 Z \Add0~13\ $end
$var wire 1 [ \Add0~14_combout\ $end
$var wire 1 \ \Add0~15\ $end
$var wire 1 ] \Add0~16_combout\ $end
$var wire 1 ^ \Add0~17\ $end
$var wire 1 _ \Add0~18_combout\ $end
$var wire 1 ` \counter~2_combout\ $end
$var wire 1 a \Add0~19\ $end
$var wire 1 b \Add0~20_combout\ $end
$var wire 1 c \counter~3_combout\ $end
$var wire 1 d \Add0~21\ $end
$var wire 1 e \Add0~22_combout\ $end
$var wire 1 f \counter~4_combout\ $end
$var wire 1 g \Add0~23\ $end
$var wire 1 h \Add0~24_combout\ $end
$var wire 1 i \Add0~25\ $end
$var wire 1 j \Add0~26_combout\ $end
$var wire 1 k \Equal0~2_combout\ $end
$var wire 1 l \Equal0~3_combout\ $end
$var wire 1 m \Equal0~0_combout\ $end
$var wire 1 n \Equal0~1_combout\ $end
$var wire 1 o \Equal0~4_combout\ $end
$var wire 1 p \Add0~27\ $end
$var wire 1 q \Add0~28_combout\ $end
$var wire 1 r \counter~0_combout\ $end
$var wire 1 s \LessThan0~0_combout\ $end
$var wire 1 t \innercounter[2]~0_combout\ $end
$var wire 1 u \innercounter~2_combout\ $end
$var wire 1 v \Add2~0_combout\ $end
$var wire 1 w \flag~0_combout\ $end
$var wire 1 x \LessThan1~0_combout\ $end
$var wire 1 y \LessThan1~1_combout\ $end
$var wire 1 z \LessThan1~2_combout\ $end
$var wire 1 { \LessThan0~1_combout\ $end
$var wire 1 | \innercounter[2]~1_combout\ $end
$var wire 1 } \Add2~1\ $end
$var wire 1 ~ \Add2~2_combout\ $end
$var wire 1 !! \Add2~3\ $end
$var wire 1 "! \Add2~4_combout\ $end
$var wire 1 #! \Add2~5\ $end
$var wire 1 $! \Add2~6_combout\ $end
$var wire 1 %! \Add2~7\ $end
$var wire 1 &! \Add2~8_combout\ $end
$var wire 1 '! \Add2~9\ $end
$var wire 1 (! \Add2~10_combout\ $end
$var wire 1 )! \Add2~11\ $end
$var wire 1 *! \Add2~12_combout\ $end
$var wire 1 +! \Add2~13\ $end
$var wire 1 ,! \Add2~14_combout\ $end
$var wire 1 -! \Add2~15\ $end
$var wire 1 .! \Add2~16_combout\ $end
$var wire 1 /! \Add2~17\ $end
$var wire 1 0! \Add2~18_combout\ $end
$var wire 1 1! \Add2~19\ $end
$var wire 1 2! \Add2~20_combout\ $end
$var wire 1 3! \Add2~21\ $end
$var wire 1 4! \Add2~22_combout\ $end
$var wire 1 5! \Add2~23\ $end
$var wire 1 6! \Add2~24_combout\ $end
$var wire 1 7! \Add2~25\ $end
$var wire 1 8! \Add2~26_combout\ $end
$var wire 1 9! \Add2~27\ $end
$var wire 1 :! \Add2~28_combout\ $end
$var wire 1 ;! \Add2~29\ $end
$var wire 1 <! \Add2~30_combout\ $end
$var wire 1 =! \Add2~31\ $end
$var wire 1 >! \Add2~32_combout\ $end
$var wire 1 ?! \Add2~33\ $end
$var wire 1 @! \Add2~34_combout\ $end
$var wire 1 A! \Add2~35\ $end
$var wire 1 B! \Add2~36_combout\ $end
$var wire 1 C! \Add2~37\ $end
$var wire 1 D! \Add2~38_combout\ $end
$var wire 1 E! \Add2~39\ $end
$var wire 1 F! \Add2~40_combout\ $end
$var wire 1 G! \Add2~41\ $end
$var wire 1 H! \Add2~42_combout\ $end
$var wire 1 I! \Add2~43\ $end
$var wire 1 J! \Add2~44_combout\ $end
$var wire 1 K! \Add2~45\ $end
$var wire 1 L! \Add2~46_combout\ $end
$var wire 1 M! \Add2~47\ $end
$var wire 1 N! \Add2~48_combout\ $end
$var wire 1 O! \Add2~49\ $end
$var wire 1 P! \Add2~50_combout\ $end
$var wire 1 Q! \Add2~51\ $end
$var wire 1 R! \Add2~52_combout\ $end
$var wire 1 S! \Add2~53\ $end
$var wire 1 T! \Add2~54_combout\ $end
$var wire 1 U! \Add2~55\ $end
$var wire 1 V! \Add2~56_combout\ $end
$var wire 1 W! \Add2~57\ $end
$var wire 1 X! \Add2~58_combout\ $end
$var wire 1 Y! \Add2~59\ $end
$var wire 1 Z! \Add2~60_combout\ $end
$var wire 1 [! \Add2~61\ $end
$var wire 1 \! \Add2~62_combout\ $end
$var wire 1 ]! \Equal2~9_combout\ $end
$var wire 1 ^! \Equal2~2_combout\ $end
$var wire 1 _! \Equal2~1_combout\ $end
$var wire 1 `! \Equal2~0_combout\ $end
$var wire 1 a! \Equal2~3_combout\ $end
$var wire 1 b! \Equal2~4_combout\ $end
$var wire 1 c! \Equal2~8_combout\ $end
$var wire 1 d! \Equal2~6_combout\ $end
$var wire 1 e! \Equal2~5_combout\ $end
$var wire 1 f! \Equal2~7_combout\ $end
$var wire 1 g! \Equal2~10_combout\ $end
$var wire 1 h! \innercounter[2]~3_combout\ $end
$var wire 1 i! \innercounter~5_combout\ $end
$var wire 1 j! \innercounter~4_combout\ $end
$var wire 1 k! \PWM_DCmot~1_combout\ $end
$var wire 1 l! \PWM_DCmot~2_combout\ $end
$var wire 1 m! \PWM_DCmot~0_combout\ $end
$var wire 1 n! \PWM_DCmot~3_combout\ $end
$var wire 1 o! \PWM_DCmot~reg0_q\ $end
$var wire 1 p! counter [14] $end
$var wire 1 q! counter [13] $end
$var wire 1 r! counter [12] $end
$var wire 1 s! counter [11] $end
$var wire 1 t! counter [10] $end
$var wire 1 u! counter [9] $end
$var wire 1 v! counter [8] $end
$var wire 1 w! counter [7] $end
$var wire 1 x! counter [6] $end
$var wire 1 y! counter [5] $end
$var wire 1 z! counter [4] $end
$var wire 1 {! counter [3] $end
$var wire 1 |! counter [2] $end
$var wire 1 }! counter [1] $end
$var wire 1 ~! counter [0] $end
$var wire 1 !" flag [31] $end
$var wire 1 "" flag [30] $end
$var wire 1 #" flag [29] $end
$var wire 1 $" flag [28] $end
$var wire 1 %" flag [27] $end
$var wire 1 &" flag [26] $end
$var wire 1 '" flag [25] $end
$var wire 1 (" flag [24] $end
$var wire 1 )" flag [23] $end
$var wire 1 *" flag [22] $end
$var wire 1 +" flag [21] $end
$var wire 1 ," flag [20] $end
$var wire 1 -" flag [19] $end
$var wire 1 ." flag [18] $end
$var wire 1 /" flag [17] $end
$var wire 1 0" flag [16] $end
$var wire 1 1" flag [15] $end
$var wire 1 2" flag [14] $end
$var wire 1 3" flag [13] $end
$var wire 1 4" flag [12] $end
$var wire 1 5" flag [11] $end
$var wire 1 6" flag [10] $end
$var wire 1 7" flag [9] $end
$var wire 1 8" flag [8] $end
$var wire 1 9" flag [7] $end
$var wire 1 :" flag [6] $end
$var wire 1 ;" flag [5] $end
$var wire 1 <" flag [4] $end
$var wire 1 =" flag [3] $end
$var wire 1 >" flag [2] $end
$var wire 1 ?" flag [1] $end
$var wire 1 @" flag [0] $end
$var wire 1 A" innercounter [2] $end
$var wire 1 B" innercounter [1] $end
$var wire 1 C" innercounter [0] $end
$upscope $end
$upscope $end
$enddefinitions $end
#0
$dumpvars
0!
0%
0&
1'
x(
1)
1*
1+
1,
1-
1.
0/
03
0B
zC
zD
zE
0F
0G
0H
1I
1J
1K
1L
0M
0N
1O
0P
0Q
0R
1S
0T
0U
0V
0W
1X
0Y
0Z
0[
1\
0]
0^
0_
0`
1a
0b
0c
0d
0e
0f
1g
0h
0i
0j
0k
0l
1m
0n
0o
1p
0q
0r
1s
1t
1u
0v
0w
1x
0y
1z
1{
0|
1}
0~
0!!
0"!
1#!
0$!
0%!
0&!
1'!
0(!
0)!
0*!
1+!
0,!
0-!
0.!
1/!
00!
01!
02!
13!
04!
05!
06!
17!
08!
09!
0:!
1;!
0<!
0=!
0>!
1?!
0@!
0A!
0B!
1C!
0D!
0E!
0F!
1G!
0H!
0I!
0J!
1K!
0L!
0M!
0N!
1O!
0P!
0Q!
0R!
1S!
0T!
0U!
0V!
1W!
0X!
0Y!
0Z!
1[!
0\!
1]!
1^!
1_!
1`!
1a!
1b!
1c!
1d!
1e!
1f!
1g!
0h!
0i!
0j!
1k!
1l!
1m!
1n!
0o!
1"
1#
1$
10
11
12
0p!
0q!
0r!
0s!
0t!
0u!
0v!
0w!
0x!
0y!
0z!
0{!
0|!
0}!
0~!
0!"
0""
0#"
0$"
0%"
0&"
0'"
0("
0)"
0*"
0+"
0,"
0-"
0."
0/"
00"
01"
02"
03"
04"
05"
06"
07"
08"
09"
0:"
0;"
0<"
0="
0>"
0?"
0@"
0A"
0B"
0C"
1>
1?
1@
0A
04
05
06
07
08
09
0:
0;
0<
0=
$end
#5000
1!
1/
1G
1A
1H
1~!
1o!
1F
0L
1M
13
1N
1%
#10000
0!
0/
0G
0A
0H
#15000
1!
1/
1G
1A
1H
0~!
1}!
0N
0O
1L
0M
1N
1O
1P
0P
#20000
0!
0/
0G
0A
0H
#25000
1!
1/
1G
1A
1H
1~!
0L
1M
0N
0O
1P
#30000
0!
0/
0G
0A
0H
#35000
1!
1/
1G
1A
1H
0~!
0}!
1|!
0P
1Q
1N
1O
1L
0M
0N
1P
0Q
1R
0R
#40000
0!
0/
0G
0A
0H
#45000
1!
1/
1G
1A
1H
1~!
0L
1M
1N
#50000
0!
0/
0G
0A
0H
#55000
1!
1/
1G
1A
1H
0~!
1}!
0N
0O
1L
0M
1N
1O
0P
1Q
1R
1P
0Q
0R
#60000
0!
0/
0G
0A
0H
#65000
1!
1/
1G
1A
1H
1~!
0L
1M
1n
0{
0N
0O
0P
1Q
1|
0m!
1h!
1R
#70000
0!
0/
0G
0A
0H
#75000
1!
1/
1G
1A
1H
0~!
0}!
0|!
1{!
1C"
0u
1j!
0R
0S
1P
0Q
1N
1O
1L
0M
0n
0N
0P
1R
1S
1T
0T
#80000
0!
0/
0G
0A
0H
#85000
1!
1/
1G
1A
1H
1~!
0C"
1B"
1u
0L
1M
1N
#90000
0!
0/
0G
0A
0H
#95000
1!
1/
1G
1A
1H
0~!
1}!
1C"
0u
1i!
0j!
0k!
0N
0O
1L
0M
1N
1O
1P
0P
#100000
0!
0/
0G
0A
0H
#105000
1!
1/
1G
1A
1H
1~!
0C"
1A"
0B"
0l!
1u
1k!
0L
1M
0N
0O
1l!
0n!
1n!
1P
#110000
0!
0/
0G
0A
0H
#115000
1!
1/
1G
1A
1H
0~!
0}!
1|!
1C"
0u
1j!
0P
1Q
1N
1O
1L
0M
0N
1P
0Q
0R
0S
1T
1R
1S
0T
#120000
0!
0/
0G
0A
0H
#125000
1!
1/
1G
1A
1H
1~!
0C"
1B"
0i!
0j!
0L
1M
1N
#130000
0!
0/
0G
0A
0H
#135000
1!
1/
1G
1A
1H
0~!
1}!
0A"
0B"
1u
0N
0O
1y
1L
0M
1N
1O
0z
0P
1Q
0R
0S
0|
0l!
1P
0Q
1R
1S
0n!
0h!
1T
0T
#140000
0!
0/
0G
0A
0H
#145000
1!
1/
1G
1A
1H
1~!
0o!
0F
0L
1M
1n
03
0N
0O
0%
0P
1Q
0R
0S
1T
#150000
0!
0/
0G
0A
0H
#155000
1!
1/
1G
1A
1H
0~!
0}!
0|!
0{!
1z!
0T
1U
0x
1R
1S
1P
0Q
1N
1O
0y
1L
0M
0n
0N
0P
0R
1T
0U
1V
1W
0V
0W
#160000
0!
0/
0G
0A
0H
#165000
1!
1/
1G
1A
1H
1~!
0L
1M
1N
#170000
0!
0/
0G
0A
0H
#175000
1!
1/
1G
1A
1H
0~!
1}!
0N
0O
1L
0M
1N
1O
1P
0P
#180000
0!
0/
0G
0A
0H
#185000
1!
1/
1G
1A
1H
1~!
0L
1M
0N
0O
1P
#190000
0!
0/
0G
0A
0H
#195000
1!
1/
1G
1A
1H
0~!
0}!
1|!
0P
1Q
1N
1O
1L
0M
0N
1P
0Q
1R
0R
#200000
0!
0/
0G
0A
0H
#205000
1!
1/
1G
1A
1H
1~!
0L
1M
1N
#210000
0!
0/
0G
0A
0H
#215000
1!
1/
1G
1A
1H
0~!
1}!
0N
0O
1L
0M
1N
1O
0P
1Q
1R
1P
0Q
0R
#220000
0!
0/
0G
0A
0H
#225000
1!
1/
1G
1A
1H
1~!
0L
1M
1n
0N
0O
0P
1Q
1R
#230000
0!
0/
0G
0A
0H
#235000
1!
1/
1G
1A
1H
0~!
0}!
0|!
1{!
0R
0S
1P
0Q
1N
1O
1L
0M
0n
0N
0P
1R
1S
0T
1U
1V
1T
0U
0V
1W
0W
#240000
0!
0/
0G
0A
0H
#245000
1!
1/
1G
1A
1H
1~!
0L
1M
1N
#250000
0!
0/
0G
0A
0H
#255000
1!
1/
1G
1A
1H
0~!
1}!
0N
0O
1L
0M
1N
1O
1P
0P
#260000
0!
0/
0G
0A
0H
#265000
1!
1/
1G
1A
1H
1~!
0L
1M
0N
0O
1P
#270000
0!
0/
0G
0A
0H
#275000
1!
1/
1G
1A
1H
0~!
0}!
1|!
0P
1Q
1N
1O
1L
0M
0N
1P
0Q
0R
0S
0T
1U
1R
1S
1T
0U
1V
1W
0V
0W
#280000
0!
0/
0G
0A
0H
#285000
1!
1/
1G
1A
1H
1~!
0L
1M
1N
#290000
0!
0/
0G
0A
0H
#295000
1!
1/
1G
1A
1H
0~!
1}!
0N
0O
1y
1L
0M
1N
1O
0P
1Q
0R
0S
1P
0Q
1R
1S
0T
1U
1V
1T
0U
0V
1W
0W
#300000
0!
0/
0G
0A
0H
#305000
1!
1/
1G
1A
1H
1~!
0L
1M
1n
0N
0O
0P
1Q
0R
0S
0T
1U
1V
1W
#310000
0!
0/
0G
0A
0H
#315000
1!
1/
1G
1A
1H
0~!
0}!
0|!
0{!
0z!
1y!
0V
0X
0m
1T
0U
1x
1R
1S
1P
0Q
1N
1O
0y
1L
0M
0n
0N
0P
0R
0T
1V
1X
1Y
0W
0Y
1W
#320000
0!
0/
0G
0A
0H
#325000
1!
1/
1G
1A
1H
1~!
0L
1M
1N
#330000
0!
0/
0G
0A
0H
#335000
1!
1/
1G
1A
1H
0~!
1}!
0N
0O
1L
0M
1N
1O
1P
0P
#340000
0!
0/
0G
0A
0H
#345000
1!
1/
1G
1A
1H
1~!
0L
1M
0N
0O
1P
#350000
0!
0/
0G
0A
0H
#355000
1!
1/
1G
1A
1H
0~!
0}!
1|!
0P
1Q
1N
1O
1L
0M
0N
1P
0Q
1R
0R
#360000
0!
0/
0G
0A
0H
#365000
1!
1/
1G
1A
1H
1~!
0L
1M
1N
#370000
0!
0/
0G
0A
0H
#375000
1!
1/
1G
1A
1H
0~!
1}!
0N
0O
1L
0M
1N
1O
0P
1Q
1R
1P
0Q
0R
#380000
0!
0/
0G
0A
0H
#385000
1!
1/
1G
1A
1H
1~!
0L
1M
1n
0N
0O
0P
1Q
1R
#390000
0!
0/
0G
0A
0H
#395000
1!
1/
1G
1A
1H
0~!
0}!
0|!
1{!
0R
0S
1P
0Q
1N
1O
1L
0M
0n
0N
0P
1R
1S
1T
0T
#400000
0!
0/
0G
0A
0H
#405000
1!
1/
1G
1A
1H
1~!
0L
1M
1N
#410000
0!
0/
0G
0A
0H
#415000
1!
1/
1G
1A
1H
0~!
1}!
0N
0O
1L
0M
1N
1O
1P
0P
#420000
0!
0/
0G
0A
0H
#425000
1!
1/
1G
1A
1H
1~!
0L
1M
0N
0O
1P
#430000
0!
0/
0G
0A
0H
#435000
1!
1/
1G
1A
1H
0~!
0}!
1|!
0P
1Q
1N
1O
1L
0M
0N
1P
0Q
0R
0S
1T
1R
1S
0T
#440000
0!
0/
0G
0A
0H
#445000
1!
1/
1G
1A
1H
1~!
0L
1M
1N
#450000
0!
0/
0G
0A
0H
#455000
1!
1/
1G
1A
1H
0~!
1}!
0N
0O
1y
1L
0M
1N
1O
0P
1Q
0R
0S
1P
0Q
1R
1S
1T
0T
#460000
0!
0/
0G
0A
0H
#465000
1!
1/
1G
1A
1H
1~!
0L
1M
1n
0N
0O
0P
1Q
0R
0S
1T
#470000
0!
0/
0G
0A
0H
#475000
1!
1/
1G
1A
1H
0~!
0}!
0|!
0{!
1z!
0T
1U
0x
1R
1S
1P
0Q
1N
1O
0y
1L
0M
0n
0N
0P
0R
1T
0U
0V
0X
1Y
0W
1V
1X
0Y
1W
#480000
0!
0/
0G
0A
0H
#485000
1!
1/
1G
1A
1H
1~!
0L
1M
1N
#490000
0!
0/
0G
0A
0H
#495000
1!
1/
1G
1A
1H
0~!
1}!
0N
0O
1L
0M
1N
1O
1P
0P
#500000
0!
0/
0G
0A
0H
#505000
1!
1/
1G
1A
1H
1~!
0L
1M
0N
0O
1P
#510000
0!
0/
0G
0A
0H
#515000
1!
1/
1G
1A
1H
0~!
0}!
1|!
0P
1Q
1N
1O
1L
0M
0N
1P
0Q
1R
0R
#520000
0!
0/
0G
0A
0H
#525000
1!
1/
1G
1A
1H
1~!
0L
1M
1N
#530000
0!
0/
0G
0A
0H
#535000
1!
1/
1G
1A
1H
0~!
1}!
0N
0O
1L
0M
1N
1O
0P
1Q
1R
1P
0Q
0R
#540000
0!
0/
0G
0A
0H
#545000
1!
1/
1G
1A
1H
1~!
0L
1M
1n
0N
0O
0P
1Q
1R
#550000
0!
0/
0G
0A
0H
#555000
1!
1/
1G
1A
1H
0~!
0}!
0|!
1{!
0R
0S
1P
0Q
1N
1O
1L
0M
0n
0N
0P
1R
1S
0T
1U
0V
0X
1T
0U
1V
1X
1Y
0W
0Y
1W
#560000
0!
0/
0G
0A
0H
#565000
1!
1/
1G
1A
1H
1~!
0L
1M
1N
#570000
0!
0/
0G
0A
0H
#575000
1!
1/
1G
1A
1H
0~!
1}!
0N
0O
1L
0M
1N
1O
1P
0P
#580000
0!
0/
0G
0A
0H
#585000
1!
1/
1G
1A
1H
1~!
0L
1M
0N
0O
1P
#590000
0!
0/
0G
0A
0H
#595000
1!
1/
1G
1A
1H
0~!
0}!
1|!
0P
1Q
1N
1O
1L
0M
0N
1P
0Q
0R
0S
0T
1U
1R
1S
1T
0U
0V
0X
1Y
0W
1V
1X
0Y
1W
#600000
0!
0/
0G
0A
0H
#605000
1!
1/
1G
1A
1H
1~!
0L
1M
1N
#610000
0!
0/
0G
0A
0H
#615000
1!
1/
1G
1A
1H
0~!
1}!
0N
0O
1y
1L
0M
1N
1O
0P
1Q
0R
0S
1P
0Q
1R
1S
0T
1U
0V
0X
1T
0U
1V
1X
1Y
0W
0Y
1W
#620000
0!
0/
0G
0A
0H
#625000
1!
1/
1G
1A
1H
1~!
0L
1M
1n
0N
0O
0P
1Q
0R
0S
0T
1U
0V
0X
1Y
0W
#630000
0!
0/
0G
0A
0H
#635000
1!
1/
1G
1A
1H
0~!
0}!
0|!
0{!
0z!
0y!
1x!
0Y
1Z
1V
1X
1T
0U
1x
1R
1S
1P
0Q
1N
1O
0y
1L
0M
0n
0N
0P
0R
0T
0V
1Y
0Z
1W
1[
0[
0W
#640000
0!
0/
0G
0A
0H
#645000
1!
1/
1G
1A
1H
1~!
0L
1M
1N
#650000
0!
0/
0G
0A
0H
#655000
1!
1/
1G
1A
1H
0~!
1}!
0N
0O
1L
0M
1N
1O
1P
0P
#660000
0!
0/
0G
0A
0H
#665000
1!
1/
1G
1A
1H
1~!
0L
1M
0N
0O
1P
#670000
0!
0/
0G
0A
0H
#675000
1!
1/
1G
1A
1H
0~!
0}!
1|!
0P
1Q
1N
1O
1L
0M
0N
1P
0Q
1R
0R
#680000
0!
0/
0G
0A
0H
#685000
1!
1/
1G
1A
1H
1~!
0L
1M
1N
#690000
0!
0/
0G
0A
0H
#695000
1!
1/
1G
1A
1H
0~!
1}!
0N
0O
1L
0M
1N
1O
0P
1Q
1R
1P
0Q
0R
#700000
0!
0/
0G
0A
0H
#705000
1!
1/
1G
1A
1H
1~!
0L
1M
1n
0N
0O
0P
1Q
1R
#710000
0!
0/
0G
0A
0H
#715000
1!
1/
1G
1A
1H
0~!
0}!
0|!
1{!
0R
0S
1P
0Q
1N
1O
1L
0M
0n
0N
0P
1R
1S
1T
0T
#720000
0!
0/
0G
0A
0H
#725000
1!
1/
1G
1A
1H
1~!
0L
1M
1N
#730000
0!
0/
0G
0A
0H
#735000
1!
1/
1G
1A
1H
0~!
1}!
0N
0O
1L
0M
1N
1O
1P
0P
#740000
0!
0/
0G
0A
0H
#745000
1!
1/
1G
1A
1H
1~!
0L
1M
0N
0O
1P
#750000
0!
0/
0G
0A
0H
#755000
1!
1/
1G
1A
1H
0~!
0}!
1|!
0P
1Q
1N
1O
1L
0M
0N
1P
0Q
0R
0S
1T
1R
1S
0T
#760000
0!
0/
0G
0A
0H
#765000
1!
1/
1G
1A
1H
1~!
0L
1M
1N
#770000
0!
0/
0G
0A
0H
#775000
1!
1/
1G
1A
1H
0~!
1}!
0N
0O
1y
1L
0M
1N
1O
0P
1Q
0R
0S
1P
0Q
1R
1S
1T
0T
#780000
0!
0/
0G
0A
0H
#785000
1!
1/
1G
1A
1H
1~!
0L
1M
1n
0N
0O
0P
1Q
0R
0S
1T
#790000
0!
0/
0G
0A
0H
#795000
1!
1/
1G
1A
1H
0~!
0}!
0|!
0{!
1z!
0T
1U
0x
1R
1S
1P
0Q
1N
1O
0y
1L
0M
0n
0N
0P
0R
1T
0U
1V
1W
0V
0W
#800000
0!
0/
0G
0A
0H
#805000
1!
1/
1G
1A
1H
1~!
0L
1M
1N
#810000
0!
0/
0G
0A
0H
#815000
1!
1/
1G
1A
1H
0~!
1}!
0N
0O
1L
0M
1N
1O
1P
0P
#820000
0!
0/
0G
0A
0H
#825000
1!
1/
1G
1A
1H
1~!
0L
1M
0N
0O
1P
#830000
0!
0/
0G
0A
0H
#835000
1!
1/
1G
1A
1H
0~!
0}!
1|!
0P
1Q
1N
1O
1L
0M
0N
1P
0Q
1R
0R
#840000
0!
0/
0G
0A
0H
#845000
1!
1/
1G
1A
1H
1~!
0L
1M
1N
#850000
0!
0/
0G
0A
0H
#855000
1!
1/
1G
1A
1H
0~!
1}!
0N
0O
1L
0M
1N
1O
0P
1Q
1R
1P
0Q
0R
#860000
0!
0/
0G
0A
0H
#865000
1!
1/
1G
1A
1H
1~!
0L
1M
1n
0N
0O
0P
1Q
1R
#870000
0!
0/
0G
0A
0H
#875000
1!
1/
1G
1A
1H
0~!
0}!
0|!
1{!
0R
0S
1P
0Q
1N
1O
1L
0M
0n
0N
0P
1R
1S
0T
1U
1V
1T
0U
0V
1W
0W
#880000
0!
0/
0G
0A
0H
#885000
1!
1/
1G
1A
1H
1~!
0L
1M
1N
#890000
0!
0/
0G
0A
0H
#895000
1!
1/
1G
1A
1H
0~!
1}!
0N
0O
1L
0M
1N
1O
1P
0P
#900000
0!
0/
0G
0A
0H
#905000
1!
1/
1G
1A
1H
1~!
0L
1M
0N
0O
1P
#910000
0!
0/
0G
0A
0H
#915000
1!
1/
1G
1A
1H
0~!
0}!
1|!
0P
1Q
1N
1O
1L
0M
0N
1P
0Q
0R
0S
0T
1U
1R
1S
1T
0U
1V
1W
0V
0W
#920000
0!
0/
0G
0A
0H
#925000
1!
1/
1G
1A
1H
1~!
0L
1M
1N
#930000
0!
0/
0G
0A
0H
#935000
1!
1/
1G
1A
1H
0~!
1}!
0N
0O
1y
1L
0M
1N
1O
0P
1Q
0R
0S
1P
0Q
1R
1S
0T
1U
1V
1T
0U
0V
1W
0W
#940000
0!
0/
0G
0A
0H
#945000
1!
1/
1G
1A
1H
1~!
0L
1M
1n
0N
0O
0P
1Q
0R
0S
0T
1U
1V
1W
#950000
0!
0/
0G
0A
0H
#955000
1!
1/
1G
1A
1H
0~!
0}!
0|!
0{!
0z!
1y!
0V
0X
1T
0U
1x
1R
1S
1P
0Q
1N
1O
0y
1L
0M
0n
0N
0P
0R
0T
1V
1X
0Y
1Z
0W
1[
1Y
0Z
1W
0[
#960000
0!
0/
0G
0A
0H
#965000
1!
1/
1G
1A
1H
1~!
0L
1M
1N
#970000
0!
0/
0G
0A
0H
#975000
1!
1/
1G
1A
1H
0~!
1}!
0N
0O
1L
0M
1N
1O
1P
0P
#980000
0!
0/
0G
0A
0H
#985000
1!
1/
1G
1A
1H
1~!
0L
1M
0N
0O
1P
#990000
0!
0/
0G
0A
0H
#995000
1!
1/
1G
1A
1H
0~!
0}!
1|!
0P
1Q
1N
1O
1L
0M
0N
1P
0Q
1R
0R
