components/DCmot_PWM_cntrl_0.29 with 20khz/simulation/qsim/DCmot_PWM_cntrl.msim.vcd
$comment
	File created using the following command:
		vcd file DCmot_PWM_cntrl.msim.vcd -direction
$end
$date
	Wed Jun 05 20:34:24 2024
$end
$version
	ModelSim Version 2020.1
$end
$timescale
	1ps
$end

$scope module dcmot_pwm_cntrl_vhd_vec_tst $end
$var wire 1 ! CLK1 $end
$var wire 1 " DCmot_speedv [2] $end
$var wire 1 # DCmot_speedv [1] $end
$var wire 1 $ DCmot_speedv [0] $end
$var wire 1 % PWM_DCmot $end

$scope module i1 $end
$var wire 1 & gnd $end
$var wire 1 ' vcc $end
$var wire 1 ( unknown $end
$var wire 1 ) devoe $end
$var wire 1 * devclrn $end
$var wire 1 + devpor $end
$var wire 1 , ww_devoe $end
$var wire 1 - ww_devclrn $end
$var wire 1 . ww_devpor $end
$var wire 1 / ww_CLK1 $end
$var wire 1 0 ww_DCmot_speedv [2] $end
$var wire 1 1 ww_DCmot_speedv [1] $end
$var wire 1 2 ww_DCmot_speedv [0] $end
$var wire 1 3 ww_PWM_DCmot $end
$var wire 1 4 \~QUARTUS_CREATED_ADC1~_CHSEL_bus\ [4] $end
$var wire 1 5 \~QUARTUS_CREATED_ADC1~_CHSEL_bus\ [3] $end
$var wire 1 6 \~QUARTUS_CREATED_ADC1~_CHSEL_bus\ [2] $end
$var wire 1 7 \~QUARTUS_CREATED_ADC1~_CHSEL_bus\ [1] $end
$var wire 1 8 \~QUARTUS_CREATED_ADC1~_CHSEL_bus\ [0] $end
$var wire 1 9 \~QUARTUS_CREATED_ADC2~_CHSEL_bus\ [4] $end
$var wire 1 : \~QUARTUS_CREATED_ADC2~_CHSEL_bus\ [3] $end
$var wire 1 ; \~QUARTUS_CREATED_ADC2~_CHSEL_bus\ [2] $end
$var wire 1 < \~QUARTUS_CREATED_ADC2~_CHSEL_bus\ [1] $end
$var wire 1 = \~QUARTUS_CREATED_ADC2~_CHSEL_bus\ [0] $end
$var wire 1 > \CLK1~inputclkctrl_INCLK_bus\ [3] $end
$var wire 1 ? \CLK1~inputclkctrl_INCLK_bus\ [2] $end
$var wire 1 @ \CLK1~inputclkctrl_INCLK_bus\ [1] $end
$var wire 1 A \CLK1~inputclkctrl_INCLK_bus\ [0] $end
$var wire 1 B \~QUARTUS_CREATED_GND~I_combout\ $end
$var wire 1 C \~QUARTUS_CREATED_UNVM~~busy\ $end
$var wire 1 D \~QUARTUS_CREATED_ADC1~~eoc\ $end
$var wire 1 E \~QUARTUS_CREATED_ADC2~~eoc\ $end
$var wire 1 F \PWM_DCmot~output_o\ $end
$var wire 1 G \CLK1~input_o\ $end
$var wire 1 H \CLK1~inputclkctrl_outclk\ $end
$var wire 1 I \DCmot_speedv[0]~input_o\ $end
$var wire 1 J \DCmot_speedv[2]~input_o\ $end
$var wire 1 K \Add0~13\ $end
$var wire 1 L \Add0~14_combout\ $end
$var wire 1 M \Add0~15\ $end
$var wire 1 N \Add0~16_combout\ $end
$var wire 1 O \Add0~17\ $end
$var wire 1 P \Add0~18_combout\ $end
$var wire 1 Q \counter~0_combout\ $end
$var wire 1 R \Add0~0_combout\ $end
$var wire 1 S \Add0~1\ $end
$var wire 1 T \Add0~2_combout\ $end
$var wire 1 U \Add0~19\ $end
$var wire 1 V \Add0~20_combout\ $end
$var wire 1 W \counter~1_combout\ $end
$var wire 1 X \Add0~21\ $end
$var wire 1 Y \Add0~22_combout\ $end
$var wire 1 Z \counter~2_combout\ $end
$var wire 1 [ \Equal0~3_combout\ $end
$var wire 1 \ \Equal0~4_combout\ $end
$var wire 1 ] \Add0~3\ $end
$var wire 1 ^ \Add0~4_combout\ $end
$var wire 1 _ \Add0~5\ $end
$var wire 1 ` \Add0~6_combout\ $end
$var wire 1 a \Add0~7\ $end
$var wire 1 b \Add0~8_combout\ $end
$var wire 1 c \Add0~9\ $end
$var wire 1 d \Add0~10_combout\ $end
$var wire 1 e \counter~3_combout\ $end
$var wire 1 f \Add0~11\ $end
$var wire 1 g \Add0~12_combout\ $end
$var wire 1 h \Equal0~1_combout\ $end
$var wire 1 i \Add0~23\ $end
$var wire 1 j \Add0~24_combout\ $end
$var wire 1 k \Add0~25\ $end
$var wire 1 l \Add0~26_combout\ $end
$var wire 1 m \Equal0~0_combout\ $end
$var wire 1 n \Equal0~2_combout\ $end
$var wire 1 o \Add0~27\ $end
$var wire 1 p \Add0~28_combout\ $end
$var wire 1 q \counter~4_combout\ $end
$var wire 1 r \DCmot_speedv[1]~input_o\ $end
$var wire 1 s \PWM_DCmot~2_combout\ $end
$var wire 1 t \LessThan0~0_combout\ $end
$var wire 1 u \LessThan0~1_combout\ $end
$var wire 1 v \LessThan0~2_combout\ $end
$var wire 1 w \PWM_DCmot~3_combout\ $end
$var wire 1 x \PWM_DCmot~reg0_q\ $end
$var wire 1 y counter [14] $end
$var wire 1 z counter [13] $end
$var wire 1 { counter [12] $end
$var wire 1 | counter [11] $end
$var wire 1 } counter [10] $end
$var wire 1 ~ counter [9] $end
$var wire 1 !! counter [8] $end
$var wire 1 "! counter [7] $end
$var wire 1 #! counter [6] $end
$var wire 1 $! counter [5] $end
$var wire 1 %! counter [4] $end
$var wire 1 &! counter [3] $end
$var wire 1 '! counter [2] $end
$var wire 1 (! counter [1] $end
$var wire 1 )! counter [0] $end
$upscope $end
$upscope $end
$enddefinitions $end
#0
$dumpvars
0!
0%
0&
1'
x(
1)
1*
1+
1,
1-
1.
0/
03
0B
zC
zD
zE
0F
0G
0H
1I
0J
0K
0L
1M
0N
0O
0P
0Q
1R
0S
0T
1U
0V
0W
0X
0Y
0Z
0[
0\
1]
0^
0_
0`
1a
0b
0c
0d
0e
1f
0g
0h
1i
0j
0k
0l
1m
0n
1o
0p
0q
0r
1s
1t
1u
1v
1w
0x
0"
0#
1$
00
01
12
0y
0z
0{
0|
0}
0~
0!!
0"!
0#!
0$!
0%!
0&!
0'!
0(!
0)!
1>
1?
1@
0A
04
05
06
07
08
09
0:
0;
0<
0=
$end
#500
1!
1/
1G
1A
1H
1)!
1x
1F
0R
1S
13
1T
1%
#1000
0!
0/
0G
0A
0H
#1500
1!
1/
1G
1A
1H
0)!
1(!
0T
0]
1R
0S
1T
1]
1^
0^
#2000
0!
0/
0G
0A
0H
#2500
1!
1/
1G
1A
1H
1)!
0R
1S
0T
0]
1^
#3000
0!
0/
0G
0A
0H
#3500
1!
1/
1G
1A
1H
0)!
0(!
1'!
0^
1_
1T
1]
1R
0S
0T
1^
0_
1`
0`
#4000
0!
0/
0G
0A
0H
#4500
1!
1/
1G
1A
1H
1)!
0R
1S
1T
#5000
0!
0/
0G
0A
0H
#5500
1!
1/
1G
1A
1H
0)!
1(!
0T
0]
1R
0S
1T
1]
0^
1_
1`
1^
0_
0`
#6000
0!
0/
0G
0A
0H
#6500
1!
1/
1G
1A
1H
1)!
0R
1S
0T
0]
0^
1_
1`
#7000
0!
0/
0G
0A
0H
#7500
1!
1/
1G
1A
1H
0)!
0(!
0'!
1&!
0`
0a
1^
0_
1T
1]
1R
0S
0T
0^
1`
1a
1b
0b
#8000
0!
0/
0G
0A
0H
#8500
1!
1/
1G
1A
1H
1)!
0R
1S
1T
#9000
0!
0/
0G
0A
0H
#9500
1!
1/
1G
1A
1H
0)!
1(!
0T
0]
1R
0S
1T
1]
1^
0^
#10000
0!
0/
0G
0A
0H
#10500
1!
1/
1G
1A
1H
1)!
0R
1S
0T
0]
1^
#11000
0!
0/
0G
0A
0H
#11500
1!
1/
1G
1A
1H
0)!
0(!
1'!
0^
1_
1T
1]
1R
0S
0T
1^
0_
0`
0a
1b
1`
1a
0b
#12000
0!
0/
0G
0A
0H
#12500
1!
1/
1G
1A
1H
1)!
0R
1S
1T
#13000
0!
0/
0G
0A
0H
#13500
1!
1/
1G
1A
1H
0)!
1(!
0T
0]
1R
0S
1T
1]
0^
1_
0`
0a
1^
0_
1`
1a
1b
0b
#14000
0!
0/
0G
0A
0H
#14500
1!
1/
1G
1A
1H
1)!
0R
1S
0T
0]
0^
1_
0`
0a
1b
#15000
0!
0/
0G
0A
0H
#15500
1!
1/
1G
1A
1H
0)!
0(!
0'!
0&!
1%!
0b
1c
1`
1a
1^
0_
1T
1]
1R
0S
0T
0^
0`
1b
0c
1d
1e
0d
0e
#16000
0!
0/
0G
0A
0H
#16500
1!
1/
1G
1A
1H
1)!
0R
1S
1T
#17000
0!
0/
0G
0A
0H
#17500
1!
1/
1G
1A
1H
0)!
1(!
0T
0]
1R
0S
1T
1]
1^
0^
#18000
0!
0/
0G
0A
0H
#18500
1!
1/
1G
1A
1H
1)!
0R
1S
0T
0]
1^
#19000
0!
0/
0G
0A
0H
#19500
1!
1/
1G
1A
1H
0)!
0(!
1'!
0^
1_
1T
1]
1R
0S
0T
1^
0_
1`
0`
#20000
0!
0/
0G
0A
0H
#20500
1!
1/
1G
1A
1H
1)!
0R
1S
1T
#21000
0!
0/
0G
0A
0H
#21500
1!
1/
1G
1A
1H
0)!
1(!
0T
0]
1R
0S
1T
1]
0^
1_
1`
1^
0_
0`
#22000
0!
0/
0G
0A
0H
#22500
1!
1/
1G
1A
1H
1)!
0R
1S
0T
0]
0^
1_
1`
#23000
0!
0/
0G
0A
0H
#23500
1!
1/
1G
1A
1H
0)!
0(!
0'!
1&!
0`
0a
1^
0_
1T
1]
1R
0S
0T
0^
1`
1a
0b
1c
1d
1b
0c
0d
1e
0e
#24000
0!
0/
0G
0A
0H
#24500
1!
1/
1G
1A
1H
1)!
0R
1S
1T
#25000
0!
0/
0G
0A
0H
#25500
1!
1/
1G
1A
1H
0)!
1(!
0T
0]
1R
0S
1T
1]
1^
0^
#26000
0!
0/
0G
0A
0H
#26500
1!
1/
1G
1A
1H
1)!
0R
1S
0T
0]
1^
#27000
0!
0/
0G
0A
0H
#27500
1!
1/
1G
1A
1H
0)!
0(!
1'!
0^
1_
1T
1]
1R
0S
0T
1^
0_
0`
0a
0b
1c
1`
1a
1b
0c
1d
1e
0d
0e
#28000
0!
0/
0G
0A
0H
#28500
1!
1/
1G
1A
1H
1)!
0R
1S
1h
1n
1T
#29000
0!
0/
0G
0A
0H
#29500
1!
1/
1G
1A
1H
0)!
1(!
0T
0]
1R
0S
0h
0n
1T
1]
0^
1_
0`
0a
1^
0_
1`
1a
0b
1c
1d
1b
0c
0d
1e
0e
#30000
0!
0/
0G
0A
0H
#30500
1!
1/
1G
1A
1H
1)!
0R
1S
1h
1n
0T
0]
0^
1_
0`
0a
0b
1c
1d
1e
#31000
0!
0/
0G
0A
0H
#31500
1!
1/
1G
1A
1H
0)!
0(!
0'!
0&!
0%!
1$!
0d
0f
1b
0c
1`
1a
1^
0_
1T
1]
1R
0S
0h
0n
0T
0^
0`
0b
1d
1f
1g
0e
0g
1e
#32000
0!
0/
0G
0A
0H
#32500
1!
1/
1G
1A
1H
1)!
0R
1S
1T
#33000
0!
0/
0G
0A
0H
#33500
1!
1/
1G
1A
1H
0)!
1(!
0T
0]
1R
0S
1T
1]
1^
0^
#34000
0!
0/
0G
0A
0H
#34500
1!
1/
1G
1A
1H
1)!
0R
1S
0T
0]
1^
#35000
0!
0/
0G
0A
0H
#35500
1!
1/
1G
1A
1H
0)!
0(!
1'!
0^
1_
1T
1]
1R
0S
0T
1^
0_
1`
0`
#36000
0!
0/
0G
0A
0H
#36500
1!
1/
1G
1A
1H
1)!
0R
1S
1T
#37000
0!
0/
0G
0A
0H
#37500
1!
1/
1G
1A
1H
0)!
1(!
0T
0]
1R
0S
1T
1]
0^
1_
1`
1^
0_
0`
#38000
0!
0/
0G
0A
0H
#38500
1!
1/
1G
1A
1H
1)!
0R
1S
0T
0]
0^
1_
1`
#39000
0!
0/
0G
0A
0H
#39500
1!
1/
1G
1A
1H
0)!
0(!
0'!
1&!
0`
0a
1^
0_
1T
1]
1R
0S
0T
0^
1`
1a
1b
0b
#40000
0!
0/
0G
0A
0H
#40500
1!
1/
1G
1A
1H
1)!
0R
1S
1T
#41000
0!
0/
0G
0A
0H
#41500
1!
1/
1G
1A
1H
0)!
1(!
0T
0]
1R
0S
1T
1]
1^
0^
#42000
0!
0/
0G
0A
0H
#42500
1!
1/
1G
1A
1H
1)!
0R
1S
0T
0]
1^
#43000
0!
0/
0G
0A
0H
#43500
1!
1/
1G
1A
1H
0)!
0(!
1'!
0^
1_
1T
1]
1R
0S
0T
1^
0_
0`
0a
1b
1`
1a
0b
#44000
0!
0/
0G
0A
0H
#44500
1!
1/
1G
1A
1H
1)!
0R
1S
1T
#45000
0!
0/
0G
0A
0H
#45500
1!
1/
1G
1A
1H
0)!
1(!
0T
0]
1R
0S
1T
1]
0^
1_
0`
0a
1^
0_
1`
1a
1b
0b
#46000
0!
0/
0G
0A
0H
#46500
1!
1/
1G
1A
1H
1)!
0R
1S
0T
0]
0^
1_
0`
0a
1b
#47000
0!
0/
0G
0A
0H
#47500
1!
1/
1G
1A
1H
0)!
0(!
0'!
0&!
1%!
0b
1c
1`
1a
1^
0_
1T
1]
1R
0S
0T
0^
0`
1b
0c
0d
0f
1g
0e
1d
1f
0g
1e
#48000
0!
0/
0G
0A
0H
#48500
1!
1/
1G
1A
1H
1)!
0R
1S
1T
#49000
0!
0/
0G
0A
0H
#49500
1!
1/
1G
1A
1H
0)!
1(!
0T
0]
1R
0S
1T
1]
1^
0^
#50000
0!
0/
0G
0A
0H
#50500
1!
1/
1G
1A
1H
1)!
0R
1S
0T
0]
1^
#51000
0!
0/
0G
0A
0H
#51500
1!
1/
1G
1A
1H
0)!
0(!
1'!
0^
1_
1T
1]
1R
0S
0T
1^
0_
1`
0`
#52000
0!
0/
0G
0A
0H
#52500
1!
1/
1G
1A
1H
1)!
0R
1S
1T
#53000
0!
0/
0G
0A
0H
#53500
1!
1/
1G
1A
1H
0)!
1(!
0T
0]
1R
0S
1T
1]
0^
1_
1`
1^
0_
0`
#54000
0!
0/
0G
0A
0H
#54500
1!
1/
1G
1A
1H
1)!
0R
1S
0T
0]
0^
1_
1`
#55000
0!
0/
0G
0A
0H
#55500
1!
1/
1G
1A
1H
0)!
0(!
0'!
1&!
0`
0a
1^
0_
1T
1]
1R
0S
0T
0^
1`
1a
0b
1c
0d
0f
1b
0c
1d
1f
1g
0e
0g
1e
#56000
0!
0/
0G
0A
0H
#56500
1!
1/
1G
1A
1H
1)!
0R
1S
1T
#57000
0!
0/
0G
0A
0H
#57500
1!
1/
1G
1A
1H
0)!
1(!
0T
0]
1R
0S
1T
1]
1^
0^
#58000
0!
0/
0G
0A
0H
#58500
1!
1/
1G
1A
1H
1)!
0R
1S
0T
0]
1^
#59000
0!
0/
0G
0A
0H
#59500
1!
1/
1G
1A
1H
0)!
0(!
1'!
0^
1_
0u
1T
1]
1R
0S
0T
1^
0_
0`
0a
0b
1c
1`
1a
1b
0c
0d
0f
1g
0e
1d
1f
0g
1e
#60000
0!
0/
0G
0A
0H
#60500
1!
1/
1G
1A
1H
1)!
0R
1S
1h
1n
1T
#61000
0!
0/
0G
0A
0H
#61500
1!
1/
1G
1A
1H
0)!
1(!
0T
0]
1R
0S
0h
0n
1T
1]
0^
1_
0`
0a
1^
0_
1`
1a
0b
1c
0d
0f
1b
0c
1d
1f
1g
0e
0g
1e
#62000
0!
0/
0G
0A
0H
#62500
1!
1/
1G
1A
1H
1)!
0R
1S
1h
1n
0T
0]
0^
1_
0`
0a
0b
1c
0d
0f
1g
0e
#63000
0!
0/
0G
0A
0H
#63500
1!
1/
1G
1A
1H
0)!
0(!
0'!
0&!
0%!
0$!
1#!
0g
1K
0n
1d
1f
1b
0c
1`
1a
1^
0_
1u
1T
1]
1R
0S
0h
0T
0^
0`
0b
0d
1g
0K
1e
1L
0L
0e
#64000
0!
0/
0G
0A
0H
#64500
1!
1/
1G
1A
1H
1)!
0R
1S
1T
#65000
0!
0/
0G
0A
0H
#65500
1!
1/
1G
1A
1H
0)!
1(!
0T
0]
1R
0S
1T
1]
1^
0^
#66000
0!
0/
0G
0A
0H
#66500
1!
1/
1G
1A
1H
1)!
0R
1S
0T
0]
1^
#67000
0!
0/
0G
0A
0H
#67500
1!
1/
1G
1A
1H
0)!
0(!
1'!
0^
1_
1T
1]
1R
0S
0T
1^
0_
1`
0`
#68000
0!
0/
0G
0A
0H
#68500
1!
1/
1G
1A
1H
1)!
0R
1S
1T
#69000
0!
0/
0G
0A
0H
#69500
1!
1/
1G
1A
1H
0)!
1(!
0T
0]
1R
0S
1T
1]
0^
1_
1`
1^
0_
0`
#70000
0!
0/
0G
0A
0H
#70500
1!
1/
1G
1A
1H
1)!
0R
1S
0T
0]
0^
1_
1`
#71000
0!
0/
0G
0A
0H
#71500
1!
1/
1G
1A
1H
0)!
0(!
0'!
1&!
0`
0a
1^
0_
1T
1]
1R
0S
0T
0^
1`
1a
1b
0b
#72000
0!
0/
0G
0A
0H
#72500
1!
1/
1G
1A
1H
1)!
0R
1S
1T
#73000
0!
0/
0G
0A
0H
#73500
1!
1/
1G
1A
1H
0)!
1(!
0T
0]
1R
0S
1T
1]
1^
0^
#74000
0!
0/
0G
0A
0H
#74500
1!
1/
1G
1A
1H
1)!
0R
1S
0T
0]
1^
#75000
0!
0/
0G
0A
0H
#75500
1!
1/
1G
1A
1H
0)!
0(!
1'!
0^
1_
1T
1]
1R
0S
0T
1^
0_
0`
0a
1b
1`
1a
0b
#76000
0!
0/
0G
0A
0H
#76500
1!
1/
1G
1A
1H
1)!
0R
1S
1T
#77000
0!
0/
0G
0A
0H
#77500
1!
1/
1G
1A
1H
0)!
1(!
0T
0]
1R
0S
1T
1]
0^
1_
0`
0a
1^
0_
1`
1a
1b
0b
#78000
0!
0/
0G
0A
0H
#78500
1!
1/
1G
1A
1H
1)!
0R
1S
0T
0]
0^
1_
0`
0a
1b
#79000
0!
0/
0G
0A
0H
#79500
1!
1/
1G
1A
1H
0)!
0(!
0'!
0&!
1%!
0b
1c
1`
1a
1^
0_
1T
1]
1R
0S
0T
0^
0`
1b
0c
1d
1e
0d
0e
#80000
0!
0/
0G
0A
0H
#80500
1!
1/
1G
1A
1H
1)!
0R
1S
1T
#81000
0!
0/
0G
0A
0H
#81500
1!
1/
1G
1A
1H
0)!
1(!
0T
0]
1R
0S
1T
1]
1^
0^
#82000
0!
0/
0G
0A
0H
#82500
1!
1/
1G
1A
1H
1)!
0R
1S
0T
0]
1^
#83000
0!
0/
0G
0A
0H
#83500
1!
1/
1G
1A
1H
0)!
0(!
1'!
0^
1_
1T
1]
1R
0S
0T
1^
0_
1`
0`
#84000
0!
0/
0G
0A
0H
#84500
1!
1/
1G
1A
1H
1)!
0R
1S
1T
#85000
0!
0/
0G
0A
0H
#85500
1!
1/
1G
1A
1H
0)!
1(!
0T
0]
1R
0S
1T
1]
0^
1_
1`
1^
0_
0`
#86000
0!
0/
0G
0A
0H
#86500
1!
1/
1G
1A
1H
1)!
0R
1S
0T
0]
0^
1_
1`
#87000
0!
0/
0G
0A
0H
#87500
1!
1/
1G
1A
1H
0)!
0(!
0'!
1&!
0`
0a
1^
0_
1T
1]
1R
0S
0T
0^
1`
1a
0b
1c
1d
1b
0c
0d
1e
0e
#88000
0!
0/
0G
0A
0H
#88500
1!
1/
1G
1A
1H
1)!
0R
1S
1T
#89000
0!
0/
0G
0A
0H
#89500
1!
1/
1G
1A
1H
0)!
1(!
0T
0]
1R
0S
1T
1]
1^
0^
#90000
0!
0/
0G
0A
0H
#90500
1!
1/
1G
1A
1H
1)!
0R
1S
0T
0]
1^
#91000
0!
0/
0G
0A
0H
#91500
1!
1/
1G
1A
1H
0)!
0(!
1'!
0^
1_
1T
1]
1R
0S
0T
1^
0_
0`
0a
0b
1c
1`
1a
1b
0c
1d
1e
0d
0e
#92000
0!
0/
0G
0A
0H
#92500
1!
1/
1G
1A
1H
1)!
0R
1S
1h
1T
#93000
0!
0/
0G
0A
0H
#93500
1!
1/
1G
1A
1H
0)!
1(!
0T
0]
1R
0S
0h
1T
1]
0^
1_
0`
0a
1^
0_
1`
1a
0b
1c
1d
1b
0c
0d
1e
0e
#94000
0!
0/
0G
0A
0H
#94500
1!
1/
1G
1A
1H
1)!
0R
1S
1h
0T
0]
0^
1_
0`
0a
0b
1c
1d
1e
#95000
0!
0/
0G
0A
0H
#95500
1!
1/
1G
1A
1H
0)!
0(!
0'!
0&!
0%!
1$!
0d
0f
1b
0c
1`
1a
1^
0_
1T
1]
1R
0S
0h
0T
0^
0`
0b
1d
1f
0g
1K
0e
1L
1g
0K
1e
0L
#96000
0!
0/
0G
0A
0H
#96500
1!
1/
1G
1A
1H
1)!
0R
1S
1T
#97000
0!
0/
0G
0A
0H
#97500
1!
1/
1G
1A
1H
0)!
1(!
0T
0]
1R
0S
1T
1]
1^
0^
#98000
0!
0/
0G
0A
0H
#98500
1!
1/
1G
1A
1H
1)!
0R
1S
0T
0]
1^
#99000
0!
0/
0G
0A
0H
#99500
1!
1/
1G
1A
1H
0)!
0(!
1'!
0^
1_
1T
1]
1R
0S
0T
1^
0_
1`
0`
#100000
0!
0/
0G
0A
0H
#100500
1!
1/
1G
1A
1H
1)!
0R
1S
1T
#101000
0!
0/
0G
0A
0H
#101500
1!
1/
1G
1A
1H
0)!
1(!
0T
0]
1R
0S
1T
1]
0^
1_
1`
1^
0_
0`
#102000
0!
0/
0G
0A
0H
#102500
1!
1/
1G
1A
1H
1)!
0R
1S
0T
0]
0^
1_
1`
#103000
0!
0/
0G
0A
0H
#103500
1!
1/
1G
1A
1H
0)!
0(!
0'!
1&!
0`
0a
1^
0_
1T
1]
1R
0S
0T
0^
1`
1a
1b
0b
#104000
0!
0/
0G
0A
0H
#104500
1!
1/
1G
1A
1H
1)!
0R
1S
1T
#105000
0!
0/
0G
0A
0H
#105500
1!
1/
1G
1A
1H
0)!
1(!
0T
0]
1R
0S
1T
1]
1^
0^
#106000
0!
0/
0G
0A
0H
#106500
1!
1/
1G
1A
1H
1)!
0R
1S
0T
0]
1^
#107000
0!
0/
0G
0A
0H
#107500
1!
1/
1G
1A
1H
0)!
0(!
1'!
0^
1_
1T
1]
1R
0S
0T
1^
0_
0`
0a
1b
1`
1a
0b
#108000
0!
0/
0G
0A
0H
#108500
1!
1/
1G
1A
1H
1)!
0R
1S
1T
#109000
0!
0/
0G
0A
0H
#109500
1!
1/
1G
1A
1H
0)!
1(!
0T
0]
1R
0S
1T
1]
0^
1_
0`
0a
1^
0_
1`
1a
1b
0b
#110000
0!
0/
0G
0A
0H
#110500
1!
1/
1G
1A
1H
1)!
0R
1S
0T
0]
0^
1_
0`
0a
1b
#111000
0!
0/
0G
0A
0H
#111500
1!
1/
1G
1A
1H
0)!
0(!
0'!
0&!
1%!
0b
1c
1`
1a
1^
0_
1T
1]
1R
0S
0T
0^
0`
1b
0c
0d
0f
0g
1K
0e
1d
1f
1g
0K
1e
1L
0L
#112000
0!
0/
0G
0A
0H
#112500
1!
1/
1G
1A
1H
1)!
0R
1S
1T
#113000
0!
0/
0G
0A
0H
#113500
1!
1/
1G
1A
1H
0)!
1(!
0T
0]
1R
0S
1T
1]
1^
0^
#114000
0!
0/
0G
0A
0H
#114500
1!
1/
1G
1A
1H
1)!
0R
1S
0T
0]
1^
#115000
0!
0/
0G
0A
0H
#115500
1!
1/
1G
1A
1H
0)!
0(!
1'!
0^
1_
1T
1]
1R
0S
0T
1^
0_
1`
0`
#116000
0!
0/
0G
0A
0H
#116500
1!
1/
1G
1A
1H
1)!
0R
1S
1T
#117000
0!
0/
0G
0A
0H
#117500
1!
1/
1G
1A
1H
0)!
1(!
0T
0]
1R
0S
1T
1]
0^
1_
1`
1^
0_
0`
#118000
0!
0/
0G
0A
0H
#118500
1!
1/
1G
1A
1H
1)!
0R
1S
0T
0]
0^
1_
1`
#119000
0!
0/
0G
0A
0H
#119500
1!
1/
1G
1A
1H
0)!
0(!
0'!
1&!
0`
0a
1^
0_
1T
1]
1R
0S
0T
0^
1`
1a
0b
1c
0d
0f
1b
0c
1d
1f
0g
1K
0e
1L
1g
0K
1e
0L
#120000
0!
0/
0G
0A
0H
#120500
1!
1/
1G
1A
1H
1)!
0R
1S
1T
#121000
0!
0/
0G
0A
0H
#121500
1!
1/
1G
1A
1H
0)!
1(!
0T
0]
1R
0S
1T
1]
1^
0^
#122000
0!
0/
0G
0A
0H
#122500
1!
1/
1G
1A
1H
1)!
0R
1S
0T
0]
1^
#123000
0!
0/
0G
0A
0H
#123500
1!
1/
1G
1A
1H
0)!
0(!
1'!
0^
1_
0u
1T
1]
1R
0S
0T
1^
0_
0`
0a
0b
1c
1`
1a
1b
0c
0d
0f
0g
1K
0e
1d
1f
1g
0K
1e
1L
0L
#124000
0!
0/
0G
0A
0H
#124500
1!
1/
1G
1A
1H
1)!
0R
1S
1h
1T
#125000
0!
0/
0G
0A
0H
#125500
1!
1/
1G
1A
1H
0)!
1(!
0T
0]
1R
0S
0h
1T
1]
0^
1_
0`
0a
1^
0_
1`
1a
0b
1c
0d
0f
1b
0c
1d
1f
0g
1K
0e
1L
1g
0K
1e
0L
#126000
0!
0/
0G
0A
0H
#126500
1!
1/
1G
1A
1H
1)!
0R
1S
1h
0T
0]
0^
1_
0`
0a
0b
1c
0d
0f
0g
1K
0e
1L
#127000
0!
0/
0G
0A
0H
#127500
1!
1/
1G
1A
1H
1"!
0)!
0(!
0'!
0&!
0%!
0$!
0#!
1g
0K
1d
1f
1b
0c
1`
1a
1^
0_
1u
1T
1]
1R
0S
0h
0L
0M
1N
0T
0^
0`
0b
0d
0g
1e
1L
1M
0N
0e
#128000
0!
0/
0G
0A
0H
#128500
1!
1/
1G
1A
1H
1)!
0R
1S
1T
#129000
0!
0/
0G
0A
0H
#129500
1!
1/
1G
1A
1H
0)!
1(!
0T
0]
1R
0S
1T
1]
1^
0^
#130000
0!
0/
0G
0A
0H
#130500
1!
1/
1G
1A
1H
1)!
0R
1S
0T
0]
1^
#131000
0!
0/
0G
0A
0H
#131500
1!
1/
1G
1A
1H
0)!
0(!
1'!
0^
1_
1T
1]
1R
0S
0T
1^
0_
1`
0`
#132000
0!
0/
0G
0A
0H
#132500
1!
1/
1G
1A
1H
1)!
0R
1S
1T
#133000
0!
0/
0G
0A
0H
#133500
1!
1/
1G
1A
1H
0)!
1(!
0T
0]
1R
0S
1T
1]
0^
1_
1`
1^
0_
0`
#134000
0!
0/
0G
0A
0H
#134500
1!
1/
1G
1A
1H
1)!
0R
1S
0T
0]
0^
1_
1`
#135000
0!
0/
0G
0A
0H
#135500
1!
1/
1G
1A
1H
0)!
0(!
0'!
1&!
0`
0a
1^
0_
1T
1]
1R
0S
0T
0^
1`
1a
1b
0b
#136000
0!
0/
0G
0A
0H
#136500
1!
1/
1G
1A
1H
1)!
0R
1S
1T
#137000
0!
0/
0G
0A
0H
#137500
1!
1/
1G
1A
1H
0)!
1(!
0T
0]
1R
0S
1T
1]
1^
0^
#138000
0!
0/
0G
0A
0H
#138500
1!
1/
1G
1A
1H
1)!
0R
1S
0T
0]
1^
#139000
0!
0/
0G
0A
0H
#139500
1!
1/
1G
1A
1H
0)!
0(!
1'!
0^
1_
1T
1]
1R
0S
0T
1^
0_
0`
0a
1b
1`
1a
0b
#140000
0!
0/
0G
0A
0H
#140500
1!
1/
1G
1A
1H
1)!
0R
1S
1T
#141000
0!
0/
0G
0A
0H
#141500
1!
1/
1G
1A
1H
0)!
1(!
0T
0]
1R
0S
1T
1]
0^
1_
0`
0a
1^
0_
1`
1a
1b
0b
#142000
0!
0/
0G
0A
0H
#142500
1!
1/
1G
1A
1H
1)!
0R
1S
0T
0]
0^
1_
0`
0a
1b
#143000
0!
0/
0G
0A
0H
#143500
1!
1/
1G
1A
1H
0)!
0(!
0'!
0&!
1%!
0b
1c
1`
1a
1^
0_
1T
1]
1R
0S
0T
0^
0`
1b
0c
1d
1e
0d
0e
#144000
0!
0/
0G
0A
0H
#144500
1!
1/
1G
1A
1H
1)!
0R
1S
1T
#145000
0!
0/
0G
0A
0H
#145500
1!
1/
1G
1A
1H
0)!
1(!
0T
0]
1R
0S
1T
1]
1^
0^
#146000
0!
0/
0G
0A
0H
#146500
1!
1/
1G
1A
1H
1)!
0R
1S
0T
0]
1^
#147000
0!
0/
0G
0A
0H
#147500
1!
1/
1G
1A
1H
0)!
0(!
1'!
0^
1_
1T
1]
1R
0S
0T
1^
0_
1`
0`
#148000
0!
0/
0G
0A
0H
#148500
1!
1/
1G
1A
1H
1)!
0R
1S
1T
#149000
0!
0/
0G
0A
0H
#149500
1!
1/
1G
1A
1H
0)!
1(!
0T
0]
1R
0S
1T
1]
0^
1_
1`
1^
0_
0`
#150000
0!
0/
0G
0A
0H
#150500
1!
1/
1G
1A
1H
1)!
0R
1S
0T
0]
0^
1_
1`
#151000
0!
0/
0G
0A
0H
#151500
1!
1/
1G
1A
1H
0)!
0(!
0'!
1&!
0`
0a
1^
0_
1T
1]
1R
0S
0T
0^
1`
1a
0b
1c
1d
1b
0c
0d
1e
0e
#152000
0!
0/
0G
0A
0H
#152500
1!
1/
1G
1A
1H
1)!
0R
1S
1T
#153000
0!
0/
0G
0A
0H
#153500
1!
1/
1G
1A
1H
0)!
1(!
0T
0]
1R
0S
1T
1]
1^
0^
#154000
0!
0/
0G
0A
0H
#154500
1!
1/
1G
1A
1H
1)!
0R
1S
0T
0]
1^
#155000
0!
0/
0G
0A
0H
#155500
1!
1/
1G
1A
1H
0)!
0(!
1'!
0^
1_
1T
1]
1R
0S
0T
1^
0_
0`
0a
0b
1c
1`
1a
1b
0c
1d
1e
0d
0e
#156000
0!
0/
0G
0A
0H
#156500
1!
1/
1G
1A
1H
1)!
0R
1S
1h
1T
#157000
0!
0/
0G
0A
0H
