components/DCmot_PWM_cntrl_0.29 with 20khz/simulation/qsim/DCmot_PWM_cntrl.msim.vcd
$comment
	File created using the following command:
		vcd file DCmot_PWM_cntrl.msim.vcd -direction
$end
$date
	Fri Jun 07 19:42:22 2024
$end
$version
	ModelSim Version 2020.1
$end
$timescale
	1ps
$end

$scope module dcmot_pwm_cntrl_vhd_vec_tst $end
$var wire 1 ! CLK1 $end
$var wire 1 " DCmot_speedv [2] $end
$var wire 1 # DCmot_speedv [1] $end
$var wire 1 $ DCmot_speedv [0] $end
$var wire 1 % PWM_DCmot $end

$scope module i1 $end
$var wire 1 & gnd $end
$var wire 1 ' vcc $end
$var wire 1 ( unknown $end
$var wire 1 ) devoe $end
$var wire 1 * devclrn $end
$var wire 1 + devpor $end
$var wire 1 , ww_devoe $end
$var wire 1 - ww_devclrn $end
$var wire 1 . ww_devpor $end
$var wire 1 / ww_CLK1 $end
$var wire 1 0 ww_DCmot_speedv [2] $end
$var wire 1 1 ww_DCmot_speedv [1] $end
$var wire 1 2 ww_DCmot_speedv [0] $end
$var wire 1 3 ww_PWM_DCmot $end
$var wire 1 4 \~QUARTUS_CREATED_ADC1~_CHSEL_bus\ [4] $end
$var wire 1 5 \~QUARTUS_CREATED_ADC1~_CHSEL_bus\ [3] $end
$var wire 1 6 \~QUARTUS_CREATED_ADC1~_CHSEL_bus\ [2] $end
$var wire 1 7 \~QUARTUS_CREATED_ADC1~_CHSEL_bus\ [1] $end
$var wire 1 8 \~QUARTUS_CREATED_ADC1~_CHSEL_bus\ [0] $end
$var wire 1 9 \~QUARTUS_CREATED_ADC2~_CHSEL_bus\ [4] $end
$var wire 1 : \~QUARTUS_CREATED_ADC2~_CHSEL_bus\ [3] $end
$var wire 1 ; \~QUARTUS_CREATED_ADC2~_CHSEL_bus\ [2] $end
$var wire 1 < \~QUARTUS_CREATED_ADC2~_CHSEL_bus\ [1] $end
$var wire 1 = \~QUARTUS_CREATED_ADC2~_CHSEL_bus\ [0] $end
$var wire 1 > \CLK1~inputclkctrl_INCLK_bus\ [3] $end
$var wire 1 ? \CLK1~inputclkctrl_INCLK_bus\ [2] $end
$var wire 1 @ \CLK1~inputclkctrl_INCLK_bus\ [1] $end
$var wire 1 A \CLK1~inputclkctrl_INCLK_bus\ [0] $end
$var wire 1 B \~QUARTUS_CREATED_GND~I_combout\ $end
$var wire 1 C \~QUARTUS_CREATED_UNVM~~busy\ $end
$var wire 1 D \~QUARTUS_CREATED_ADC1~~eoc\ $end
$var wire 1 E \~QUARTUS_CREATED_ADC2~~eoc\ $end
$var wire 1 F \PWM_DCmot~output_o\ $end
$var wire 1 G \CLK1~input_o\ $end
$var wire 1 H \CLK1~inputclkctrl_outclk\ $end
$var wire 1 I \DCmot_speedv[0]~input_o\ $end
$var wire 1 J \DCmot_speedv[2]~input_o\ $end
$var wire 1 K \DCmot_speedv[1]~input_o\ $end
$var wire 1 L \Equal1~0_combout\ $end
$var wire 1 M \Add0~0_combout\ $end
$var wire 1 N \Add0~1\ $end
$var wire 1 O \Add0~2_combout\ $end
$var wire 1 P \Add0~3\ $end
$var wire 1 Q \Add0~4_combout\ $end
$var wire 1 R \counter[2]~feeder_combout\ $end
$var wire 1 S \Add0~5\ $end
$var wire 1 T \Add0~6_combout\ $end
$var wire 1 U \counter~1_combout\ $end
$var wire 1 V \Add0~7\ $end
$var wire 1 W \Add0~8_combout\ $end
$var wire 1 X \Add0~9\ $end
$var wire 1 Y \Add0~10_combout\ $end
$var wire 1 Z \counter~0_combout\ $end
$var wire 1 [ \Add0~11\ $end
$var wire 1 \ \Add0~12_combout\ $end
$var wire 1 ] \counter~2_combout\ $end
$var wire 1 ^ \Add0~13\ $end
$var wire 1 _ \Add0~14_combout\ $end
$var wire 1 ` \counter~3_combout\ $end
$var wire 1 a \Equal0~1_combout\ $end
$var wire 1 b \Add0~15\ $end
$var wire 1 c \Add0~16_combout\ $end
$var wire 1 d \counter~4_combout\ $end
$var wire 1 e \Equal0~0_combout\ $end
$var wire 1 f \Equal0~2_combout\ $end
$var wire 1 g \Add0~17\ $end
$var wire 1 h \Add0~18_combout\ $end
$var wire 1 i \counter~5_combout\ $end
$var wire 1 j \LessThan1~0_combout\ $end
$var wire 1 k \LessThan1~1_combout\ $end
$var wire 1 l \innercounter[2]~2_combout\ $end
$var wire 1 m \innercounter~3_combout\ $end
$var wire 1 n \Add2~0_combout\ $end
$var wire 1 o \flag[0]~3_combout\ $end
$var wire 1 p \Add2~1\ $end
$var wire 1 q \Add2~2_combout\ $end
$var wire 1 r \Add2~3\ $end
$var wire 1 s \Add2~4_combout\ $end
$var wire 1 t \flag~0_combout\ $end
$var wire 1 u \Add2~5\ $end
$var wire 1 v \Add2~6_combout\ $end
$var wire 1 w \Add2~7\ $end
$var wire 1 x \Add2~8_combout\ $end
$var wire 1 y \Add2~9\ $end
$var wire 1 z \Add2~10_combout\ $end
$var wire 1 { \flag~1_combout\ $end
$var wire 1 | \Add2~11\ $end
$var wire 1 } \Add2~12_combout\ $end
$var wire 1 ~ \flag~2_combout\ $end
$var wire 1 !! \Add2~13\ $end
$var wire 1 "! \Add2~14_combout\ $end
$var wire 1 #! \Add2~15\ $end
$var wire 1 $! \Add2~16_combout\ $end
$var wire 1 %! \Add2~17\ $end
$var wire 1 &! \Add2~18_combout\ $end
$var wire 1 '! \Add2~19\ $end
$var wire 1 (! \Add2~20_combout\ $end
$var wire 1 )! \Add2~21\ $end
$var wire 1 *! \Add2~22_combout\ $end
$var wire 1 +! \Add2~23\ $end
$var wire 1 ,! \Add2~24_combout\ $end
$var wire 1 -! \Add2~25\ $end
$var wire 1 .! \Add2~26_combout\ $end
$var wire 1 /! \Add2~27\ $end
$var wire 1 0! \Add2~28_combout\ $end
$var wire 1 1! \Add2~29\ $end
$var wire 1 2! \Add2~30_combout\ $end
$var wire 1 3! \Add2~31\ $end
$var wire 1 4! \Add2~32_combout\ $end
$var wire 1 5! \Add2~33\ $end
$var wire 1 6! \Add2~34_combout\ $end
$var wire 1 7! \Add2~35\ $end
$var wire 1 8! \Add2~36_combout\ $end
$var wire 1 9! \Add2~37\ $end
$var wire 1 :! \Add2~38_combout\ $end
$var wire 1 ;! \Add2~39\ $end
$var wire 1 <! \Add2~40_combout\ $end
$var wire 1 =! \Add2~41\ $end
$var wire 1 >! \Add2~42_combout\ $end
$var wire 1 ?! \Add2~43\ $end
$var wire 1 @! \Add2~44_combout\ $end
$var wire 1 A! \Add2~45\ $end
$var wire 1 B! \Add2~46_combout\ $end
$var wire 1 C! \Add2~47\ $end
$var wire 1 D! \Add2~48_combout\ $end
$var wire 1 E! \Add2~49\ $end
$var wire 1 F! \Add2~50_combout\ $end
$var wire 1 G! \Add2~51\ $end
$var wire 1 H! \Add2~52_combout\ $end
$var wire 1 I! \Add2~53\ $end
$var wire 1 J! \Add2~54_combout\ $end
$var wire 1 K! \Add2~55\ $end
$var wire 1 L! \Add2~56_combout\ $end
$var wire 1 M! \Add2~57\ $end
$var wire 1 N! \Add2~58_combout\ $end
$var wire 1 O! \Add2~59\ $end
$var wire 1 P! \Add2~60_combout\ $end
$var wire 1 Q! \Add2~61\ $end
$var wire 1 R! \Add2~62_combout\ $end
$var wire 1 S! \Equal2~9_combout\ $end
$var wire 1 T! \Equal2~8_combout\ $end
$var wire 1 U! \Equal2~0_combout\ $end
$var wire 1 V! \Equal2~1_combout\ $end
$var wire 1 W! \Equal2~3_combout\ $end
$var wire 1 X! \Equal2~2_combout\ $end
$var wire 1 Y! \Equal2~4_combout\ $end
$var wire 1 Z! \Equal2~5_combout\ $end
$var wire 1 [! \Equal2~6_combout\ $end
$var wire 1 \! \Equal2~7_combout\ $end
$var wire 1 ]! \Equal2~10_combout\ $end
$var wire 1 ^! \innercounter[2]~6_combout\ $end
$var wire 1 _! \innercounter~5_combout\ $end
$var wire 1 `! \innercounter~4_combout\ $end
$var wire 1 a! \PWM_DCmot~0_combout\ $end
$var wire 1 b! \PWM_DCmot~1_combout\ $end
$var wire 1 c! \PWM_DCmot~2_combout\ $end
$var wire 1 d! \PWM_DCmot~reg0_q\ $end
$var wire 1 e! counter [9] $end
$var wire 1 f! counter [8] $end
$var wire 1 g! counter [7] $end
$var wire 1 h! counter [6] $end
$var wire 1 i! counter [5] $end
$var wire 1 j! counter [4] $end
$var wire 1 k! counter [3] $end
$var wire 1 l! counter [2] $end
$var wire 1 m! counter [1] $end
$var wire 1 n! counter [0] $end
$var wire 1 o! flag [31] $end
$var wire 1 p! flag [30] $end
$var wire 1 q! flag [29] $end
$var wire 1 r! flag [28] $end
$var wire 1 s! flag [27] $end
$var wire 1 t! flag [26] $end
$var wire 1 u! flag [25] $end
$var wire 1 v! flag [24] $end
$var wire 1 w! flag [23] $end
$var wire 1 x! flag [22] $end
$var wire 1 y! flag [21] $end
$var wire 1 z! flag [20] $end
$var wire 1 {! flag [19] $end
$var wire 1 |! flag [18] $end
$var wire 1 }! flag [17] $end
$var wire 1 ~! flag [16] $end
$var wire 1 !" flag [15] $end
$var wire 1 "" flag [14] $end
$var wire 1 #" flag [13] $end
$var wire 1 $" flag [12] $end
$var wire 1 %" flag [11] $end
$var wire 1 &" flag [10] $end
$var wire 1 '" flag [9] $end
$var wire 1 (" flag [8] $end
$var wire 1 )" flag [7] $end
$var wire 1 *" flag [6] $end
$var wire 1 +" flag [5] $end
$var wire 1 ," flag [4] $end
$var wire 1 -" flag [3] $end
$var wire 1 ." flag [2] $end
$var wire 1 /" flag [1] $end
$var wire 1 0" flag [0] $end
$var wire 1 1" innercounter [2] $end
$var wire 1 2" innercounter [1] $end
$var wire 1 3" innercounter [0] $end
$upscope $end
$upscope $end
$enddefinitions $end
#0
$dumpvars
0!
0%
0&
1'
x(
1)
1*
1+
1,
1-
1.
0/
03
0B
zC
zD
zE
0F
0G
0H
1I
0J
1K
0L
1M
0N
0O
1P
0Q
0R
0S
0T
0U
1V
0W
0X
0Y
0Z
1[
0\
0]
0^
0_
0`
0a
1b
0c
0d
0e
0f
0g
0h
0i
1j
1k
1l
0m
0n
1o
1p
0q
0r
0s
1t
1u
0v
0w
0x
1y
0z
1{
0|
0}
1~
1!!
0"!
0#!
0$!
1%!
0&!
0'!
0(!
1)!
0*!
0+!
0,!
1-!
0.!
0/!
00!
11!
02!
03!
04!
15!
06!
07!
08!
19!
0:!
0;!
0<!
1=!
0>!
0?!
0@!
1A!
0B!
0C!
0D!
1E!
0F!
0G!
0H!
1I!
0J!
0K!
0L!
1M!
0N!
0O!
0P!
1Q!
0R!
1S!
1T!
1U!
1V!
1W!
1X!
1Y!
1Z!
1[!
1\!
1]!
1^!
1_!
0`!
1a!
1b!
1c!
0d!
0"
1#
1$
00
11
12
0e!
0f!
0g!
0h!
0i!
0j!
0k!
0l!
0m!
0n!
0o!
0p!
0q!
0r!
0s!
0t!
0u!
0v!
0w!
0x!
0y!
0z!
0{!
0|!
0}!
0~!
0!"
0""
0#"
0$"
0%"
0&"
0'"
0("
0)"
0*"
0+"
0,"
0-"
0."
0/"
00"
01"
02"
03"
1>
1?
1@
0A
04
05
06
07
08
09
0:
0;
0<
0=
$end
#500
1!
1/
1G
1A
1H
1n!
10"
1."
1+"
1*"
13"
1d!
1F
0_!
1`!
1}
1z
0V!
1s
1n
0p
0U!
0M
1N
13
1O
1q
1r
0o
0Y!
1%
0]!
0s
0t
0^!
#1000
0!
0/
0G
0A
0H
#1500
1!
1/
1G
1A
1H
0n!
1m!
00"
1/"
0."
1s
0u
0q
0r
0n
1p
0O
0P
1M
0N
1O
1P
1Q
1q
1o
0s
1u
1v
1w
1t
1x
0y
0v
0w
0t
1R
0Q
0R
0x
1y
0z
0{
1z
1{
#2000
0!
0/
0G
0A
0H
#2500
1!
1/
1G
1A
1H
1n!
10"
1n
0p
0M
1N
0O
0P
0q
0o
1Q
1R
#3000
0!
0/
0G
0A
0H
#3500
1!
1/
1G
1A
1H
0n!
0m!
1l!
00"
0/"
1q
1r
0n
1p
1U!
0Q
1S
1O
1P
1M
0N
0O
1Q
0S
1T
0R
0q
0r
1o
1s
0u
1v
1w
1t
0s
1u
1U
0T
1R
0U
0v
0w
0t
1x
0y
0z
0x
1y
1z
0{
1{
#4000
0!
0/
0G
0A
0H
#4500
1!
1/
1G
1A
1H
1n!
10"
1n
0p
0U!
0M
1N
1O
1q
1r
0o
1s
0u
1v
1w
1t
1x
0y
0z
0{
#5000
0!
0/
0G
0A
0H
#5500
1!
1/
1G
1A
1H
0n!
1m!
00"
1/"
1."
1-"
1,"
0+"
1z
1|
0x
1y
0v
0w
0s
1u
0q
0r
0n
1p
0O
0P
1M
0N
1O
1P
0Q
1S
1q
1o
1s
1v
0t
1x
0z
0|
0}
1{
0~
1}
0{
1t
1T
0R
1Q
0S
0T
1R
1U
1~
0U
#6000
0!
0/
0G
0A
0H
#6500
1!
1/
1G
1A
1H
1n!
10"
1n
0p
0M
1N
0O
0P
0q
0o
0Q
1S
1T
0R
1U
#7000
0!
0/
0G
0A
0H
#7500
1!
1/
1G
1A
1H
0n!
0m!
0l!
1k!
00"
0/"
1q
1r
0n
1p
0T
0V
1Q
0S
1O
1P
1M
0N
0O
0Q
1T
1V
1R
1W
0U
0q
0r
1o
0s
0t
1s
0W
1U
0R
1t
#8000
0!
0/
0G
0A
0H
#8500
1!
1/
1G
1A
1H
1n!
10"
1n
0p
0M
1N
1O
1q
1r
0o
0s
0t
#9000
0!
0/
0G
0A
0H
#9500
1!
1/
1G
1A
1H
0n!
1m!
00"
1/"
0."
1s
0u
0q
0r
0n
1p
0O
0P
1M
0N
1O
1P
1Q
1q
1o
0s
1u
0v
1t
1v
0t
1R
0Q
0R
#10000
0!
0/
0G
0A
0H
#10500
1!
1/
1G
1A
1H
1n!
10"
1n
0p
0M
1N
0O
0P
0q
0o
1Q
1R
#11000
0!
0/
0G
0A
0H
#11500
1!
1/
1G
1A
1H
0n!
0m!
1l!
00"
0/"
1q
1r
0n
1p
0Q
1S
1O
1P
1M
0N
0O
1Q
0S
0T
0V
0R
0q
0r
1o
1s
0u
0v
1t
0s
1u
1W
0U
1T
1V
1R
0W
1U
1v
0t
#12000
0!
0/
0G
0A
0H
#12500
1!
1/
1G
1A
1H
1n!
10"
1n
0p
0M
1N
1O
1q
1r
0o
1s
0u
0v
1t
#13000
0!
0/
0G
0A
0H
#13500
1!
1/
1G
1A
1H
0n!
1m!
00"
1/"
1."
0-"
1v
1w
0s
1u
0q
0r
0n
1p
0O
0P
1M
0N
1O
1P
0Q
1S
1q
1o
1s
0v
0w
0t
0x
1x
1t
0T
0V
0R
1Q
0S
1T
1V
1R
1W
0U
0W
1U
#14000
0!
0/
0G
0A
0H
#14500
1!
1/
1G
1A
1H
1n!
10"
1n
0p
0M
1N
0O
0P
0q
0o
0Q
1S
0T
0V
0R
1W
0U
#15000
0!
0/
0G
0A
0H
#15500
1!
1/
1G
1A
1H
0n!
0m!
0l!
0k!
1j!
00"
0/"
1q
1r
0n
1p
0W
1X
1T
1V
1Q
0S
1O
1P
1M
0N
0O
0Q
0T
1R
1W
0X
1U
1Y
0q
0r
1o
0s
0t
1s
1Z
0Y
0U
0R
0Z
1t
#16000
0!
0/
0G
0A
0H
#16500
1!
1/
1G
1A
1H
1n!
10"
1n
0p
0M
1N
1O
1q
1r
0o
0s
0t
#17000
0!
0/
0G
0A
0H
#17500
1!
1/
1G
1A
1H
0n!
1m!
00"
1/"
0."
1s
0u
0q
0r
0n
1p
0O
0P
1M
0N
1O
1P
1Q
1q
1o
0s
1u
1v
1w
1t
0x
0v
0w
0t
1R
0Q
0R
1x
#18000
0!
0/
0G
0A
0H
#18500
1!
1/
1G
1A
1H
1n!
10"
1n
0p
0M
1N
0O
0P
0q
0o
1Q
1R
#19000
0!
0/
0G
0A
0H
#19500
1!
1/
1G
1A
1H
0n!
0m!
1l!
00"
0/"
1q
1r
0n
1p
1U!
0Q
1S
1O
1P
1M
0N
0O
1Q
0S
1T
0R
0q
0r
1o
1s
0u
1v
1w
1t
0s
1u
1U
0T
1R
0U
0v
0w
0t
0x
1x
#20000
0!
0/
0G
0A
0H
#20500
1!
1/
1G
1A
1H
1n!
10"
1n
0p
0U!
0M
1N
1O
1q
1r
0o
1s
0u
1v
1w
1t
0x
#21000
0!
0/
0G
0A
0H
#21500
1!
1/
1G
1A
1H
0n!
1m!
00"
1/"
1."
1-"
0,"
1x
0y
0v
0w
0s
1u
0q
0r
0n
1p
0O
0P
1M
0N
1O
1P
0Q
1S
1q
1o
1s
1v
0t
0x
1y
1z
1|
0}
1{
0z
0|
1t
1T
0R
1Q
0S
0T
1R
1U
1}
0{
0~
1~
0U
#22000
0!
0/
0G
0A
0H
#22500
1!
1/
1G
1A
1H
1n!
10"
1n
0p
0M
1N
0O
0P
0q
0o
0Q
1S
1T
0R
1U
#23000
0!
0/
0G
0A
0H
#23500
1!
1/
1G
1A
1H
0n!
0m!
0l!
1k!
00"
0/"
1q
1r
0n
1p
0T
0V
1Q
0S
1O
1P
1M
0N
0O
0Q
1T
1V
1R
0W
1X
0U
0q
0r
1o
0s
0t
1s
1Y
1W
0X
1U
0R
0Y
1Z
1t
0Z
#24000
0!
0/
0G
0A
0H
#24500
1!
1/
1G
1A
1H
1n!
10"
1n
0p
0M
1N
1O
1q
1r
0o
0s
0t
#25000
0!
0/
0G
0A
0H
#25500
1!
1/
1G
1A
1H
0n!
1m!
00"
1/"
0."
1s
0u
0q
0r
0n
1p
0O
0P
1M
0N
1O
1P
1Q
1q
1o
0s
1u
0v
1t
1v
0t
1R
0Q
0R
#26000
0!
0/
0G
0A
0H
#26500
1!
1/
1G
1A
1H
1n!
10"
1n
0p
0M
1N
0O
0P
0q
0o
1Q
1R
#27000
0!
0/
0G
0A
0H
#27500
1!
1/
1G
1A
1H
0n!
0m!
1l!
00"
0/"
1q
1r
0n
1p
0Q
1S
1O
1P
1M
0N
0O
1Q
0S
0T
0V
0R
0q
0r
1o
1s
0u
0v
1t
0s
1u
0W
1X
0U
1T
1V
1R
1W
0X
1U
1Y
1v
0t
1Z
0Y
0Z
#28000
0!
0/
0G
0A
0H
#28500
1!
1/
1G
1A
1H
1n!
10"
1n
0p
0M
1N
1O
1q
1r
0o
1s
0u
0v
1t
#29000
0!
0/
0G
0A
0H
#29500
1!
1/
1G
1A
1H
0n!
1m!
00"
1/"
1."
0-"
1v
1w
0s
1u
0q
0r
0n
1p
0O
0P
1M
0N
1O
1P
0Q
1S
1q
1o
1s
0v
0w
0t
1x
0y
1z
1|
0x
1y
1t
0T
0V
0R
1Q
0S
1T
1V
1R
0W
1X
0U
0z
0|
0}
1{
0~
1}
0{
1Y
1W
0X
1U
0Y
1Z
1~
0Z
#30000
0!
0/
0G
0A
0H
#30500
1!
1/
1G
1A
1H
1n!
10"
1n
0p
0M
1N
0O
0P
0q
0o
0Q
1S
0T
0V
0R
0W
1X
0U
1Y
1Z
#31000
0!
0/
0G
0A
0H
#31500
1!
1/
1G
1A
1H
0n!
0m!
0l!
0k!
0j!
1i!
00"
0/"
1q
1r
0n
1p
0Y
0[
1W
0X
1T
1V
1Q
0S
1O
1P
1M
0N
0O
0Q
0T
1R
0W
1U
1Y
1[
1\
0Z
0q
0r
1o
0s
0t
1s
1]
0\
1Z
0U
0R
0]
1t
#32000
0!
0/
0G
0A
0H
#32500
1!
1/
1G
1A
1H
1n!
10"
1n
0p
0M
1N
1O
1q
1r
0o
0s
0t
#33000
0!
0/
0G
0A
0H
#33500
1!
1/
1G
1A
1H
0n!
1m!
00"
1/"
0."
1s
0u
0q
0r
0n
1p
0O
0P
1M
0N
1O
1P
1Q
1q
1o
0s
1u
1v
1w
1t
1x
0y
0v
0w
0t
1R
0Q
0R
0x
1y
1z
1|
0}
1{
0z
0|
1}
0{
0~
1~
#34000
0!
0/
0G
0A
0H
#34500
1!
1/
1G
1A
1H
1n!
10"
1n
0p
0M
1N
0O
0P
0q
0o
1Q
1R
#35000
0!
0/
0G
0A
0H
#35500
1!
1/
1G
1A
1H
0n!
0m!
1l!
00"
0/"
1q
1r
0n
1p
1U!
0Q
1S
1O
1P
1M
0N
0O
1Q
0S
1T
0R
0q
0r
1o
1s
0u
1v
1w
1t
0s
1u
1U
0T
1R
0U
0v
0w
0t
1x
0y
1z
1|
0x
1y
0z
0|
0}
1{
0~
1}
0{
1~
#36000
0!
0/
0G
0A
0H
#36500
1!
1/
1G
1A
1H
1n!
10"
1n
0p
0U!
0M
1N
1O
1q
1r
0o
1s
0u
1v
1w
1t
1x
0y
1z
1|
0}
1{
0~
#37000
0!
0/
0G
0A
0H
#37500
1!
1/
1G
1A
1H
0n!
1m!
00"
1/"
1."
1-"
1,"
1+"
0*"
1}
0!!
0z
0|
0x
1y
0v
0w
0s
1u
0q
0r
0n
1p
0O
0P
1M
0N
1O
1P
0Q
1S
1q
1o
1s
1v
0t
1x
1z
0}
1!!
0{
1"!
1#!
1~
1$!
0%!
0"!
0#!
0~
1{
1t
1T
0R
1Q
0S
0T
1R
1U
0$!
1%!
1&!
1'!
1(!
0)!
0&!
0'!
0U
0(!
1)!
1*!
1+!
1,!
0-!
0*!
0+!
0,!
1-!
1.!
1/!
10!
01!
0.!
0/!
00!
11!
12!
13!
14!
05!
02!
03!
04!
15!
16!
17!
18!
09!
06!
07!
08!
19!
1:!
1;!
1<!
0=!
0:!
0;!
0<!
1=!
1>!
1?!
1@!
0A!
0>!
0?!
0@!
1A!
1B!
1C!
1D!
0E!
0B!
0C!
0D!
1E!
1F!
1G!
1H!
0I!
0F!
0G!
0H!
1I!
1J!
1K!
1L!
0M!
0J!
0K!
0L!
1M!
1N!
1O!
1P!
0Q!
0N!
0O!
0P!
1Q!
1R!
0R!
#38000
0!
0/
0G
0A
0H
#38500
1!
1/
1G
1A
1H
1n!
10"
1n
0p
0M
1N
1e
0O
0P
0q
0o
0Q
1S
1T
0R
1U
#39000
0!
0/
0G
0A
0H
#39500
1!
1/
1G
1A
1H
0n!
0m!
0l!
1k!
00"
0/"
1q
1r
0n
1p
0T
0V
1Q
0S
1O
1P
1M
0N
0e
0O
0Q
1T
1V
1R
1W
0U
0q
0r
1o
0s
0t
1s
0W
1U
0R
1t
#40000
0!
0/
0G
0A
0H
#40500
1!
1/
1G
1A
1H
1n!
10"
1n
0p
0M
1N
1O
1q
1r
0o
0s
0t
#41000
0!
0/
0G
0A
0H
#41500
1!
1/
1G
1A
1H
0n!
1m!
00"
1/"
0."
1s
0u
0q
0r
0n
1p
0O
0P
1M
0N
1O
1P
1Q
1q
1o
0s
1u
0v
1t
1v
0t
1R
0Q
0R
#42000
0!
0/
0G
0A
0H
#42500
1!
1/
1G
1A
1H
1n!
10"
1n
0p
0M
1N
0O
0P
0q
0o
1Q
1R
#43000
0!
0/
0G
0A
0H
#43500
1!
1/
1G
1A
1H
0n!
0m!
1l!
00"
0/"
1q
1r
0n
1p
0Q
1S
1O
1P
1M
0N
0O
1Q
0S
0T
0V
0R
0q
0r
1o
1s
0u
0v
1t
0s
1u
1W
0U
1T
1V
1R
0W
1U
1v
0t
#44000
0!
0/
0G
0A
0H
#44500
1!
1/
1G
1A
1H
1n!
10"
1n
0p
0M
1N
1O
1q
1r
0o
1s
0u
0v
1t
#45000
0!
0/
0G
0A
0H
#45500
1!
1/
1G
1A
1H
0n!
1m!
00"
1/"
1."
0-"
1v
1w
0s
1u
0q
0r
0n
1p
0O
0P
1M
0N
1O
1P
0Q
1S
1q
1o
1s
0v
0w
0t
0x
1x
1t
0T
0V
0R
1Q
0S
1T
1V
1R
1W
0U
0W
1U
#46000
0!
0/
0G
0A
0H
#46500
1!
1/
1G
1A
1H
1n!
10"
1n
0p
0M
1N
1e
0O
0P
0q
0o
0Q
1S
0T
0V
0R
1W
0U
#47000
0!
0/
0G
0A
0H
#47500
1!
1/
1G
1A
1H
0n!
0m!
0l!
0k!
1j!
00"
0/"
1q
1r
0n
1p
0W
1X
1T
1V
1Q
0S
1O
1P
1M
0N
0e
0O
0Q
0T
1R
1W
0X
1U
0Y
0[
0q
0r
1o
0s
0t
1s
1\
0Z
1Y
1[
0U
0R
0\
1Z
1]
1t
0]
#48000
0!
0/
0G
0A
0H
#48500
1!
1/
1G
1A
1H
1n!
10"
1n
0p
0M
1N
1O
1q
1r
0o
0s
0t
#49000
0!
0/
0G
0A
0H
#49500
1!
1/
1G
1A
1H
0n!
1m!
00"
1/"
0."
1s
0u
0q
0r
0n
1p
0O
0P
1M
0N
1O
1P
1Q
1q
1o
0s
1u
1v
1w
1t
0x
0v
0w
0t
1R
0Q
0R
1x
#50000
0!
0/
0G
0A
0H
#50500
1!
1/
1G
1A
1H
1n!
10"
1n
0p
0M
1N
0O
0P
0q
0o
1Q
1R
#51000
0!
0/
0G
0A
0H
#51500
1!
1/
1G
1A
1H
0n!
0m!
1l!
00"
0/"
1q
1r
0n
1p
1U!
0Q
1S
1O
1P
1M
0N
0O
1Q
0S
1T
0R
0q
0r
1o
1s
0u
1v
1w
1t
0s
1u
1U
0T
1R
0U
0v
0w
0t
0x
1x
#52000
0!
0/
0G
0A
0H
#52500
1!
1/
1G
1A
1H
1n!
10"
1n
0p
0U!
0M
1N
1O
1q
1r
0o
1s
0u
1v
1w
1t
0x
#53000
0!
0/
0G
0A
0H
#53500
1!
1/
1G
1A
1H
0n!
1m!
00"
1/"
1."
1-"
0,"
1x
0y
0v
0w
0s
1u
0q
0r
0n
1p
0O
0P
1M
0N
1O
1P
0Q
1S
1q
1o
1s
1v
0t
0x
1y
0z
0{
1z
1t
1T
0R
1Q
0S
0T
1R
1U
1{
0U
#54000
0!
0/
0G
0A
0H
#54500
1!
1/
1G
1A
1H
1n!
10"
1n
0p
0M
1N
1e
0O
0P
0q
0o
0Q
1S
1T
0R
1U
#55000
0!
0/
0G
0A
0H
#55500
1!
1/
1G
1A
1H
0n!
0m!
0l!
1k!
00"
0/"
1q
1r
0n
1p
0T
0V
1Q
0S
1O
1P
1M
0N
0e
0O
0Q
1T
1V
1R
0W
1X
0U
0q
0r
1o
0s
0t
1s
0Y
0[
1W
0X
1U
0R
1Y
1[
1\
0Z
1t
1]
0\
1Z
0]
#56000
0!
0/
0G
0A
0H
#56500
1!
1/
1G
1A
1H
1n!
10"
1n
0p
0M
1N
1O
1q
1r
0o
0s
0t
#57000
0!
0/
0G
0A
0H
#57500
1!
1/
1G
1A
1H
0n!
1m!
00"
1/"
0."
1s
0u
0q
0r
0n
1p
0O
0P
1M
0N
1O
1P
1Q
1q
1o
0s
1u
0v
1t
1v
0t
1R
0Q
0R
#58000
0!
0/
0G
0A
0H
#58500
1!
1/
1G
1A
1H
1n!
10"
1n
0p
0M
1N
0O
0P
0q
0o
1Q
1R
#59000
0!
0/
0G
0A
0H
#59500
1!
1/
1G
1A
1H
0n!
0m!
1l!
00"
0/"
1q
1r
0n
1p
0Q
1S
0j
1O
1P
1M
0N
0O
1Q
0S
0T
0V
0R
0q
0r
1o
1s
0u
0v
1t
0s
1u
0W
1X
0U
1T
1V
1R
1W
0X
1U
0Y
0[
1v
0t
1\
0Z
1Y
1[
0\
1Z
1]
0]
#60000
0!
0/
0G
0A
0H
#60500
1!
1/
1G
1A
1H
1n!
10"
1n
0p
0M
1N
1O
1q
1r
0o
1s
0u
0v
1t
#61000
0!
0/
0G
0A
0H
#61500
1!
1/
1G
1A
1H
0n!
1m!
00"
1/"
1."
0-"
1v
1w
0s
1u
0q
0r
0n
1p
0O
0P
1M
0N
1O
1P
0Q
1S
1q
1o
1s
0v
0w
0t
1x
0y
0z
0x
1y
1t
0T
0V
0R
1Q
0S
1T
1V
1R
0W
1X
0U
1z
0{
1{
0Y
0[
1W
0X
1U
1Y
1[
1\
0Z
1]
0\
1Z
0]
#62000
0!
0/
0G
0A
0H
#62500
1!
1/
1G
1A
1H
1n!
10"
1n
0p
0M
1N
1e
0O
0P
0q
0o
0Q
1S
0T
0V
0R
0W
1X
0U
0Y
0[
1\
0Z
1]
#63000
0!
0/
0G
0A
0H
#63500
1!
1/
1G
1A
1H
0n!
0m!
0l!
0k!
0j!
0i!
1h!
00"
0/"
1q
1r
0n
1p
0\
1^
1Y
1[
1W
0X
1T
1V
1Q
0S
1j
1O
1P
1M
0N
0e
0O
0Q
0T
1R
0W
1U
0Y
1\
0^
1Z
1_
0]
0q
0r
1o
0s
0t
1s
1`
0_
1]
0Z
0U
0R
0`
1t
#64000
0!
0/
0G
0A
0H
#64500
1!
1/
1G
1A
1H
1n!
10"
1n
0p
0M
1N
1O
1q
1r
0o
0s
0t
#65000
0!
0/
0G
0A
0H
#65500
1!
1/
1G
1A
1H
0n!
1m!
00"
1/"
0."
1s
0u
0q
0r
0n
1p
0O
0P
1M
0N
1O
1P
1Q
1q
1o
0s
1u
1v
1w
1t
1x
0y
0v
0w
0t
1R
0Q
0R
0x
1y
0z
0{
1z
1{
#66000
0!
0/
0G
0A
0H
#66500
1!
1/
1G
1A
1H
1n!
10"
1n
0p
0M
1N
0O
0P
0q
0o
1Q
1R
#67000
0!
0/
0G
0A
0H
#67500
1!
1/
1G
1A
1H
0n!
0m!
1l!
00"
0/"
1q
1r
0n
1p
1U!
0Q
1S
1O
1P
1M
0N
0O
1Q
0S
1T
0R
0q
0r
1o
1s
0u
1v
1w
1t
0s
1u
1U
0T
1R
0U
0v
0w
0t
1x
0y
0z
0x
1y
1z
0{
1{
#68000
0!
0/
0G
0A
0H
#68500
1!
1/
1G
1A
1H
1n!
10"
1n
0p
0U!
0M
1N
1O
1q
1r
0o
1s
0u
1v
1w
1t
1x
0y
0z
0{
#69000
0!
0/
0G
0A
0H
