components/DCmot_PWM_cntrl_0.29 with 20khz/simulation/qsim/DCmot_PWM_cntrl.msim.vcd
$comment
	File created using the following command:
		vcd file DCmot_PWM_cntrl.msim.vcd -direction
$end
$date
	Fri Jun 07 17:54:08 2024
$end
$version
	ModelSim Version 2020.1
$end
$timescale
	1ps
$end

$scope module dcmot_pwm_cntrl_vhd_vec_tst $end
$var wire 1 ! CLK1 $end
$var wire 1 " DCmot_speedv [2] $end
$var wire 1 # DCmot_speedv [1] $end
$var wire 1 $ DCmot_speedv [0] $end
$var wire 1 % PWM_DCmot $end

$scope module i1 $end
$var wire 1 & gnd $end
$var wire 1 ' vcc $end
$var wire 1 ( unknown $end
$var wire 1 ) devoe $end
$var wire 1 * devclrn $end
$var wire 1 + devpor $end
$var wire 1 , ww_devoe $end
$var wire 1 - ww_devclrn $end
$var wire 1 . ww_devpor $end
$var wire 1 / ww_CLK1 $end
$var wire 1 0 ww_DCmot_speedv [2] $end
$var wire 1 1 ww_DCmot_speedv [1] $end
$var wire 1 2 ww_DCmot_speedv [0] $end
$var wire 1 3 ww_PWM_DCmot $end
$var wire 1 4 \~QUARTUS_CREATED_ADC1~_CHSEL_bus\ [4] $end
$var wire 1 5 \~QUARTUS_CREATED_ADC1~_CHSEL_bus\ [3] $end
$var wire 1 6 \~QUARTUS_CREATED_ADC1~_CHSEL_bus\ [2] $end
$var wire 1 7 \~QUARTUS_CREATED_ADC1~_CHSEL_bus\ [1] $end
$var wire 1 8 \~QUARTUS_CREATED_ADC1~_CHSEL_bus\ [0] $end
$var wire 1 9 \~QUARTUS_CREATED_ADC2~_CHSEL_bus\ [4] $end
$var wire 1 : \~QUARTUS_CREATED_ADC2~_CHSEL_bus\ [3] $end
$var wire 1 ; \~QUARTUS_CREATED_ADC2~_CHSEL_bus\ [2] $end
$var wire 1 < \~QUARTUS_CREATED_ADC2~_CHSEL_bus\ [1] $end
$var wire 1 = \~QUARTUS_CREATED_ADC2~_CHSEL_bus\ [0] $end
$var wire 1 > \CLK1~inputclkctrl_INCLK_bus\ [3] $end
$var wire 1 ? \CLK1~inputclkctrl_INCLK_bus\ [2] $end
$var wire 1 @ \CLK1~inputclkctrl_INCLK_bus\ [1] $end
$var wire 1 A \CLK1~inputclkctrl_INCLK_bus\ [0] $end
$var wire 1 B \~QUARTUS_CREATED_GND~I_combout\ $end
$var wire 1 C \~QUARTUS_CREATED_UNVM~~busy\ $end
$var wire 1 D \~QUARTUS_CREATED_ADC1~~eoc\ $end
$var wire 1 E \~QUARTUS_CREATED_ADC2~~eoc\ $end
$var wire 1 F \PWM_DCmot~output_o\ $end
$var wire 1 G \CLK1~input_o\ $end
$var wire 1 H \CLK1~inputclkctrl_outclk\ $end
$var wire 1 I \Add0~0_combout\ $end
$var wire 1 J \Add0~1\ $end
$var wire 1 K \Add0~2_combout\ $end
$var wire 1 L \Add0~3\ $end
$var wire 1 M \Add0~4_combout\ $end
$var wire 1 N \Add0~5\ $end
$var wire 1 O \Add0~6_combout\ $end
$var wire 1 P \Add0~7\ $end
$var wire 1 Q \Add0~8_combout\ $end
$var wire 1 R \Add0~9\ $end
$var wire 1 S \Add0~10_combout\ $end
$var wire 1 T \Equal0~1_combout\ $end
$var wire 1 U \Add0~11\ $end
$var wire 1 V \Add0~12_combout\ $end
$var wire 1 W \Add0~13\ $end
$var wire 1 X \Add0~14_combout\ $end
$var wire 1 Y \Add0~15\ $end
$var wire 1 Z \Add0~16_combout\ $end
$var wire 1 [ \Equal0~0_combout\ $end
$var wire 1 \ \Add0~17\ $end
$var wire 1 ] \Add0~18_combout\ $end
$var wire 1 ^ \counter~1_combout\ $end
$var wire 1 _ \Add0~19\ $end
$var wire 1 ` \Add0~20_combout\ $end
$var wire 1 a \counter~2_combout\ $end
$var wire 1 b \Add0~21\ $end
$var wire 1 c \Add0~22_combout\ $end
$var wire 1 d \counter~3_combout\ $end
$var wire 1 e \Add0~23\ $end
$var wire 1 f \Add0~24_combout\ $end
$var wire 1 g \Add0~25\ $end
$var wire 1 h \Add0~26_combout\ $end
$var wire 1 i \Add0~27\ $end
$var wire 1 j \Add0~28_combout\ $end
$var wire 1 k \counter~0_combout\ $end
$var wire 1 l \Equal0~2_combout\ $end
$var wire 1 m \Equal0~3_combout\ $end
$var wire 1 n \Equal0~4_combout\ $end
$var wire 1 o \counter~4_combout\ $end
$var wire 1 p \LessThan0~5_combout\ $end
$var wire 1 q \LessThan0~3_combout\ $end
$var wire 1 r \LessThan0~7_combout\ $end
$var wire 1 s \DCmot_speedv[2]~input_o\ $end
$var wire 1 t \DCmot_speedv[1]~input_o\ $end
$var wire 1 u \DCmot_speedv[0]~input_o\ $end
$var wire 1 v \LessThan0~2_combout\ $end
$var wire 1 w \PWM_DCmot~0_combout\ $end
$var wire 1 x \LessThan0~4_combout\ $end
$var wire 1 y \LessThan1~0_combout\ $end
$var wire 1 z \PWM_DCmot~4_combout\ $end
$var wire 1 { \innercounter~3_combout\ $end
$var wire 1 | \Equal2~3_combout\ $end
$var wire 1 } \Add2~0_combout\ $end
$var wire 1 ~ \flag[0]~1_combout\ $end
$var wire 1 !! \innercounter[2]~4_combout\ $end
$var wire 1 "! \Add2~1\ $end
$var wire 1 #! \Add2~2_combout\ $end
$var wire 1 $! \Equal2~0_combout\ $end
$var wire 1 %! \Equal2~1_combout\ $end
$var wire 1 &! \Equal2~2_combout\ $end
$var wire 1 '! \Equal2~4_combout\ $end
$var wire 1 (! \Add2~3\ $end
$var wire 1 )! \Add2~4_combout\ $end
$var wire 1 *! \flag~0_combout\ $end
$var wire 1 +! \Add2~5\ $end
$var wire 1 ,! \Add2~6_combout\ $end
$var wire 1 -! \Add2~7\ $end
$var wire 1 .! \Add2~8_combout\ $end
$var wire 1 /! \Add2~9\ $end
$var wire 1 0! \Add2~10_combout\ $end
$var wire 1 1! \Add2~11\ $end
$var wire 1 2! \Add2~12_combout\ $end
$var wire 1 3! \Add2~13\ $end
$var wire 1 4! \Add2~14_combout\ $end
$var wire 1 5! \Add2~15\ $end
$var wire 1 6! \Add2~16_combout\ $end
$var wire 1 7! \Add2~17\ $end
$var wire 1 8! \Add2~18_combout\ $end
$var wire 1 9! \Add2~19\ $end
$var wire 1 :! \Add2~20_combout\ $end
$var wire 1 ;! \Add2~21\ $end
$var wire 1 <! \Add2~22_combout\ $end
$var wire 1 =! \Add2~23\ $end
$var wire 1 >! \Add2~24_combout\ $end
$var wire 1 ?! \Add2~25\ $end
$var wire 1 @! \Add2~26_combout\ $end
$var wire 1 A! \Add2~27\ $end
$var wire 1 B! \Add2~28_combout\ $end
$var wire 1 C! \Add2~29\ $end
$var wire 1 D! \Add2~30_combout\ $end
$var wire 1 E! \Add2~31\ $end
$var wire 1 F! \Add2~32_combout\ $end
$var wire 1 G! \Add2~33\ $end
$var wire 1 H! \Add2~34_combout\ $end
$var wire 1 I! \Add2~35\ $end
$var wire 1 J! \Add2~36_combout\ $end
$var wire 1 K! \Add2~37\ $end
$var wire 1 L! \Add2~38_combout\ $end
$var wire 1 M! \Add2~39\ $end
$var wire 1 N! \Add2~40_combout\ $end
$var wire 1 O! \Add2~41\ $end
$var wire 1 P! \Add2~42_combout\ $end
$var wire 1 Q! \Add2~43\ $end
$var wire 1 R! \Add2~44_combout\ $end
$var wire 1 S! \Add2~45\ $end
$var wire 1 T! \Add2~46_combout\ $end
$var wire 1 U! \Add2~47\ $end
$var wire 1 V! \Add2~48_combout\ $end
$var wire 1 W! \Add2~49\ $end
$var wire 1 X! \Add2~50_combout\ $end
$var wire 1 Y! \Add2~51\ $end
$var wire 1 Z! \Add2~52_combout\ $end
$var wire 1 [! \Add2~53\ $end
$var wire 1 \! \Add2~54_combout\ $end
$var wire 1 ]! \Add2~55\ $end
$var wire 1 ^! \Add2~56_combout\ $end
$var wire 1 _! \Add2~57\ $end
$var wire 1 `! \Add2~58_combout\ $end
$var wire 1 a! \Add2~59\ $end
$var wire 1 b! \Add2~60_combout\ $end
$var wire 1 c! \Add2~61\ $end
$var wire 1 d! \Add2~62_combout\ $end
$var wire 1 e! \Equal2~8_combout\ $end
$var wire 1 f! \Equal2~5_combout\ $end
$var wire 1 g! \Equal2~7_combout\ $end
$var wire 1 h! \Equal2~6_combout\ $end
$var wire 1 i! \Equal2~9_combout\ $end
$var wire 1 j! \LessThan0~6_combout\ $end
$var wire 1 k! \innercounter[2]~1_combout\ $end
$var wire 1 l! \innercounter~0_combout\ $end
$var wire 1 m! \innercounter~2_combout\ $end
$var wire 1 n! \PWM_DCmot~1_combout\ $end
$var wire 1 o! \PWM_DCmot~2_combout\ $end
$var wire 1 p! \PWM_DCmot~3_combout\ $end
$var wire 1 q! \PWM_DCmot~5_combout\ $end
$var wire 1 r! \PWM_DCmot~reg0_q\ $end
$var wire 1 s! counter [14] $end
$var wire 1 t! counter [13] $end
$var wire 1 u! counter [12] $end
$var wire 1 v! counter [11] $end
$var wire 1 w! counter [10] $end
$var wire 1 x! counter [9] $end
$var wire 1 y! counter [8] $end
$var wire 1 z! counter [7] $end
$var wire 1 {! counter [6] $end
$var wire 1 |! counter [5] $end
$var wire 1 }! counter [4] $end
$var wire 1 ~! counter [3] $end
$var wire 1 !" counter [2] $end
$var wire 1 "" counter [1] $end
$var wire 1 #" counter [0] $end
$var wire 1 $" innercounter [2] $end
$var wire 1 %" innercounter [1] $end
$var wire 1 &" innercounter [0] $end
$var wire 1 '" flag [31] $end
$var wire 1 (" flag [30] $end
$var wire 1 )" flag [29] $end
$var wire 1 *" flag [28] $end
$var wire 1 +" flag [27] $end
$var wire 1 ," flag [26] $end
$var wire 1 -" flag [25] $end
$var wire 1 ." flag [24] $end
$var wire 1 /" flag [23] $end
$var wire 1 0" flag [22] $end
$var wire 1 1" flag [21] $end
$var wire 1 2" flag [20] $end
$var wire 1 3" flag [19] $end
$var wire 1 4" flag [18] $end
$var wire 1 5" flag [17] $end
$var wire 1 6" flag [16] $end
$var wire 1 7" flag [15] $end
$var wire 1 8" flag [14] $end
$var wire 1 9" flag [13] $end
$var wire 1 :" flag [12] $end
$var wire 1 ;" flag [11] $end
$var wire 1 <" flag [10] $end
$var wire 1 =" flag [9] $end
$var wire 1 >" flag [8] $end
$var wire 1 ?" flag [7] $end
$var wire 1 @" flag [6] $end
$var wire 1 A" flag [5] $end
$var wire 1 B" flag [4] $end
$var wire 1 C" flag [3] $end
$var wire 1 D" flag [2] $end
$var wire 1 E" flag [1] $end
$var wire 1 F" flag [0] $end
$upscope $end
$upscope $end
$enddefinitions $end
#0
$dumpvars
0!
0%
0&
1'
x(
1)
1*
1+
1,
1-
1.
0/
03
0B
zC
zD
zE
0F
0G
0H
1I
0J
0K
1L
0M
0N
0O
1P
0Q
0R
0S
0T
1U
0V
0W
0X
1Y
0Z
1[
0\
0]
0^
1_
0`
0a
0b
0c
0d
1e
0f
0g
0h
1i
0j
0k
0l
0m
0n
0o
1p
1q
1r
1s
1t
1u
1v
1w
1x
1y
1z
1{
1|
0}
1~
0!!
1"!
0#!
1$!
1%!
1&!
1'!
0(!
0)!
1*!
1+!
0,!
0-!
0.!
1/!
00!
01!
02!
13!
04!
05!
06!
17!
08!
09!
0:!
1;!
0<!
0=!
0>!
1?!
0@!
0A!
0B!
1C!
0D!
0E!
0F!
1G!
0H!
0I!
0J!
1K!
0L!
0M!
0N!
1O!
0P!
0Q!
0R!
1S!
0T!
0U!
0V!
1W!
0X!
0Y!
0Z!
1[!
0\!
0]!
0^!
1_!
0`!
0a!
0b!
1c!
0d!
1e!
1f!
1g!
1h!
1i!
1j!
0k!
0l!
0m!
1n!
1o!
1p!
1q!
0r!
1"
1#
1$
10
11
12
0s!
0t!
0u!
0v!
0w!
0x!
0y!
0z!
0{!
0|!
0}!
0~!
0!"
0""
0#"
0$"
0%"
0&"
0'"
0("
0)"
0*"
0+"
0,"
0-"
0."
0/"
00"
01"
02"
03"
04"
05"
06"
07"
08"
09"
0:"
0;"
0<"
0="
0>"
0?"
0@"
0A"
0B"
0C"
0D"
0E"
0F"
1>
1?
1@
0A
04
05
06
07
08
09
0:
0;
0<
0=
$end
#5000
1!
1/
1G
1A
1H
1#"
1r!
1F
0I
1J
13
1K
1%
#10000
0!
0/
0G
0A
0H
#15000
1!
1/
1G
1A
1H
0#"
1""
0K
0L
1I
0J
1K
1L
1M
0M
#20000
0!
0/
0G
0A
0H
#25000
1!
1/
1G
1A
1H
1#"
0I
1J
0y
0K
0L
1M
#30000
0!
0/
0G
0A
0H
#35000
1!
1/
1G
1A
1H
0#"
0""
1!"
0M
1N
1K
1L
1I
0J
0K
1M
0N
1O
0O
#40000
0!
0/
0G
0A
0H
#45000
1!
1/
1G
1A
1H
1#"
0I
1J
1K
#50000
0!
0/
0G
0A
0H
#55000
1!
1/
1G
1A
1H
0#"
1""
0K
0L
1I
0J
1K
1L
0M
1N
1O
1M
0N
0O
#60000
0!
0/
0G
0A
0H
#65000
1!
1/
1G
1A
1H
1#"
0I
1J
0p
0r
0j!
0K
0L
0M
1N
1k!
1!!
1O
#70000
0!
0/
0G
0A
0H
#75000
1!
1/
1G
1A
1H
0#"
0""
0!"
1~!
1F"
1D"
1&"
0{
1m!
1)!
1}
0"!
0$!
0O
0P
0x
1M
0N
1K
1L
1I
0J
1p
1y
0K
0M
1O
1P
0y
1Q
0'!
1#!
1(!
0~
0)!
0k!
0Q
0*!
#80000
0!
0/
0G
0A
0H
#85000
1!
1/
1G
1A
1H
1#"
0F"
1E"
0D"
1)!
0+!
0#!
0(!
0}
1"!
0I
1J
1K
1#!
1~
0)!
1+!
1,!
1-!
1*!
1.!
0/!
0,!
0-!
0*!
0.!
1/!
10!
11!
12!
03!
00!
01!
02!
13!
14!
15!
16!
07!
04!
05!
06!
17!
18!
19!
1:!
0;!
08!
09!
0:!
1;!
1<!
1=!
1>!
0?!
0<!
0=!
0>!
1?!
1@!
1A!
1B!
0C!
0@!
0A!
0B!
1C!
1D!
1E!
1F!
0G!
0D!
0E!
0F!
1G!
1H!
1I!
1J!
0K!
0H!
0I!
0J!
1K!
1L!
1M!
1N!
0O!
0L!
0M!
0N!
1O!
1P!
1Q!
1R!
0S!
0P!
0Q!
0R!
1S!
1T!
1U!
1V!
0W!
0T!
0U!
0V!
1W!
1X!
1Y!
1Z!
0[!
0X!
0Y!
0Z!
1[!
1\!
1]!
1^!
0_!
0\!
0]!
0^!
1_!
1`!
1a!
1b!
0c!
0`!
0a!
0b!
1c!
1d!
0d!
#90000
0!
0/
0G
0A
0H
#95000
1!
1/
1G
1A
1H
0#"
1""
1F"
1}
0"!
0K
0L
1I
0J
1K
1L
1M
0#!
0~
0M
#100000
0!
0/
0G
0A
0H
#105000
1!
1/
1G
1A
1H
1#"
0F"
0E"
1#!
1(!
0}
1"!
1$!
0I
1J
0K
0L
1'!
0#!
0(!
1~
1)!
0+!
1,!
1-!
0)!
1+!
1*!
1k!
1M
0,!
0-!
1.!
0/!
10!
11!
0.!
1/!
00!
01!
12!
03!
14!
15!
02!
13!
04!
05!
16!
07!
18!
19!
06!
17!
08!
09!
1:!
0;!
1<!
1=!
0:!
1;!
0<!
0=!
1>!
0?!
1@!
1A!
0>!
1?!
0@!
0A!
1B!
0C!
1D!
1E!
0B!
1C!
0D!
0E!
1F!
0G!
1H!
1I!
0F!
1G!
0H!
0I!
1J!
0K!
1L!
1M!
0J!
1K!
0L!
0M!
1N!
0O!
1P!
1Q!
0N!
1O!
0P!
0Q!
1R!
0S!
1T!
1U!
0R!
1S!
0T!
0U!
1V!
0W!
1X!
1Y!
0V!
1W!
0X!
0Y!
1Z!
0[!
1\!
1]!
0Z!
1[!
0\!
0]!
1^!
0_!
1`!
1a!
0^!
1_!
0`!
0a!
1b!
0c!
1d!
0b!
1c!
0d!
#110000
0!
0/
0G
0A
0H
#115000
1!
1/
1G
1A
1H
0#"
0""
1!"
1F"
1D"
0&"
1%"
1{
1)!
1}
0"!
0$!
0M
1N
1K
1L
1I
0J
0K
1M
0N
0O
0P
0'!
1#!
1(!
0~
0)!
0k!
1Q
1O
1P
0Q
0*!
#120000
0!
0/
0G
0A
0H
#125000
1!
1/
1G
1A
1H
1#"
0F"
1E"
0D"
1)!
0+!
0#!
0(!
0}
1"!
0I
1J
1K
1#!
1~
0)!
1+!
1,!
1-!
1*!
1.!
0/!
0,!
0-!
0*!
0.!
1/!
10!
11!
12!
03!
00!
01!
02!
13!
14!
15!
16!
07!
04!
05!
06!
17!
18!
19!
1:!
0;!
08!
09!
0:!
1;!
1<!
1=!
1>!
0?!
0<!
0=!
0>!
1?!
1@!
1A!
1B!
0C!
0@!
0A!
0B!
1C!
1D!
1E!
1F!
0G!
0D!
0E!
0F!
1G!
1H!
1I!
1J!
0K!
0H!
0I!
0J!
1K!
1L!
1M!
1N!
0O!
0L!
0M!
0N!
1O!
1P!
1Q!
1R!
0S!
0P!
0Q!
0R!
1S!
1T!
1U!
1V!
0W!
0T!
0U!
0V!
1W!
1X!
1Y!
1Z!
0[!
0X!
0Y!
0Z!
1[!
1\!
1]!
1^!
0_!
0\!
0]!
0^!
1_!
1`!
1a!
1b!
0c!
0`!
0a!
0b!
1c!
1d!
0d!
#130000
0!
0/
0G
0A
0H
#135000
1!
1/
1G
1A
1H
0#"
1""
1F"
1}
0"!
0K
0L
1I
0J
1K
1L
0M
1N
0#!
0~
0O
0P
1M
0N
1O
1P
1Q
0Q
#140000
0!
0/
0G
0A
0H
#145000
1!
1/
1G
1A
1H
1#"
0F"
0E"
1#!
1(!
0}
1"!
1$!
0I
1J
1T
0p
0K
0L
1'!
0#!
0(!
1~
1)!
0+!
1,!
1-!
0)!
1+!
1*!
1k!
0M
1N
0O
0P
0,!
0-!
1.!
0/!
10!
11!
0.!
1/!
1Q
00!
01!
12!
03!
14!
15!
02!
13!
04!
05!
16!
07!
18!
19!
06!
17!
08!
09!
1:!
0;!
1<!
1=!
0:!
1;!
0<!
0=!
1>!
0?!
1@!
1A!
0>!
1?!
0@!
0A!
1B!
0C!
1D!
1E!
0B!
1C!
0D!
0E!
1F!
0G!
1H!
1I!
0F!
1G!
0H!
0I!
1J!
0K!
1L!
1M!
0J!
1K!
0L!
0M!
1N!
0O!
1P!
1Q!
0N!
1O!
0P!
0Q!
1R!
0S!
1T!
1U!
0R!
1S!
0T!
0U!
1V!
0W!
1X!
1Y!
0V!
1W!
0X!
0Y!
1Z!
0[!
1\!
1]!
0Z!
1[!
0\!
0]!
1^!
0_!
1`!
1a!
0^!
1_!
0`!
0a!
1b!
0c!
1d!
0b!
1c!
0d!
#150000
0!
0/
0G
0A
0H
#155000
1!
1/
1G
1A
1H
0#"
0""
0!"
0~!
1}!
1F"
1D"
1&"
0{
1l!
0m!
0n!
1)!
1}
0"!
0$!
0Q
1R
1O
1P
1M
0N
1K
1L
1I
0J
0T
1p
0K
0M
0O
1Q
0R
1S
0'!
1#!
1(!
0~
0)!
0k!
1o
0S
0o
0*!
#160000
0!
0/
0G
0A
0H
#165000
1!
1/
1G
1A
1H
1#"
0F"
1E"
0D"
1)!
0+!
0#!
0(!
0}
1"!
0I
1J
1K
1#!
1~
0)!
1+!
1,!
1-!
1*!
1.!
0/!
0,!
0-!
0*!
0.!
1/!
10!
11!
12!
03!
00!
01!
02!
13!
14!
15!
16!
07!
04!
05!
06!
17!
18!
19!
1:!
0;!
08!
09!
0:!
1;!
1<!
1=!
1>!
0?!
0<!
0=!
0>!
1?!
1@!
1A!
1B!
0C!
0@!
0A!
0B!
1C!
1D!
1E!
1F!
0G!
0D!
0E!
0F!
1G!
1H!
1I!
1J!
0K!
0H!
0I!
0J!
1K!
1L!
1M!
1N!
0O!
0L!
0M!
0N!
1O!
1P!
1Q!
1R!
0S!
0P!
0Q!
0R!
1S!
1T!
1U!
1V!
0W!
0T!
0U!
0V!
1W!
1X!
1Y!
1Z!
0[!
0X!
0Y!
0Z!
1[!
1\!
1]!
1^!
0_!
0\!
0]!
0^!
1_!
1`!
1a!
1b!
0c!
0`!
0a!
0b!
1c!
1d!
0d!
#170000
0!
0/
0G
0A
0H
#175000
1!
1/
1G
1A
1H
0#"
1""
1F"
1}
0"!
0K
0L
1I
0J
1K
1L
1M
0#!
0~
0M
#180000
0!
0/
0G
0A
0H
#185000
1!
1/
1G
1A
1H
1#"
0F"
0E"
1#!
1(!
0}
1"!
1$!
0I
1J
0K
0L
1'!
0#!
0(!
1~
1)!
0+!
1,!
1-!
0)!
1+!
1*!
1k!
1M
0,!
0-!
1.!
0/!
10!
11!
0.!
1/!
00!
01!
12!
03!
14!
15!
02!
13!
04!
05!
16!
07!
18!
19!
06!
17!
08!
09!
1:!
0;!
1<!
1=!
0:!
1;!
0<!
0=!
1>!
0?!
1@!
1A!
0>!
1?!
0@!
0A!
1B!
0C!
1D!
1E!
0B!
1C!
0D!
0E!
1F!
0G!
1H!
1I!
0F!
1G!
0H!
0I!
1J!
0K!
1L!
1M!
0J!
1K!
0L!
0M!
1N!
0O!
1P!
1Q!
0N!
1O!
0P!
0Q!
1R!
0S!
1T!
1U!
0R!
1S!
0T!
0U!
1V!
0W!
1X!
1Y!
0V!
1W!
0X!
0Y!
1Z!
0[!
1\!
1]!
0Z!
1[!
0\!
0]!
1^!
0_!
1`!
1a!
0^!
1_!
0`!
0a!
1b!
0c!
1d!
0b!
1c!
0d!
#190000
0!
0/
0G
0A
0H
#195000
1!
1/
1G
1A
1H
0#"
0""
1!"
1F"
1D"
0&"
1$"
0%"
0o!
1{
1n!
1)!
1}
0"!
0$!
0M
1N
1K
1L
1I
0J
0K
1M
0N
1O
0'!
1#!
1(!
0~
1o!
0p!
0q!
0)!
0k!
1p!
0O
1q!
0*!
#200000
0!
0/
0G
0A
0H
#205000
1!
1/
1G
1A
1H
1#"
0F"
1E"
0D"
1)!
0+!
0#!
0(!
0}
1"!
0I
1J
1K
1#!
1~
0)!
1+!
1,!
1-!
1*!
1.!
0/!
0,!
0-!
0*!
0.!
1/!
10!
11!
12!
03!
00!
01!
02!
13!
14!
15!
16!
07!
04!
05!
06!
17!
18!
19!
1:!
0;!
08!
09!
0:!
1;!
1<!
1=!
1>!
0?!
0<!
0=!
0>!
1?!
1@!
1A!
1B!
0C!
0@!
0A!
0B!
1C!
1D!
1E!
1F!
0G!
0D!
0E!
0F!
1G!
1H!
1I!
1J!
0K!
0H!
0I!
0J!
1K!
1L!
1M!
1N!
0O!
0L!
0M!
0N!
1O!
1P!
1Q!
1R!
0S!
0P!
0Q!
0R!
1S!
1T!
1U!
1V!
0W!
0T!
0U!
0V!
1W!
1X!
1Y!
1Z!
0[!
0X!
0Y!
0Z!
1[!
1\!
1]!
1^!
0_!
0\!
0]!
0^!
1_!
1`!
1a!
1b!
0c!
0`!
0a!
0b!
1c!
1d!
0d!
#210000
0!
0/
0G
0A
0H
#215000
1!
1/
1G
1A
1H
0#"
1""
1F"
1}
0"!
0K
0L
1I
0J
1K
1L
0M
1N
0#!
0~
1O
1M
0N
0O
#220000
0!
0/
0G
0A
0H
#225000
1!
1/
1G
1A
1H
1#"
0F"
0E"
1#!
1(!
0}
1"!
1$!
0I
1J
0p
0K
0L
1'!
0#!
0(!
1~
1)!
0+!
1,!
1-!
0)!
1+!
1*!
1k!
0M
1N
1O
0,!
0-!
1.!
0/!
10!
11!
0.!
1/!
00!
01!
12!
03!
14!
15!
02!
13!
04!
05!
16!
07!
18!
19!
06!
17!
08!
09!
1:!
0;!
1<!
1=!
0:!
1;!
0<!
0=!
1>!
0?!
1@!
1A!
0>!
1?!
0@!
0A!
1B!
0C!
1D!
1E!
0B!
1C!
0D!
0E!
1F!
0G!
1H!
1I!
0F!
1G!
0H!
0I!
1J!
0K!
1L!
1M!
0J!
1K!
0L!
0M!
1N!
0O!
1P!
1Q!
0N!
1O!
0P!
0Q!
1R!
0S!
1T!
1U!
0R!
1S!
0T!
0U!
1V!
0W!
1X!
1Y!
0V!
1W!
0X!
0Y!
1Z!
0[!
1\!
1]!
0Z!
1[!
0\!
0]!
1^!
0_!
1`!
1a!
0^!
1_!
0`!
0a!
1b!
0c!
1d!
0b!
1c!
0d!
#230000
0!
0/
0G
0A
0H
#235000
1!
1/
1G
1A
1H
0#"
0""
0!"
1~!
1F"
1D"
1&"
0{
1m!
1)!
1}
0"!
0$!
0O
0P
1M
0N
1K
1L
1I
0J
1p
0K
0M
1O
1P
0Q
1R
0'!
1#!
1(!
0~
0)!
0k!
1S
1Q
0R
0S
1o
0*!
0o
#240000
0!
0/
0G
0A
0H
#245000
1!
1/
1G
1A
1H
1#"
0F"
1E"
0D"
1)!
0+!
0#!
0(!
0}
1"!
0I
1J
1K
1#!
1~
0)!
1+!
1,!
1-!
1*!
1.!
0/!
0,!
0-!
0*!
0.!
1/!
10!
11!
12!
03!
00!
01!
02!
13!
14!
15!
16!
07!
04!
05!
06!
17!
18!
19!
1:!
0;!
08!
09!
0:!
1;!
1<!
1=!
1>!
0?!
0<!
0=!
0>!
1?!
1@!
1A!
1B!
0C!
0@!
0A!
0B!
1C!
1D!
1E!
1F!
0G!
0D!
0E!
0F!
1G!
1H!
1I!
1J!
0K!
0H!
0I!
0J!
1K!
1L!
1M!
1N!
0O!
0L!
0M!
0N!
1O!
1P!
1Q!
1R!
0S!
0P!
0Q!
0R!
1S!
1T!
1U!
1V!
0W!
0T!
0U!
0V!
1W!
1X!
1Y!
1Z!
0[!
0X!
0Y!
0Z!
1[!
1\!
1]!
1^!
0_!
0\!
0]!
0^!
1_!
1`!
1a!
1b!
0c!
0`!
0a!
0b!
1c!
1d!
0d!
#250000
0!
0/
0G
0A
0H
#255000
1!
1/
1G
1A
1H
0#"
1""
1F"
1}
0"!
0K
0L
1I
0J
1K
1L
1M
0#!
0~
0M
#260000
0!
0/
0G
0A
0H
#265000
1!
1/
1G
1A
1H
1#"
0F"
0E"
1#!
1(!
0}
1"!
1$!
0I
1J
0K
0L
1'!
0#!
0(!
1~
1)!
0+!
1,!
1-!
0)!
1+!
1*!
1k!
1M
0,!
0-!
1.!
0/!
10!
11!
0.!
1/!
00!
01!
12!
03!
14!
15!
02!
13!
04!
05!
16!
07!
18!
19!
06!
17!
08!
09!
1:!
0;!
1<!
1=!
0:!
1;!
0<!
0=!
1>!
0?!
1@!
1A!
0>!
1?!
0@!
0A!
1B!
0C!
1D!
1E!
0B!
1C!
0D!
0E!
1F!
0G!
1H!
1I!
0F!
1G!
0H!
0I!
1J!
0K!
1L!
1M!
0J!
1K!
0L!
0M!
1N!
0O!
1P!
1Q!
0N!
1O!
0P!
0Q!
1R!
0S!
1T!
1U!
0R!
1S!
0T!
0U!
1V!
0W!
1X!
1Y!
0V!
1W!
0X!
0Y!
1Z!
0[!
1\!
1]!
0Z!
1[!
0\!
0]!
1^!
0_!
1`!
1a!
0^!
1_!
0`!
0a!
1b!
0c!
1d!
0b!
1c!
0d!
#270000
0!
0/
0G
0A
0H
#275000
1!
1/
1G
1A
1H
0#"
0""
1!"
1F"
1D"
0&"
1%"
0l!
0m!
1)!
1}
0"!
0$!
0M
1N
1K
1L
1I
0J
0K
1M
0N
0O
0P
0'!
1#!
1(!
0~
0)!
0k!
0Q
1R
1O
1P
1Q
0R
1S
0*!
1o
0S
0o
#280000
0!
0/
0G
0A
0H
#285000
1!
1/
1G
1A
1H
1#"
0F"
1E"
0D"
1)!
0+!
0#!
0(!
0}
1"!
0I
1J
1K
1#!
1~
0)!
1+!
1,!
1-!
1*!
1.!
0/!
0,!
0-!
0*!
0.!
1/!
10!
11!
12!
03!
00!
01!
02!
13!
14!
15!
16!
07!
04!
05!
06!
17!
18!
19!
1:!
0;!
08!
09!
0:!
1;!
1<!
1=!
1>!
0?!
0<!
0=!
0>!
1?!
1@!
1A!
1B!
0C!
0@!
0A!
0B!
1C!
1D!
1E!
1F!
0G!
0D!
0E!
0F!
1G!
1H!
1I!
1J!
0K!
0H!
0I!
0J!
1K!
1L!
1M!
1N!
0O!
0L!
0M!
0N!
1O!
1P!
1Q!
1R!
0S!
0P!
0Q!
0R!
1S!
1T!
1U!
1V!
0W!
0T!
0U!
0V!
1W!
1X!
1Y!
1Z!
0[!
0X!
0Y!
0Z!
1[!
1\!
1]!
1^!
0_!
0\!
0]!
0^!
1_!
1`!
1a!
1b!
0c!
0`!
0a!
0b!
1c!
1d!
0d!
#290000
0!
0/
0G
0A
0H
#295000
1!
1/
1G
1A
1H
0#"
1""
1F"
1}
0"!
0K
0L
1I
0J
1K
1L
0M
1N
0#!
0~
0O
0P
1M
0N
1O
1P
0Q
1R
1S
1Q
0R
0S
1o
0o
#300000
0!
0/
0G
0A
0H
#305000
1!
1/
1G
1A
1H
1#"
0F"
0E"
1#!
1(!
0}
1"!
1$!
0I
1J
1T
0p
0K
0L
1'!
0#!
0(!
1~
1)!
0+!
1,!
1-!
0)!
1+!
1*!
1k!
0M
1N
0O
0P
0,!
0-!
1.!
0/!
10!
11!
0.!
1/!
0Q
1R
1S
00!
01!
12!
03!
14!
15!
02!
13!
1o
04!
05!
16!
07!
18!
19!
06!
17!
08!
09!
1:!
0;!
1<!
1=!
0:!
1;!
0<!
0=!
1>!
0?!
1@!
1A!
0>!
1?!
0@!
0A!
1B!
0C!
1D!
1E!
0B!
1C!
0D!
0E!
1F!
0G!
1H!
1I!
0F!
1G!
0H!
0I!
1J!
0K!
1L!
1M!
0J!
1K!
0L!
0M!
1N!
0O!
1P!
1Q!
0N!
1O!
0P!
0Q!
1R!
0S!
1T!
1U!
0R!
1S!
0T!
0U!
1V!
0W!
1X!
1Y!
0V!
1W!
0X!
0Y!
1Z!
0[!
1\!
1]!
0Z!
1[!
0\!
0]!
1^!
0_!
1`!
1a!
0^!
1_!
0`!
0a!
1b!
0c!
1d!
0b!
1c!
0d!
