components/preliminary_control_folder/preliminary_control/simulation/qsim/preliminary_control.msim.vcd
$comment
	File created using the following command:
		vcd file preliminary_control.msim.vcd -direction
$end
$date
	Tue May 28 14:32:45 2024
$end
$version
	ModelSim Version 2020.1
$end
$timescale
	1ps
$end

$scope module preliminary_control_vhd_vec_tst $end
$var wire 1 ! CLK3 $end
$var wire 1 " EN_SW $end
$var wire 1 # o_RX_DV $end
$var wire 1 $ RX_data_IN [7] $end
$var wire 1 % RX_data_IN [6] $end
$var wire 1 & RX_data_IN [5] $end
$var wire 1 ' RX_data_IN [4] $end
$var wire 1 ( RX_data_IN [3] $end
$var wire 1 ) RX_data_IN [2] $end
$var wire 1 * RX_data_IN [1] $end
$var wire 1 + RX_data_IN [0] $end
$var wire 1 , RX_data_OUT [7] $end
$var wire 1 - RX_data_OUT [6] $end
$var wire 1 . RX_data_OUT [5] $end
$var wire 1 / RX_data_OUT [4] $end
$var wire 1 0 RX_data_OUT [3] $end
$var wire 1 1 RX_data_OUT [2] $end
$var wire 1 2 RX_data_OUT [1] $end
$var wire 1 3 RX_data_OUT [0] $end

$scope module i1 $end
$var wire 1 4 gnd $end
$var wire 1 5 vcc $end
$var wire 1 6 unknown $end
$var wire 1 7 devoe $end
$var wire 1 8 devclrn $end
$var wire 1 9 devpor $end
$var wire 1 : ww_devoe $end
$var wire 1 ; ww_devclrn $end
$var wire 1 < ww_devpor $end
$var wire 1 = ww_CLK3 $end
$var wire 1 > ww_o_RX_DV $end
$var wire 1 ? ww_RX_data_IN [7] $end
$var wire 1 @ ww_RX_data_IN [6] $end
$var wire 1 A ww_RX_data_IN [5] $end
$var wire 1 B ww_RX_data_IN [4] $end
$var wire 1 C ww_RX_data_IN [3] $end
$var wire 1 D ww_RX_data_IN [2] $end
$var wire 1 E ww_RX_data_IN [1] $end
$var wire 1 F ww_RX_data_IN [0] $end
$var wire 1 G ww_RX_data_OUT [7] $end
$var wire 1 H ww_RX_data_OUT [6] $end
$var wire 1 I ww_RX_data_OUT [5] $end
$var wire 1 J ww_RX_data_OUT [4] $end
$var wire 1 K ww_RX_data_OUT [3] $end
$var wire 1 L ww_RX_data_OUT [2] $end
$var wire 1 M ww_RX_data_OUT [1] $end
$var wire 1 N ww_RX_data_OUT [0] $end
$var wire 1 O ww_EN_SW $end
$var wire 1 P \~QUARTUS_CREATED_ADC1~_CHSEL_bus\ [4] $end
$var wire 1 Q \~QUARTUS_CREATED_ADC1~_CHSEL_bus\ [3] $end
$var wire 1 R \~QUARTUS_CREATED_ADC1~_CHSEL_bus\ [2] $end
$var wire 1 S \~QUARTUS_CREATED_ADC1~_CHSEL_bus\ [1] $end
$var wire 1 T \~QUARTUS_CREATED_ADC1~_CHSEL_bus\ [0] $end
$var wire 1 U \~QUARTUS_CREATED_ADC2~_CHSEL_bus\ [4] $end
$var wire 1 V \~QUARTUS_CREATED_ADC2~_CHSEL_bus\ [3] $end
$var wire 1 W \~QUARTUS_CREATED_ADC2~_CHSEL_bus\ [2] $end
$var wire 1 X \~QUARTUS_CREATED_ADC2~_CHSEL_bus\ [1] $end
$var wire 1 Y \~QUARTUS_CREATED_ADC2~_CHSEL_bus\ [0] $end
$var wire 1 Z \CLK3~inputclkctrl_INCLK_bus\ [3] $end
$var wire 1 [ \CLK3~inputclkctrl_INCLK_bus\ [2] $end
$var wire 1 \ \CLK3~inputclkctrl_INCLK_bus\ [1] $end
$var wire 1 ] \CLK3~inputclkctrl_INCLK_bus\ [0] $end
$var wire 1 ^ \~QUARTUS_CREATED_GND~I_combout\ $end
$var wire 1 _ \~QUARTUS_CREATED_UNVM~~busy\ $end
$var wire 1 ` \~QUARTUS_CREATED_ADC1~~eoc\ $end
$var wire 1 a \~QUARTUS_CREATED_ADC2~~eoc\ $end
$var wire 1 b \RX_data_OUT[0]~output_o\ $end
$var wire 1 c \RX_data_OUT[1]~output_o\ $end
$var wire 1 d \RX_data_OUT[2]~output_o\ $end
$var wire 1 e \RX_data_OUT[3]~output_o\ $end
$var wire 1 f \RX_data_OUT[4]~output_o\ $end
$var wire 1 g \RX_data_OUT[5]~output_o\ $end
$var wire 1 h \RX_data_OUT[6]~output_o\ $end
$var wire 1 i \RX_data_OUT[7]~output_o\ $end
$var wire 1 j \EN_SW~input_o\ $end
$var wire 1 k \RX_data_IN[0]~input_o\ $end
$var wire 1 l \CLK3~input_o\ $end
$var wire 1 m \CLK3~inputclkctrl_outclk\ $end
$var wire 1 n \o_RX_DV~input_o\ $end
$var wire 1 o \before~q\ $end
$var wire 1 p \check~0_combout\ $end
$var wire 1 q \Add0~0_combout\ $end
$var wire 1 r \counter~64_combout\ $end
$var wire 1 s \Add0~1\ $end
$var wire 1 t \Add0~2_combout\ $end
$var wire 1 u \counter~75_combout\ $end
$var wire 1 v \counter[30]~66_combout\ $end
$var wire 1 w \Add0~3\ $end
$var wire 1 x \Add0~4_combout\ $end
$var wire 1 y \counter~76_combout\ $end
$var wire 1 z \Add0~5\ $end
$var wire 1 { \Add0~6_combout\ $end
$var wire 1 | \counter~77_combout\ $end
$var wire 1 } \Add0~7\ $end
$var wire 1 ~ \Add0~8_combout\ $end
$var wire 1 !! \counter~78_combout\ $end
$var wire 1 "! \Add0~9\ $end
$var wire 1 #! \Add0~10_combout\ $end
$var wire 1 $! \counter~79_combout\ $end
$var wire 1 %! \Add0~11\ $end
$var wire 1 &! \Add0~12_combout\ $end
$var wire 1 '! \counter~67_combout\ $end
$var wire 1 (! \Add0~13\ $end
$var wire 1 )! \Add0~14_combout\ $end
$var wire 1 *! \counter~68_combout\ $end
$var wire 1 +! \Add0~15\ $end
$var wire 1 ,! \Add0~16_combout\ $end
$var wire 1 -! \counter~69_combout\ $end
$var wire 1 .! \Add0~17\ $end
$var wire 1 /! \Add0~18_combout\ $end
$var wire 1 0! \counter~70_combout\ $end
$var wire 1 1! \Add0~19\ $end
$var wire 1 2! \Add0~20_combout\ $end
$var wire 1 3! \counter~71_combout\ $end
$var wire 1 4! \Add0~21\ $end
$var wire 1 5! \Add0~22_combout\ $end
$var wire 1 6! \counter~72_combout\ $end
$var wire 1 7! \Add0~23\ $end
$var wire 1 8! \Add0~24_combout\ $end
$var wire 1 9! \counter~73_combout\ $end
$var wire 1 :! \Add0~25\ $end
$var wire 1 ;! \Add0~26_combout\ $end
$var wire 1 <! \counter~74_combout\ $end
$var wire 1 =! \Add0~27\ $end
$var wire 1 >! \Add0~28_combout\ $end
$var wire 1 ?! \counter~80_combout\ $end
$var wire 1 @! \Add0~29\ $end
$var wire 1 A! \Add0~30_combout\ $end
$var wire 1 B! \counter~81_combout\ $end
$var wire 1 C! \Add0~31\ $end
$var wire 1 D! \Add0~32_combout\ $end
$var wire 1 E! \counter~82_combout\ $end
$var wire 1 F! \Add0~33\ $end
$var wire 1 G! \Add0~34_combout\ $end
$var wire 1 H! \counter~83_combout\ $end
$var wire 1 I! \Add0~35\ $end
$var wire 1 J! \Add0~36_combout\ $end
$var wire 1 K! \counter~84_combout\ $end
$var wire 1 L! \Add0~37\ $end
$var wire 1 M! \Add0~38_combout\ $end
$var wire 1 N! \counter~85_combout\ $end
$var wire 1 O! \Add0~39\ $end
$var wire 1 P! \Add0~40_combout\ $end
$var wire 1 Q! \counter~86_combout\ $end
$var wire 1 R! \Add0~41\ $end
$var wire 1 S! \Add0~42_combout\ $end
$var wire 1 T! \counter~87_combout\ $end
$var wire 1 U! \Add0~43\ $end
$var wire 1 V! \Add0~44_combout\ $end
$var wire 1 W! \counter~88_combout\ $end
$var wire 1 X! \Add0~45\ $end
$var wire 1 Y! \Add0~46_combout\ $end
$var wire 1 Z! \counter~89_combout\ $end
$var wire 1 [! \Add0~47\ $end
$var wire 1 \! \Add0~48_combout\ $end
$var wire 1 ]! \counter~90_combout\ $end
$var wire 1 ^! \Add0~49\ $end
$var wire 1 _! \Add0~50_combout\ $end
$var wire 1 `! \counter~91_combout\ $end
$var wire 1 a! \Add0~51\ $end
$var wire 1 b! \Add0~52_combout\ $end
$var wire 1 c! \counter~92_combout\ $end
$var wire 1 d! \Add0~53\ $end
$var wire 1 e! \Add0~54_combout\ $end
$var wire 1 f! \counter~93_combout\ $end
$var wire 1 g! \Add0~55\ $end
$var wire 1 h! \Add0~56_combout\ $end
$var wire 1 i! \counter~94_combout\ $end
$var wire 1 j! \Add0~57\ $end
$var wire 1 k! \Add0~58_combout\ $end
$var wire 1 l! \counter~95_combout\ $end
$var wire 1 m! \Add0~59\ $end
$var wire 1 n! \Add0~60_combout\ $end
$var wire 1 o! \counter~96_combout\ $end
$var wire 1 p! \Add0~61\ $end
$var wire 1 q! \Add0~62_combout\ $end
$var wire 1 r! \counter~65_combout\ $end
$var wire 1 s! \LessThan0~0_combout\ $end
$var wire 1 t! \LessThan0~2_combout\ $end
$var wire 1 u! \LessThan0~1_combout\ $end
$var wire 1 v! \LessThan0~3_combout\ $end
$var wire 1 w! \LessThan0~4_combout\ $end
$var wire 1 x! \LessThan0~6_combout\ $end
$var wire 1 y! \LessThan0~5_combout\ $end
$var wire 1 z! \LessThan0~7_combout\ $end
$var wire 1 {! \LessThan0~8_combout\ $end
$var wire 1 |! \LessThan0~9_combout\ $end
$var wire 1 }! \flag_error~2_combout\ $end
$var wire 1 ~! \flag_error~q\ $end
$var wire 1 !" \RX_data_OUT~0_combout\ $end
$var wire 1 "" \RX_data_IN[1]~input_o\ $end
$var wire 1 #" \RX_data_OUT~1_combout\ $end
$var wire 1 $" \RX_data_IN[2]~input_o\ $end
$var wire 1 %" \RX_data_OUT~2_combout\ $end
$var wire 1 &" \RX_data_IN[3]~input_o\ $end
$var wire 1 '" \RX_data_OUT~3_combout\ $end
$var wire 1 (" \RX_data_IN[4]~input_o\ $end
$var wire 1 )" \RX_data_OUT~4_combout\ $end
$var wire 1 *" \RX_data_IN[5]~input_o\ $end
$var wire 1 +" \RX_data_OUT~5_combout\ $end
$var wire 1 ," \RX_data_IN[6]~input_o\ $end
$var wire 1 -" \RX_data_OUT~6_combout\ $end
$var wire 1 ." \RX_data_IN[7]~input_o\ $end
$var wire 1 /" \RX_data_OUT~7_combout\ $end
$var wire 1 0" counter [31] $end
$var wire 1 1" counter [30] $end
$var wire 1 2" counter [29] $end
$var wire 1 3" counter [28] $end
$var wire 1 4" counter [27] $end
$var wire 1 5" counter [26] $end
$var wire 1 6" counter [25] $end
$var wire 1 7" counter [24] $end
$var wire 1 8" counter [23] $end
$var wire 1 9" counter [22] $end
$var wire 1 :" counter [21] $end
$var wire 1 ;" counter [20] $end
$var wire 1 <" counter [19] $end
$var wire 1 =" counter [18] $end
$var wire 1 >" counter [17] $end
$var wire 1 ?" counter [16] $end
$var wire 1 @" counter [15] $end
$var wire 1 A" counter [14] $end
$var wire 1 B" counter [13] $end
$var wire 1 C" counter [12] $end
$var wire 1 D" counter [11] $end
$var wire 1 E" counter [10] $end
$var wire 1 F" counter [9] $end
$var wire 1 G" counter [8] $end
$var wire 1 H" counter [7] $end
$var wire 1 I" counter [6] $end
$var wire 1 J" counter [5] $end
$var wire 1 K" counter [4] $end
$var wire 1 L" counter [3] $end
$var wire 1 M" counter [2] $end
$var wire 1 N" counter [1] $end
$var wire 1 O" counter [0] $end
$upscope $end
$upscope $end
$enddefinitions $end
#0
$dumpvars
0!
1"
1#
04
15
x6
17
18
19
1:
1;
1<
0=
1>
1O
0^
z_
z`
za
0b
0c
0d
0e
0f
0g
0h
0i
1j
0k
0l
0m
1n
0o
1p
0q
0r
1s
1t
0u
1v
1w
0x
0y
0z
0{
0|
1}
0~
0!!
0"!
0#!
0$!
1%!
0&!
0'!
0(!
0)!
0*!
1+!
0,!
0-!
0.!
0/!
00!
11!
02!
03!
04!
05!
06!
17!
08!
09!
0:!
0;!
0<!
1=!
0>!
0?!
0@!
0A!
0B!
1C!
0D!
0E!
0F!
0G!
0H!
1I!
0J!
0K!
0L!
0M!
0N!
1O!
0P!
0Q!
0R!
0S!
0T!
1U!
0V!
0W!
0X!
0Y!
0Z!
1[!
0\!
0]!
0^!
0_!
0`!
1a!
0b!
0c!
0d!
0e!
0f!
1g!
0h!
0i!
0j!
0k!
0l!
1m!
0n!
0o!
0p!
0q!
0r!
1s!
1t!
1u!
1v!
1w!
1x!
1y!
1z!
1{!
1|!
0}!
0~!
0!"
0""
0#"
0$"
0%"
0&"
0'"
0("
0)"
0*"
0+"
0,"
0-"
0."
0/"
0$
0%
0&
0'
0(
0)
0*
0+
0?
0@
0A
0B
0C
0D
0E
0F
0G
0H
0I
0J
0K
0L
0M
0N
00"
01"
02"
03"
04"
05"
06"
07"
08"
09"
0:"
0;"
0<"
0="
0>"
0?"
0@"
0A"
0B"
0C"
0D"
0E"
0F"
0G"
0H"
0I"
0J"
0K"
0L"
0M"
0N"
0O"
1Z
1[
1\
0]
0P
0Q
0R
0S
0T
0U
0V
0W
0X
0Y
0,
0-
0.
0/
00
01
02
03
$end
#4900
1!
1=
1l
1]
1m
1o
0p
1u
1r
#10000
0!
0=
0l
0]
0m
#14900
1!
1=
1l
1]
1m
1O"
1N"
0t
0w
1q
0s
1t
1w
0r
1x
0u
1y
0x
1u
0y
#20000
0!
0=
0l
0]
0m
#24900
1!
1=
1l
1]
1m
0O"
0q
1s
0t
0w
1r
1x
0u
1y
#30000
0!
0=
0l
0]
0m
#34900
1!
1=
1l
1]
1m
1O"
0N"
1M"
0x
1z
1t
1w
1q
0s
0t
0r
1x
0z
1u
1{
0y
1|
0{
1y
0u
0|
#40000
0!
0=
0l
0]
0m
#44900
1!
1=
1l
1]
1m
0O"
0q
1s
1t
1r
1u
#50000
0!
0=
0l
0]
0m
#54900
1!
1=
1l
1]
1m
1O"
1N"
0t
0w
1q
0s
1t
1w
0r
0x
1z
0u
1{
0y
1x
0z
1u
0{
1y
1|
0|
#60000
0!
0=
0l
0]
0m
#64900
1!
1=
1l
1]
1m
0O"
0q
1s
0t
0w
1r
0x
1z
0u
1{
0y
1|
#70000
0!
0=
0l
0]
0m
#74900
1!
1=
1l
1]
1m
1O"
0N"
0M"
1L"
0{
0}
1x
0z
1t
1w
1q
0s
0t
0r
0x
1u
1{
1}
1y
1~
0|
1!!
0~
1|
0y
0u
0!!
#80000
0!
0=
0l
0]
0m
#84900
1!
1=
1l
1]
1m
0O"
0q
1s
1t
1r
1u
#90000
0!
0=
0l
0]
0m
#94900
1!
1=
1l
1]
1m
1O"
1N"
0t
0w
1q
0s
1t
1w
0r
1x
0u
1y
0x
1u
0y
#100000
0!
1+
0=
1F
1k
0l
0]
1!"
1b
0m
1N
13
#104900
1!
1=
1l
1]
1m
0O"
0q
1s
0t
0w
1r
1x
0u
1y
#110000
0!
0=
0l
0]
0m
#114900
1!
1=
1l
1]
1m
1O"
0N"
1M"
0x
1z
1t
1w
1q
0s
0t
0r
1x
0z
1u
0{
0}
0y
1~
0|
1{
1}
1y
0u
0~
1|
1!!
0!!
#120000
0!
0=
0l
0]
0m
#124900
1!
1=
1l
1]
1m
0O"
0q
1s
1t
1r
1u
#130000
0!
0=
0l
0]
0m
#134900
1!
1=
1l
1]
1m
1O"
1N"
0t
0w
1q
0s
1t
1w
0r
0x
1z
0u
0{
0}
0y
1x
0z
1u
1{
1}
1y
1~
0|
1!!
0~
1|
0!!
#140000
0!
0=
0l
0]
0m
#144900
1!
1=
1l
1]
1m
0O"
0q
1s
0t
0w
1r
0x
1z
0u
0{
0}
0y
1~
0|
1!!
#150000
0!
0=
0l
0]
0m
#154900
1!
1=
1l
1]
1m
1O"
0N"
0M"
0L"
1K"
0~
1"!
1{
1}
1x
0z
1t
1w
1q
0s
0t
0r
0x
1u
0{
1y
1~
0"!
1|
1#!
0!!
1$!
0#!
1!!
0|
0y
0u
0$!
#160000
0!
0=
0l
0]
0m
#164900
1!
1=
1l
1]
1m
0O"
0q
1s
1t
1r
1u
#170000
0!
0=
0l
0]
0m
#174900
1!
1=
1l
1]
1m
1O"
1N"
0t
0w
0t!
1q
0s
1t
1w
0r
1x
0u
1y
0x
1u
0y
#180000
0!
0=
0l
0]
0m
#184900
1!
1=
1l
1]
1m
0O"
0q
1s
0t
0w
1r
1x
0u
1y
#190000
0!
0=
0l
0]
0m
#194900
1!
1=
1l
1]
1m
1O"
0N"
1M"
0x
1z
1t
1w
1q
0s
0t
0r
1x
0z
1u
1{
0y
1|
0{
1y
0u
0|
#200000
0!
0+
1*
0=
0F
1E
1""
0k
0l
0]
0!"
1#"
1c
0b
0m
1M
0N
03
12
#204900
1!
1=
1l
1]
1m
0O"
0q
1s
1t
1r
1u
#210000
0!
0=
0l
0]
0m
#214900
1!
1=
1l
1]
1m
1O"
1N"
0t
0w
1q
0s
1t
1w
0r
0x
1z
0u
1{
0y
1x
0z
1u
0{
1y
1|
0|
#220000
0!
0=
0l
0]
0m
#224900
1!
1=
1l
1]
1m
0O"
0q
1s
0t
0w
1r
0x
1z
0u
1{
0y
1|
#230000
0!
0=
0l
0]
0m
#234900
1!
1=
1l
1]
1m
1O"
0N"
0M"
1L"
0{
0}
1x
0z
1t
1w
1q
0s
0t
0r
0x
1u
1{
1}
1y
0~
1"!
0|
1#!
0!!
1~
0"!
1|
0y
0u
0#!
1!!
1$!
0$!
#240000
0!
0=
0l
0]
0m
#244900
1!
1=
1l
1]
1m
0O"
0q
1s
1t
1r
1u
#250000
0!
0=
0l
0]
0m
#254900
1!
1=
1l
1]
1m
1O"
1N"
0t
0w
1q
0s
1t
1w
0r
1x
0u
1y
0x
1u
0y
#260000
0!
0=
0l
0]
0m
#264900
1!
1=
1l
1]
1m
0O"
0q
1s
0t
0w
1r
1x
0u
1y
#270000
0!
0=
0l
0]
0m
#274900
1!
1=
1l
1]
1m
1O"
0N"
1M"
0x
1z
1t
1w
1q
0s
0t
0r
1x
0z
1u
0{
0}
0y
0~
1"!
0|
1{
1}
1y
0u
1~
0"!
1|
1#!
0!!
1$!
0#!
1!!
0$!
#280000
0!
0=
0l
0]
0m
#284900
1!
1=
1l
1]
1m
0O"
0q
1s
1t
1r
1u
#290000
0!
0=
0l
0]
0m
#294900
1!
1=
1l
1]
1m
1O"
1N"
0t
0w
1q
0s
1t
1w
0r
0x
1z
0u
0{
0}
0y
1x
0z
1u
1{
1}
1y
0~
1"!
0|
1#!
0!!
1~
0"!
1|
0#!
1!!
1$!
0$!
#300000
0!
1+
0=
1F
1k
0l
0]
1!"
1b
0m
1N
13
#304900
1!
1=
1l
1]
1m
0O"
0q
1s
0t
0w
1r
0x
1z
0u
0{
0}
0y
0~
1"!
0|
1#!
0!!
1$!
#310000
0!
0=
0l
0]
0m
#314900
1!
1=
1l
1]
1m
1O"
0N"
0M"
0L"
0K"
1J"
0#!
0%!
0v!
1~
0"!
1{
1}
1x
0z
1t
1w
1t!
1q
0s
0t
0r
1v!
0x
1u
0{
1y
0~
1|
1#!
1%!
1!!
0|!
1&!
0$!
1'!
1r
0v
1}!
0&!
1$!
0!!
0|
0y
1|!
0u
0r
1v
0}!
0'!
#320000
0!
0=
0l
0]
0m
#324900
1!
1=
1l
1]
1m
0O"
0q
1s
1t
1r
1u
#330000
0!
0=
0l
0]
0m
#334900
1!
1=
1l
1]
1m
1O"
1N"
0t
0w
1q
0s
1t
1w
0r
1x
0u
1y
0x
1u
0y
#340000
0!
0=
0l
0]
0m
#344900
1!
1=
1l
1]
1m
0O"
0q
1s
0t
0w
1r
1x
0u
1y
#350000
0!
0=
0l
0]
0m
#354900
1!
1=
1l
1]
1m
1O"
0N"
1M"
0x
1z
1t
1w
1q
0s
0t
0r
1x
0z
1u
1{
0y
1|
0{
1y
0u
0|
#360000
0!
0=
0l
0]
0m
#364900
1!
1=
1l
1]
1m
0O"
0q
1s
1t
1r
1u
#370000
0!
0=
0l
0]
0m
#374900
1!
1=
1l
1]
1m
1O"
1N"
0t
0w
1q
0s
1t
1w
0r
0x
1z
0u
1{
0y
1x
0z
1u
0{
1y
1|
0|
#380000
0!
0=
0l
0]
0m
#384900
1!
1=
1l
1]
1m
0O"
0q
1s
0t
0w
1r
0x
1z
0u
1{
0y
1|
#390000
0!
0=
0l
0]
0m
#394900
1!
1=
1l
1]
1m
1O"
0N"
0M"
1L"
0{
0}
1x
0z
1t
1w
1q
0s
0t
0r
0x
1u
1{
1}
1y
1~
0|
1!!
0~
1|
0y
0u
0!!
#400000
0!
0+
0*
1)
0=
0F
0E
1D
1$"
0""
0k
0l
0]
0!"
0#"
1%"
1d
0c
0b
0m
1L
0M
0N
03
02
11
#404900
1!
1=
1l
1]
1m
0O"
0q
1s
1t
1r
1u
#410000
0!
0=
0l
0]
0m
#414900
1!
1=
1l
1]
1m
1O"
1N"
0t
0w
1q
0s
1t
1w
0r
1x
0u
1y
0x
1u
0y
#420000
0!
0=
0l
0]
0m
#424900
1!
1=
1l
1]
1m
0O"
0q
1s
0t
0w
1r
1x
0u
1y
#430000
0!
0=
0l
0]
0m
#434900
1!
1=
1l
1]
1m
1O"
0N"
1M"
0x
1z
1t
1w
1q
0s
0t
0r
1x
0z
1u
0{
0}
0y
1~
0|
1{
1}
1y
0u
0~
1|
1!!
0!!
#440000
0!
0=
0l
0]
0m
#444900
1!
1=
1l
1]
1m
0O"
0q
1s
1t
1r
1u
#450000
0!
0=
0l
0]
0m
#454900
1!
1=
1l
1]
1m
1O"
1N"
0t
0w
1q
0s
1t
1w
0r
0x
1z
0u
0{
0}
0y
1x
0z
1u
1{
1}
1y
1~
0|
1!!
0~
1|
0!!
#460000
0!
0=
0l
0]
0m
#464900
1!
1=
1l
1]
1m
0O"
0q
1s
0t
0w
1r
0x
1z
0u
0{
0}
0y
1~
0|
1!!
#470000
0!
0=
0l
0]
0m
#474900
1!
1=
1l
1]
1m
1O"
0N"
0M"
0L"
1K"
0~
1"!
1{
1}
1x
0z
1t
1w
1q
0s
0t
0r
0x
1u
0{
1y
1~
0"!
1|
0#!
0%!
0!!
1&!
0$!
1#!
1%!
1!!
0|
0y
0u
0&!
1$!
1'!
0'!
#480000
0!
0=
0l
0]
0m
#484900
1!
1=
1l
1]
1m
0O"
0q
1s
1t
1r
1u
#490000
0!
0=
0l
0]
0m
#494900
1!
1=
1l
1]
1m
1O"
1N"
0t
0w
0t!
1q
0s
1t
1w
0r
0v!
1x
0u
1y
0|!
0x
1u
0y
1r
0v
1}!
#500000
0!
1+
0=
1F
1k
0l
0]
1!"
1b
0m
1N
13
#504900
1!
1=
1l
1]
1m
1~!
0!"
0%"
0d
0b
0L
0N
03
01
#510000
0!
0=
0l
0]
0m
#514900
1!
1=
1l
1]
1m
#520000
0!
0=
0l
0]
0m
#524900
1!
1=
1l
1]
1m
#530000
0!
0=
0l
0]
0m
#534900
1!
1=
1l
1]
1m
#540000
0!
0=
0l
0]
0m
#544900
1!
1=
1l
1]
1m
#550000
0!
0=
0l
0]
0m
#554900
1!
1=
1l
1]
1m
#560000
0!
0=
0l
0]
0m
#564900
1!
1=
1l
1]
1m
#570000
0!
0=
0l
0]
0m
#574900
1!
1=
1l
1]
1m
#580000
0!
0=
0l
0]
0m
#584900
1!
1=
1l
1]
1m
#590000
0!
0=
0l
0]
0m
#594900
1!
1=
1l
1]
1m
#600000
0!
0+
1*
0=
0F
1E
1""
0k
0l
0]
0m
#604900
1!
1=
1l
1]
1m
#610000
0!
0=
0l
0]
0m
#614900
1!
1=
1l
1]
1m
#620000
0!
0=
0l
0]
0m
#624900
1!
1=
1l
1]
1m
#630000
0!
0=
0l
0]
0m
#634900
1!
1=
1l
1]
1m
#640000
0!
0=
0l
0]
0m
#644900
1!
1=
1l
1]
1m
#650000
0!
0=
0l
0]
0m
#654900
1!
1=
1l
1]
1m
#660000
0!
0=
0l
0]
0m
#664900
1!
1=
1l
1]
1m
#670000
0!
0=
0l
0]
0m
#674900
1!
1=
1l
1]
1m
#680000
0!
0=
0l
0]
0m
#684900
1!
1=
1l
1]
1m
#690000
0!
0=
0l
0]
0m
#694900
1!
1=
1l
1]
1m
#700000
0!
1+
0=
1F
1k
0l
0]
0m
#704900
1!
1=
1l
1]
1m
#710000
0!
0=
0l
0]
0m
#714900
1!
1=
1l
1]
1m
#720000
0!
0=
0l
0]
0m
#724900
1!
1=
1l
1]
1m
#730000
0!
0=
0l
0]
0m
#734900
1!
1=
1l
1]
1m
#740000
0!
0=
0l
0]
0m
#744900
1!
1=
1l
1]
1m
#750000
0!
0=
0l
0]
0m
#754900
1!
1=
1l
1]
1m
#760000
0!
0=
0l
0]
0m
#764900
1!
1=
1l
1]
1m
#770000
0!
0=
0l
0]
0m
#774900
1!
1=
1l
1]
1m
#780000
0!
0=
0l
0]
0m
#784900
1!
1=
1l
1]
1m
#790000
0!
0=
0l
0]
0m
#794900
1!
1=
1l
1]
1m
#800000
0!
0+
0*
0)
1(
0=
0F
0E
0D
1C
1&"
0$"
0""
0k
0l
0]
0m
#804900
1!
1=
1l
1]
1m
#810000
0!
0=
0l
0]
0m
#814900
1!
1=
1l
1]
1m
#820000
0!
0=
0l
0]
0m
#824900
1!
1=
1l
1]
1m
#830000
0!
0=
0l
0]
0m
#834900
1!
1=
1l
1]
1m
#840000
0!
0=
0l
0]
0m
#844900
1!
1=
1l
1]
1m
#850000
0!
0=
0l
0]
0m
#854900
1!
1=
1l
1]
1m
#860000
0!
0=
0l
0]
0m
#864900
1!
1=
1l
1]
1m
#870000
0!
0=
0l
0]
0m
#874900
1!
1=
1l
1]
1m
#880000
0!
0=
0l
0]
0m
#884900
1!
1=
1l
1]
1m
#890000
0!
0=
0l
0]
0m
#894900
1!
1=
1l
1]
1m
#900000
0!
1+
0=
1F
1k
0l
0]
0m
#904900
1!
1=
1l
1]
1m
#910000
0!
0=
0l
0]
0m
#914900
1!
1=
1l
1]
1m
#920000
0!
0=
0l
0]
0m
#924900
1!
1=
1l
1]
1m
#930000
0!
0=
0l
0]
0m
#934900
1!
1=
1l
1]
1m
#940000
0!
0=
0l
0]
0m
#944900
1!
1=
1l
1]
1m
#950000
0!
0=
0l
0]
0m
#954900
1!
1=
1l
1]
1m
#960000
0!
0=
0l
0]
0m
#964900
1!
1=
1l
1]
1m
#970000
0!
0=
0l
0]
0m
#974900
1!
1=
1l
1]
1m
#980000
0!
0=
0l
0]
0m
#984900
1!
1=
1l
1]
1m
#990000
0!
0=
0l
0]
0m
#994900
1!
1=
1l
1]
1m
