components/servomotor v0.4 angle51 60k clock/simulation/qsim/servo.msim.vcd
$comment
	File created using the following command:
		vcd file servo.msim.vcd -direction
$end
$date
	Tue Jun 04 19:25:11 2024
$end
$version
	ModelSim Version 2020.1
$end
$timescale
	1ps
$end

$scope module svmot_angle_cntrl_vhd_vec_tst $end
$var wire 1 ! CLK2 $end
$var wire 1 " PWM_SVmot $end
$var wire 1 # Svmot_anglev [3] $end
$var wire 1 $ Svmot_anglev [2] $end
$var wire 1 % Svmot_anglev [1] $end
$var wire 1 & Svmot_anglev [0] $end

$scope module i1 $end
$var wire 1 ' gnd $end
$var wire 1 ( vcc $end
$var wire 1 ) unknown $end
$var wire 1 * devoe $end
$var wire 1 + devclrn $end
$var wire 1 , devpor $end
$var wire 1 - ww_devoe $end
$var wire 1 . ww_devclrn $end
$var wire 1 / ww_devpor $end
$var wire 1 0 ww_CLK2 $end
$var wire 1 1 ww_Svmot_anglev [3] $end
$var wire 1 2 ww_Svmot_anglev [2] $end
$var wire 1 3 ww_Svmot_anglev [1] $end
$var wire 1 4 ww_Svmot_anglev [0] $end
$var wire 1 5 ww_PWM_SVmot $end
$var wire 1 6 \~QUARTUS_CREATED_ADC1~_CHSEL_bus\ [4] $end
$var wire 1 7 \~QUARTUS_CREATED_ADC1~_CHSEL_bus\ [3] $end
$var wire 1 8 \~QUARTUS_CREATED_ADC1~_CHSEL_bus\ [2] $end
$var wire 1 9 \~QUARTUS_CREATED_ADC1~_CHSEL_bus\ [1] $end
$var wire 1 : \~QUARTUS_CREATED_ADC1~_CHSEL_bus\ [0] $end
$var wire 1 ; \~QUARTUS_CREATED_ADC2~_CHSEL_bus\ [4] $end
$var wire 1 < \~QUARTUS_CREATED_ADC2~_CHSEL_bus\ [3] $end
$var wire 1 = \~QUARTUS_CREATED_ADC2~_CHSEL_bus\ [2] $end
$var wire 1 > \~QUARTUS_CREATED_ADC2~_CHSEL_bus\ [1] $end
$var wire 1 ? \~QUARTUS_CREATED_ADC2~_CHSEL_bus\ [0] $end
$var wire 1 @ \CLK2~inputclkctrl_INCLK_bus\ [3] $end
$var wire 1 A \CLK2~inputclkctrl_INCLK_bus\ [2] $end
$var wire 1 B \CLK2~inputclkctrl_INCLK_bus\ [1] $end
$var wire 1 C \CLK2~inputclkctrl_INCLK_bus\ [0] $end
$var wire 1 D \~QUARTUS_CREATED_GND~I_combout\ $end
$var wire 1 E \~QUARTUS_CREATED_UNVM~~busy\ $end
$var wire 1 F \~QUARTUS_CREATED_ADC1~~eoc\ $end
$var wire 1 G \~QUARTUS_CREATED_ADC2~~eoc\ $end
$var wire 1 H \PWM_SVmot~output_o\ $end
$var wire 1 I \CLK2~input_o\ $end
$var wire 1 J \CLK2~inputclkctrl_outclk\ $end
$var wire 1 K \Add0~0_combout\ $end
$var wire 1 L \Add0~1\ $end
$var wire 1 M \Add0~2_combout\ $end
$var wire 1 N \Add0~3\ $end
$var wire 1 O \Add0~4_combout\ $end
$var wire 1 P \Add0~5\ $end
$var wire 1 Q \Add0~6_combout\ $end
$var wire 1 R \Add0~7\ $end
$var wire 1 S \Add0~8_combout\ $end
$var wire 1 T \counter~1_combout\ $end
$var wire 1 U \Equal0~1_combout\ $end
$var wire 1 V \Add0~9\ $end
$var wire 1 W \Add0~10_combout\ $end
$var wire 1 X \counter~2_combout\ $end
$var wire 1 Y \Add0~11\ $end
$var wire 1 Z \Add0~12_combout\ $end
$var wire 1 [ \Add0~13\ $end
$var wire 1 \ \Add0~15\ $end
$var wire 1 ] \Add0~16_combout\ $end
$var wire 1 ^ \Add0~17\ $end
$var wire 1 _ \Add0~18_combout\ $end
$var wire 1 ` \Equal0~0_combout\ $end
$var wire 1 a \Add0~14_combout\ $end
$var wire 1 b \counter~3_combout\ $end
$var wire 1 c \Equal0~2_combout\ $end
$var wire 1 d \Add0~19\ $end
$var wire 1 e \Add0~20_combout\ $end
$var wire 1 f \counter~0_combout\ $end
$var wire 1 g \PWM_SVmot~0_combout\ $end
$var wire 1 h \LessThan2~0_combout\ $end
$var wire 1 i \LessThan2~1_combout\ $end
$var wire 1 j \LessThan2~2_combout\ $end
$var wire 1 k \Svmot_anglev[0]~input_o\ $end
$var wire 1 l \Svmot_anglev[3]~input_o\ $end
$var wire 1 m \Svmot_anglev[1]~input_o\ $end
$var wire 1 n \Svmot_anglev[2]~input_o\ $end
$var wire 1 o \process_0~0_combout\ $end
$var wire 1 p \LessThan3~1_combout\ $end
$var wire 1 q \LessThan3~0_combout\ $end
$var wire 1 r \PWM_SVmot~8_combout\ $end
$var wire 1 s \flag~0_combout\ $end
$var wire 1 t \flag~q\ $end
$var wire 1 u \innercounter~2_combout\ $end
$var wire 1 v \innercounter[3]~1_combout\ $end
$var wire 1 w \innercounter~3_combout\ $end
$var wire 1 x \innercounter~4_combout\ $end
$var wire 1 y \innercounter~0_combout\ $end
$var wire 1 z \PWM_SVmot~4_combout\ $end
$var wire 1 { \PWM_SVmot~5_combout\ $end
$var wire 1 | \PWM_SVmot~6_combout\ $end
$var wire 1 } \PWM_SVmot~7_combout\ $end
$var wire 1 ~ \PWM_SVmot~1_combout\ $end
$var wire 1 !! \PWM_SVmot~2_combout\ $end
$var wire 1 "! \PWM_SVmot~3_combout\ $end
$var wire 1 #! \PWM_SVmot~9_combout\ $end
$var wire 1 $! \PWM_SVmot~reg0_q\ $end
$var wire 1 %! counter [10] $end
$var wire 1 &! counter [9] $end
$var wire 1 '! counter [8] $end
$var wire 1 (! counter [7] $end
$var wire 1 )! counter [6] $end
$var wire 1 *! counter [5] $end
$var wire 1 +! counter [4] $end
$var wire 1 ,! counter [3] $end
$var wire 1 -! counter [2] $end
$var wire 1 .! counter [1] $end
$var wire 1 /! counter [0] $end
$var wire 1 0! innercounter [3] $end
$var wire 1 1! innercounter [2] $end
$var wire 1 2! innercounter [1] $end
$var wire 1 3! innercounter [0] $end
$upscope $end
$upscope $end
$enddefinitions $end
#0
$dumpvars
0!
0"
0'
1(
x)
1*
1+
1,
1-
1.
1/
00
05
0D
zE
zF
zG
0H
0I
0J
1K
0L
0M
1N
0O
0P
0Q
1R
0S
0T
0U
0V
0W
0X
1Y
0Z
0[
1\
0]
0^
0_
0`
0a
0b
0c
1d
0e
0f
1g
0h
0i
0j
1k
1l
0m
0n
0o
1p
1q
1r
0s
0t
1u
0v
0w
0x
0y
1z
1{
1|
1}
1~
1!!
1"!
1#!
0$!
1#
0$
0%
1&
11
02
03
14
0%!
0&!
0'!
0(!
0)!
0*!
0+!
0,!
0-!
0.!
0/!
00!
01!
02!
03!
1@
1A
1B
0C
06
07
08
09
0:
0;
0<
0=
0>
0?
$end
#2500
1!
10
1I
1C
1J
1/!
1$!
1H
0K
1L
0q
15
1M
1"
#5000
0!
00
0I
0C
0J
#7500
1!
10
1I
1C
1J
0/!
1.!
0M
0N
1K
0L
1M
1N
1O
0O
#10000
0!
00
0I
0C
0J
#12500
1!
10
1I
1C
1J
1/!
0K
1L
1`
0M
0N
1O
#15000
0!
00
0I
0C
0J
#17500
1!
10
1I
1C
1J
0/!
0.!
1-!
0O
1P
1M
1N
1K
0L
0`
0M
1O
0P
1Q
0Q
#20000
0!
00
0I
0C
0J
#22500
1!
10
1I
1C
1J
1/!
0K
1L
1M
#25000
0!
00
0I
0C
0J
#27500
1!
10
1I
1C
1J
0/!
1.!
0M
0N
1K
0L
1M
1N
0O
1P
1Q
1O
0P
0Q
#30000
0!
00
0I
0C
0J
#32500
1!
10
1I
1C
1J
1/!
0K
1L
1`
0M
0N
0O
1P
1Q
#35000
0!
00
0I
0C
0J
#37500
1!
10
1I
1C
1J
0/!
0.!
0-!
1,!
0Q
0R
1O
0P
1M
1N
1K
0L
0`
1q
0M
0O
1Q
1R
1S
1T
0S
0T
#40000
0!
00
0I
0C
0J
#42500
1!
10
1I
1C
1J
1/!
0K
1L
0q
1M
#45000
0!
00
0I
0C
0J
#47500
1!
10
1I
1C
1J
0/!
1.!
0M
0N
1K
0L
1M
1N
1O
0O
#50000
0!
00
0I
0C
0J
#52500
1!
10
1I
1C
1J
1/!
0K
1L
1`
1i
0M
0N
1O
#55000
0!
00
0I
0C
0J
#57500
1!
10
1I
1C
1J
0/!
0.!
1-!
0O
1P
1M
1N
1K
0L
0`
0M
1O
0P
0Q
0R
1S
1Q
1R
0S
1T
0T
#60000
0!
00
0I
0C
0J
#62500
1!
10
1I
1C
1J
1/!
0K
1L
1M
#65000
0!
00
0I
0C
0J
#67500
1!
10
1I
1C
1J
0/!
1.!
0M
0N
1K
0L
1M
1N
0O
1P
0Q
0R
1O
0P
1Q
1R
1S
1T
0S
0T
#70000
0!
00
0I
0C
0J
#72500
1!
10
1I
1C
1J
1/!
0K
1L
1`
0M
0N
0O
1P
0Q
0R
1S
1T
#75000
0!
00
0I
0C
0J
#77500
1!
10
1I
1C
1J
0/!
0.!
0-!
0,!
1+!
0S
1V
1Q
1R
1O
0P
1M
1N
1K
0L
0`
0i
0M
0O
0Q
1S
0V
1W
0T
1X
0W
1T
0X
#80000
0!
00
0I
0C
0J
#82500
1!
10
1I
1C
1J
1/!
0K
1L
1M
#85000
0!
00
0I
0C
0J
#87500
1!
10
1I
1C
1J
0/!
1.!
0M
0N
1K
0L
1M
1N
1O
0O
#90000
0!
00
0I
0C
0J
#92500
1!
10
1I
1C
1J
1/!
0K
1L
1`
0M
0N
1O
#95000
0!
00
0I
0C
0J
#97500
1!
10
1I
1C
1J
0/!
0.!
1-!
0O
1P
1M
1N
1K
0L
0`
0M
1O
0P
1Q
0Q
#100000
0!
00
0I
0C
0J
#102500
1!
10
1I
1C
1J
1/!
0K
1L
1M
#105000
0!
00
0I
0C
0J
#107500
1!
10
1I
1C
1J
0/!
1.!
0M
0N
1K
0L
1M
1N
0O
1P
1Q
1O
0P
0Q
#110000
0!
00
0I
0C
0J
#112500
1!
10
1I
1C
1J
1/!
0K
1L
1`
0M
0N
0O
1P
1Q
#115000
0!
00
0I
0C
0J
#117500
1!
10
1I
1C
1J
0/!
0.!
0-!
1,!
0Q
0R
1O
0P
1M
1N
1K
0L
0`
0M
0O
1Q
1R
0S
1V
1W
0T
1S
0V
0W
1T
1X
0X
#120000
0!
00
0I
0C
0J
#122500
1!
10
1I
1C
1J
1/!
0K
1L
1M
#125000
0!
00
0I
0C
0J
#127500
1!
10
1I
1C
1J
0/!
1.!
0M
0N
0~
1K
0L
1M
1N
1O
0O
#130000
0!
00
0I
0C
0J
#132500
1!
10
1I
1C
1J
1/!
0K
1L
1`
1i
0M
0N
1O
#135000
0!
00
0I
0C
0J
#137500
1!
10
1I
1C
1J
0/!
0.!
1-!
0O
1P
1M
1N
1K
0L
0`
0M
1O
0P
0Q
0R
0S
1V
1Q
1R
1S
0V
1W
0T
1X
0W
1T
0X
#140000
0!
00
0I
0C
0J
#142500
1!
10
1I
1C
1J
1/!
0K
1L
1M
#145000
0!
00
0I
0C
0J
#147500
1!
10
1I
1C
1J
0/!
1.!
0M
0N
1K
0L
1M
1N
0O
1P
0Q
0R
1O
0P
1Q
1R
0S
1V
1W
0T
1S
0V
0W
1T
1X
0X
#150000
0!
00
0I
0C
0J
#152500
1!
10
1I
1C
1J
1/!
0K
1L
1`
0M
0N
0O
1P
0Q
0R
0S
1V
1W
0T
1X
#155000
0!
00
0I
0C
0J
#157500
1!
10
1I
1C
1J
0/!
0.!
0-!
0,!
0+!
1*!
0W
0Y
1S
0V
1Q
1R
1O
0P
1M
1N
1~
1K
0L
0`
0i
1q
0M
0O
0Q
0S
1W
1Y
1T
1Z
0X
0Z
1X
0T
#160000
0!
00
0I
0C
0J
#162500
1!
10
1I
1C
1J
1/!
0K
1L
0q
1M
#165000
0!
00
0I
0C
0J
#167500
1!
10
1I
1C
1J
0/!
1.!
0M
0N
1K
0L
1M
1N
1O
0O
#170000
0!
00
0I
0C
0J
#172500
1!
10
1I
1C
1J
1/!
0K
1L
1`
0M
0N
1O
#175000
0!
00
0I
0C
0J
#177500
1!
10
1I
1C
1J
0/!
0.!
1-!
0O
1P
1M
1N
1K
0L
0`
0M
1O
0P
1Q
0Q
#180000
0!
00
0I
0C
0J
#182500
1!
10
1I
1C
1J
1/!
0K
1L
1M
#185000
0!
00
0I
0C
0J
#187500
1!
10
1I
1C
1J
0/!
1.!
0M
0N
1K
0L
1M
1N
0O
1P
1Q
1O
0P
0Q
#190000
0!
00
0I
0C
0J
#192500
1!
10
1I
1C
1J
1/!
0K
1L
1`
0M
0N
0O
1P
1Q
#195000
0!
00
0I
0C
0J
#197500
1!
10
1I
1C
1J
0/!
0.!
0-!
1,!
0Q
0R
1O
0P
1M
1N
1K
0L
0`
1q
0M
0O
1Q
1R
1S
1T
0S
0T
#200000
0!
00
0I
0C
0J
#202500
1!
10
1I
1C
1J
1/!
0K
1L
0q
1M
#205000
0!
00
0I
0C
0J
#207500
1!
10
1I
1C
1J
0/!
1.!
0M
0N
1K
0L
1M
1N
1O
0O
#210000
0!
00
0I
0C
0J
#212500
1!
10
1I
1C
1J
1/!
0K
1L
1`
1i
0M
0N
1O
#215000
0!
00
0I
0C
0J
#217500
1!
10
1I
1C
1J
0/!
0.!
1-!
0O
1P
1U
1M
1N
1K
0L
0`
0M
1O
0P
0Q
0R
1S
1Q
1R
0S
1T
0T
#220000
0!
00
0I
0C
0J
#222500
1!
10
1I
1C
1J
1/!
0K
1L
1M
#225000
0!
00
0I
0C
0J
#227500
1!
10
1I
1C
1J
0/!
1.!
0M
0N
1K
0L
1M
1N
0O
1P
0Q
0R
1O
0P
1Q
1R
1S
1T
0S
0T
#230000
0!
00
0I
0C
0J
#232500
1!
10
1I
1C
1J
1/!
0K
1L
1`
0M
0N
0O
1P
0Q
0R
1S
1T
#235000
0!
00
0I
0C
0J
#237500
1!
10
1I
1C
1J
0/!
0.!
0-!
0,!
1+!
0S
1V
1Q
1R
1O
0P
0U
1M
1N
1K
0L
0`
0i
0M
0O
0Q
1S
0V
0W
0Y
0T
1Z
0X
1W
1Y
1T
0Z
1X
#240000
0!
00
0I
0C
0J
#242500
1!
10
1I
1C
1J
1/!
0K
1L
1M
#245000
0!
00
0I
0C
0J
#247500
1!
10
1I
1C
1J
0/!
1.!
0M
0N
1K
0L
1M
1N
1O
0O
#250000
0!
00
0I
0C
0J
#252500
1!
10
1I
1C
1J
1/!
0K
1L
1`
0M
0N
1O
#255000
0!
00
0I
0C
0J
#257500
1!
10
1I
1C
1J
0/!
0.!
1-!
0O
1P
1M
1N
1K
0L
0`
0M
1O
0P
1Q
0Q
#260000
0!
00
0I
0C
0J
#262500
1!
10
1I
1C
1J
1/!
0K
1L
1M
#265000
0!
00
0I
0C
0J
#267500
1!
10
1I
1C
1J
0/!
1.!
0M
0N
1K
0L
1M
1N
0O
1P
1Q
1O
0P
0Q
#270000
0!
00
0I
0C
0J
#272500
1!
10
1I
1C
1J
1/!
0K
1L
1`
0M
0N
0O
1P
1Q
#275000
0!
00
0I
0C
0J
#277500
1!
10
1I
1C
1J
0/!
0.!
0-!
1,!
0Q
0R
1O
0P
1M
1N
1K
0L
0`
0M
0O
1Q
1R
0S
1V
0W
0Y
0T
1S
0V
1W
1Y
1T
1Z
0X
0Z
1X
#280000
0!
00
0I
0C
0J
#282500
1!
10
1I
1C
1J
1/!
0K
1L
1M
#285000
0!
00
0I
0C
0J
#287500
1!
10
1I
1C
1J
0/!
1.!
0M
0N
0~
1K
0L
1M
1N
1O
0O
#290000
0!
00
0I
0C
0J
#292500
1!
10
1I
1C
1J
1/!
0K
1L
1`
1i
0M
0N
1O
#295000
0!
00
0I
0C
0J
#297500
1!
10
1I
1C
1J
0/!
0.!
1-!
0O
1P
1M
1N
1K
0L
0`
0M
1O
0P
0Q
0R
0S
1V
1Q
1R
1S
0V
0W
0Y
0T
1Z
0X
1W
1Y
1T
0Z
1X
#300000
0!
00
0I
0C
0J
#302500
1!
10
1I
1C
1J
1/!
0K
1L
1M
#305000
0!
00
0I
0C
0J
#307500
1!
10
1I
1C
1J
0/!
1.!
0M
0N
1K
0L
1M
1N
0O
1P
0Q
0R
1O
0P
1Q
1R
0S
1V
0W
0Y
0T
1S
0V
1W
1Y
1T
1Z
0X
0Z
1X
#310000
0!
00
0I
0C
0J
#312500
1!
10
1I
1C
1J
1/!
0K
1L
1`
0M
0N
0O
1P
0Q
0R
0S
1V
0W
0Y
0T
1Z
0X
#315000
0!
00
0I
0C
0J
#317500
1!
10
1I
1C
1J
0/!
0.!
0-!
0,!
0+!
0*!
1)!
0Z
1[
1j
1W
1Y
0!!
1S
0V
1Q
1R
1O
0P
1M
1N
1~
1K
0L
0`
0i
1q
0j
0M
1!!
0O
0Q
0S
0W
1T
1Z
0[
1X
1s
1v
0"!
1a
1b
0a
0X
0T
0s
0v
1"!
0b
#320000
0!
00
0I
0C
0J
#322500
1!
10
1I
1C
1J
1/!
0K
1L
0q
1M
#325000
0!
00
0I
0C
0J
#327500
1!
10
1I
1C
1J
0/!
1.!
0M
0N
1K
0L
1M
1N
1O
0O
#330000
0!
00
0I
0C
0J
#332500
1!
10
1I
1C
1J
1/!
0K
1L
1`
0M
0N
1O
#335000
0!
00
0I
0C
0J
#337500
1!
10
1I
1C
1J
0/!
0.!
1-!
0O
1P
1M
1N
1K
0L
0`
0M
1O
0P
1Q
0Q
#340000
0!
00
0I
0C
0J
#342500
1!
10
1I
1C
1J
1/!
0K
1L
1M
#345000
0!
00
0I
0C
0J
#347500
1!
10
1I
1C
1J
0/!
1.!
0M
0N
1K
0L
1M
1N
0O
1P
1Q
1O
0P
0Q
#350000
0!
00
0I
0C
0J
#352500
1!
10
1I
1C
1J
1/!
0K
1L
1`
0M
0N
0O
1P
1Q
#355000
0!
00
0I
0C
0J
#357500
1!
10
1I
1C
1J
0/!
0.!
0-!
1,!
0Q
0R
1O
0P
1M
1N
1K
0L
0`
1q
0M
0O
1Q
1R
1S
1T
0S
0T
#360000
0!
00
0I
0C
0J
#362500
1!
10
1I
1C
1J
1/!
0K
1L
0q
1M
#365000
0!
00
0I
0C
0J
#367500
1!
10
1I
1C
1J
0/!
1.!
0M
0N
1K
0L
1M
1N
1O
0O
#370000
0!
00
0I
0C
0J
#372500
1!
10
1I
1C
1J
1/!
0K
1L
1`
1i
1j
0M
0N
1O
1s
1v
0"!
#375000
0!
00
0I
0C
0J
#377500
1!
10
1I
1C
1J
0/!
0.!
1-!
1t
13!
0u
1w
0z
0s
0v
0O
1P
1M
1N
1K
0L
0`
0M
1O
0P
0Q
0R
0{
1S
1Q
1R
0S
1T
0T
#380000
0!
00
0I
0C
0J
#382500
1!
10
1I
1C
1J
1/!
0t
1s
1v
0K
1L
1M
#385000
0!
00
0I
0C
0J
#387500
1!
10
1I
1C
1J
0/!
1.!
1t
03!
12!
1u
0s
0v
0M
0N
1K
0L
1M
1N
0O
1P
0Q
0R
1O
0P
1Q
1R
1S
1T
0S
0T
#390000
0!
00
0I
0C
0J
#392500
1!
10
1I
1C
1J
1/!
0t
1s
1v
0K
1L
1`
0M
0N
0O
1P
0Q
0R
1S
1T
#395000
0!
00
0I
0C
0J
#397500
1!
10
1I
1C
1J
0/!
0.!
0-!
0,!
1+!
1t
13!
0u
0w
1x
0s
0v
0S
1V
1h
1Q
1R
1O
0P
1M
1N
1K
0L
0`
0i
0M
0O
0Q
1S
0V
1W
0T
1X
0W
1T
0X
#400000
0!
00
0I
0C
0J
#402500
1!
10
1I
1C
1J
1/!
0t
1s
1v
0K
1L
1M
#405000
0!
00
0I
0C
0J
#407500
1!
10
1I
1C
1J
0/!
1.!
1t
03!
02!
11!
1u
1z
0s
0v
0M
0N
1K
0L
1M
1N
1O
0O
#410000
0!
00
0I
0C
0J
#412500
1!
10
1I
1C
1J
1/!
0t
1s
1v
0K
1L
1`
0M
0N
1O
#415000
0!
00
0I
0C
0J
#417500
1!
10
1I
1C
1J
0/!
0.!
1-!
1t
13!
0u
1w
0z
0s
0v
0O
1P
1M
1N
1K
0L
0`
0M
1O
0P
1Q
0Q
#420000
0!
00
0I
0C
0J
#422500
1!
10
1I
1C
1J
1/!
0t
1s
1v
0K
1L
1M
#425000
0!
00
0I
0C
0J
#427500
1!
10
1I
1C
1J
0/!
1.!
1t
03!
12!
1u
0s
0v
0M
0N
1K
0L
1M
1N
0O
1P
1Q
1O
0P
0Q
#430000
0!
00
0I
0C
0J
#432500
1!
10
1I
1C
1J
1/!
0t
1s
1v
0K
1L
1`
0M
0N
0O
1P
1Q
#435000
0!
00
0I
0C
0J
#437500
1!
10
1I
1C
1J
0/!
0.!
0-!
1,!
1t
13!
0u
0w
0x
1y
0s
0v
0Q
0R
1O
0P
1M
1N
1K
0L
0`
0M
0O
1Q
1R
0S
1V
1W
0T
1S
0V
0W
1T
1X
0X
#440000
0!
00
0I
0C
0J
#442500
1!
10
1I
1C
1J
1/!
0t
1s
1v
0K
1L
1M
#445000
0!
00
0I
0C
0J
#447500
1!
10
1I
1C
1J
0/!
1.!
1t
03!
02!
01!
10!
0|
1u
1z
0s
0v
0M
0N
0~
1K
0L
1M
1N
0!!
1O
1{
1|
0O
#450000
0!
00
0I
0C
0J
#452500
1!
10
1I
1C
1J
1/!
0t
1s
1v
0K
1L
1`
1i
0M
0N
1O
#455000
0!
00
0I
0C
0J
#457500
1!
10
1I
1C
1J
0/!
0.!
1-!
1t
13!
0u
1w
0z
0s
0v
0O
1P
1M
1N
1K
0L
0`
0M
1O
0P
0Q
0R
0{
0|
0S
1V
1Q
1R
1S
0V
1W
0T
1X
0W
1T
0X
#460000
0!
00
0I
0C
0J
#462500
1!
10
1I
1C
1J
1/!
0t
1s
1v
0}
0K
1L
1M
0#!
#465000
0!
00
0I
0C
0J
#467500
1!
10
1I
1C
1J
0/!
1.!
1t
03!
12!
0$!
0H
1u
0s
0v
0M
0N
1K
0L
05
1M
1N
0O
1P
0"
0Q
0R
1O
0P
1Q
1R
0S
1V
1W
0T
1S
0V
0W
1T
1X
0X
#470000
0!
00
0I
0C
0J
#472500
1!
10
1I
1C
1J
1/!
0t
1s
1v
0K
1L
1`
0M
0N
0O
1P
0Q
0R
0S
1V
1W
0T
1X
#475000
0!
00
0I
0C
0J
#477500
1!
10
1I
1C
1J
0/!
0.!
0-!
0,!
0+!
1*!
1t
13!
0u
0w
1x
0s
0v
0W
0Y
1S
0V
1Q
1R
1O
0P
1M
1N
1~
1K
0L
0`
0i
1q
0M
0O
0Q
0S
1W
1Y
1T
0Z
1[
0X
1a
1Z
0[
1X
0T
0a
1b
0b
#480000
0!
00
0I
0C
0J
#482500
1!
10
1I
1C
1J
1/!
0t
1s
1v
0K
1L
0q
1M
#485000
0!
00
0I
0C
0J
#487500
1!
10
1I
1C
1J
0/!
1.!
1t
03!
02!
11!
1u
1z
0s
0v
0M
0N
1K
0L
1M
1N
1O
0O
#490000
0!
00
0I
0C
0J
#492500
1!
10
1I
1C
1J
1/!
0t
1s
1v
0K
1L
1`
0M
0N
1O
#495000
0!
00
0I
0C
0J
#497500
1!
10
1I
1C
1J
0/!
0.!
1-!
1t
13!
0u
1w
0z
0s
0v
0O
1P
1M
1N
1K
0L
0`
0M
1O
0P
1Q
0Q
#500000
0!
00
0I
0C
0J
#502500
1!
10
1I
1C
1J
1/!
0t
1s
1v
0K
1L
1M
#505000
0!
00
0I
0C
0J
#507500
1!
10
1I
1C
1J
0/!
1.!
1t
03!
12!
0w
0x
0y
0s
0v
0M
0N
1K
0L
1M
1N
0O
1P
1Q
1O
0P
0Q
#510000
0!
00
0I
0C
0J
#512500
1!
10
1I
1C
1J
1/!
0t
1s
1v
0K
1L
1`
0M
0N
0O
1P
1Q
#515000
0!
00
0I
0C
0J
#517500
1!
10
1I
1C
1J
0/!
0.!
0-!
1,!
1t
02!
01!
00!
1|
1u
1z
0s
0v
0Q
0R
0p
1O
0P
1M
1N
1K
0L
0`
1q
0M
0O
1Q
1R
1S
1{
1T
0S
0T
#520000
0!
00
0I
0C
0J
#522500
1!
10
1I
1C
1J
1/!
0t
1s
1v
1}
0K
1L
0q
0r
1M
1#!
0s
0v
0#!
#525000
0!
00
0I
0C
0J
#527500
1!
10
1I
1C
1J
0/!
1.!
0M
0N
1K
0L
1M
1N
1O
0O
#530000
0!
00
0I
0C
0J
#532500
1!
10
1I
1C
1J
1/!
0K
1L
1`
1i
0M
0N
1O
#535000
0!
00
0I
0C
0J
#537500
1!
10
1I
1C
1J
0/!
0.!
1-!
0O
1P
1U
1M
1N
1K
0L
0`
0M
1O
0P
0Q
0R
1S
1Q
1R
0S
1T
0T
#540000
0!
00
0I
0C
0J
#542500
1!
10
1I
1C
1J
1/!
0K
1L
1M
#545000
0!
00
0I
0C
0J
#547500
1!
10
1I
1C
1J
0/!
1.!
0M
0N
1K
0L
1M
1N
0O
1P
0Q
0R
1O
0P
1Q
1R
1S
1T
0S
0T
#550000
0!
00
0I
0C
0J
#552500
1!
10
1I
1C
1J
1/!
0K
1L
1`
0M
0N
0O
1P
0Q
0R
1S
1T
#555000
0!
00
0I
0C
0J
#557500
1!
10
1I
1C
1J
0/!
0.!
0-!
0,!
1+!
0S
1V
1Q
1R
1O
0P
0U
1M
1N
1K
0L
0`
0i
0M
0O
0Q
1S
0V
0W
0Y
0T
0Z
1[
0X
1W
1Y
1T
1Z
0[
1X
1a
1b
0a
0b
#560000
0!
00
0I
0C
0J
#562500
1!
10
1I
1C
1J
1/!
0K
1L
1M
#565000
0!
00
0I
0C
0J
#567500
1!
10
1I
1C
1J
0/!
1.!
0M
0N
1K
0L
1M
1N
1O
0O
#570000
0!
00
0I
0C
0J
#572500
1!
10
1I
1C
1J
1/!
0K
1L
1`
0M
0N
1O
#575000
0!
00
0I
0C
0J
#577500
1!
10
1I
1C
1J
0/!
0.!
1-!
0O
1P
1M
1N
1K
0L
0`
0M
1O
0P
1Q
0Q
#580000
0!
00
0I
0C
0J
#582500
1!
10
1I
1C
1J
1/!
0K
1L
1M
#585000
0!
00
0I
0C
0J
#587500
1!
10
1I
1C
1J
0/!
1.!
0M
0N
1K
0L
1M
1N
0O
1P
1Q
1O
0P
0Q
#590000
0!
00
0I
0C
0J
#592500
1!
10
1I
1C
1J
1/!
0K
1L
1`
0M
0N
0O
1P
1Q
#595000
0!
00
0I
0C
0J
#597500
1!
10
1I
1C
1J
0/!
0.!
0-!
1,!
0Q
0R
1O
0P
1M
1N
1K
0L
0`
0M
0O
1Q
1R
0S
1V
0W
0Y
0T
1S
0V
1W
1Y
1T
0Z
1[
0X
1a
1Z
0[
1X
0a
1b
0b
#600000
0!
00
0I
0C
0J
#602500
1!
10
1I
1C
1J
1/!
0K
1L
1M
#605000
0!
00
0I
0C
0J
#607500
1!
10
1I
1C
1J
0/!
1.!
0M
0N
0~
1K
0L
1M
1N
1O
0O
#610000
0!
00
0I
0C
0J
#612500
1!
10
1I
1C
1J
1/!
0K
1L
1`
1i
0M
0N
1O
#615000
0!
00
0I
0C
0J
#617500
1!
10
1I
1C
1J
0/!
0.!
1-!
0O
1P
1M
1N
1K
0L
0`
0M
1O
0P
0Q
0R
0S
1V
1Q
1R
1S
0V
0W
0Y
0T
0Z
1[
0X
1W
1Y
1T
1Z
0[
1X
1a
1b
0a
0b
#620000
0!
00
0I
0C
0J
#622500
1!
10
1I
1C
1J
1/!
0K
1L
1M
#625000
0!
00
0I
0C
0J
#627500
1!
10
1I
1C
1J
0/!
1.!
0M
0N
1K
0L
1M
1N
0O
1P
0Q
0R
1O
0P
1Q
1R
0S
1V
0W
0Y
0T
1S
0V
1W
1Y
1T
0Z
1[
0X
1a
1Z
0[
1X
0a
1b
0b
#630000
0!
00
0I
0C
0J
#632500
1!
10
1I
1C
1J
1/!
0K
1L
1`
0M
0N
0O
1P
0Q
0R
0S
1V
0W
0Y
0T
0Z
1[
0X
1a
1b
#635000
0!
00
0I
0C
0J
#637500
1!
10
1I
1C
1J
0/!
0.!
0-!
0,!
0+!
0*!
0)!
1(!
0a
0\
1Z
0[
1W
1Y
1S
0V
1Q
1R
1p
1O
0P
1M
1N
1~
1K
0L
0`
0i
1q
0M
0O
0Q
0S
0W
1T
0Z
1X
1a
1\
1]
0b
0]
1b
0X
0T
#640000
0!
00
0I
0C
0J
#642500
1!
10
1I
1C
1J
1/!
0K
1L
0q
1M
#645000
0!
00
0I
0C
0J
#647500
1!
10
1I
1C
1J
0/!
1.!
0M
0N
1K
0L
1M
1N
1O
0O
#650000
0!
00
0I
0C
0J
#652500
1!
10
1I
1C
1J
1/!
0K
1L
1`
0M
0N
1O
#655000
0!
00
0I
0C
0J
#657500
1!
10
1I
1C
1J
0/!
0.!
1-!
0O
1P
1M
1N
1K
0L
0`
0M
1O
0P
1Q
0Q
#660000
0!
00
0I
0C
0J
#662500
1!
10
1I
1C
1J
1/!
0K
1L
1M
#665000
0!
00
0I
0C
0J
#667500
1!
10
1I
1C
1J
0/!
1.!
0M
0N
1K
0L
1M
1N
0O
1P
1Q
1O
0P
0Q
#670000
0!
00
0I
0C
0J
#672500
1!
10
1I
1C
1J
1/!
0K
1L
1`
0M
0N
0O
1P
1Q
#675000
0!
00
0I
0C
0J
#677500
1!
10
1I
1C
1J
0/!
0.!
0-!
1,!
0Q
0R
1O
0P
1M
1N
1K
0L
0`
1q
0M
0O
1Q
1R
1S
1T
0S
0T
#680000
0!
00
0I
0C
0J
#682500
1!
10
1I
1C
1J
1/!
0K
1L
0q
1M
#685000
0!
00
0I
0C
0J
#687500
1!
10
1I
1C
1J
0/!
1.!
0M
0N
1K
0L
1M
1N
1O
0O
#690000
0!
00
0I
0C
0J
#692500
1!
10
1I
1C
1J
1/!
0K
1L
1`
1i
0M
0N
1O
#695000
0!
00
0I
0C
0J
