components/DCmot_PWM_cntrl_ v0.2/DCmot_PWM_cntrl_ v0.2/simulation/qsim/DCmot_PWM_cntrl.msim.vcd
$comment
	File created using the following command:
		vcd file DCmot_PWM_cntrl.msim.vcd -direction
$end
$date
	Tue May 28 15:10:19 2024
$end
$version
	ModelSim Version 2020.1
$end
$timescale
	1ps
$end

$scope module dcmot_pwm_cntrl_vhd_vec_tst $end
$var wire 1 ! CLK1 $end
$var wire 1 " DCmot_speedv [2] $end
$var wire 1 # DCmot_speedv [1] $end
$var wire 1 $ DCmot_speedv [0] $end
$var wire 1 % PWM_DCmot $end

$scope module i1 $end
$var wire 1 & gnd $end
$var wire 1 ' vcc $end
$var wire 1 ( unknown $end
$var wire 1 ) devoe $end
$var wire 1 * devclrn $end
$var wire 1 + devpor $end
$var wire 1 , ww_devoe $end
$var wire 1 - ww_devclrn $end
$var wire 1 . ww_devpor $end
$var wire 1 / ww_CLK1 $end
$var wire 1 0 ww_DCmot_speedv [2] $end
$var wire 1 1 ww_DCmot_speedv [1] $end
$var wire 1 2 ww_DCmot_speedv [0] $end
$var wire 1 3 ww_PWM_DCmot $end
$var wire 1 4 \~QUARTUS_CREATED_ADC1~_CHSEL_bus\ [4] $end
$var wire 1 5 \~QUARTUS_CREATED_ADC1~_CHSEL_bus\ [3] $end
$var wire 1 6 \~QUARTUS_CREATED_ADC1~_CHSEL_bus\ [2] $end
$var wire 1 7 \~QUARTUS_CREATED_ADC1~_CHSEL_bus\ [1] $end
$var wire 1 8 \~QUARTUS_CREATED_ADC1~_CHSEL_bus\ [0] $end
$var wire 1 9 \~QUARTUS_CREATED_ADC2~_CHSEL_bus\ [4] $end
$var wire 1 : \~QUARTUS_CREATED_ADC2~_CHSEL_bus\ [3] $end
$var wire 1 ; \~QUARTUS_CREATED_ADC2~_CHSEL_bus\ [2] $end
$var wire 1 < \~QUARTUS_CREATED_ADC2~_CHSEL_bus\ [1] $end
$var wire 1 = \~QUARTUS_CREATED_ADC2~_CHSEL_bus\ [0] $end
$var wire 1 > \CLK1~inputclkctrl_INCLK_bus\ [3] $end
$var wire 1 ? \CLK1~inputclkctrl_INCLK_bus\ [2] $end
$var wire 1 @ \CLK1~inputclkctrl_INCLK_bus\ [1] $end
$var wire 1 A \CLK1~inputclkctrl_INCLK_bus\ [0] $end
$var wire 1 B \~QUARTUS_CREATED_GND~I_combout\ $end
$var wire 1 C \~QUARTUS_CREATED_UNVM~~busy\ $end
$var wire 1 D \~QUARTUS_CREATED_ADC1~~eoc\ $end
$var wire 1 E \~QUARTUS_CREATED_ADC2~~eoc\ $end
$var wire 1 F \PWM_DCmot~output_o\ $end
$var wire 1 G \CLK1~input_o\ $end
$var wire 1 H \CLK1~inputclkctrl_outclk\ $end
$var wire 1 I \DCmot_speedv[1]~input_o\ $end
$var wire 1 J \DCmot_speedv[0]~input_o\ $end
$var wire 1 K \innercounter~1_combout\ $end
$var wire 1 L \Add0~0_combout\ $end
$var wire 1 M \Add0~1\ $end
$var wire 1 N \Add0~2_combout\ $end
$var wire 1 O \Add0~3\ $end
$var wire 1 P \Add0~4_combout\ $end
$var wire 1 Q \Add0~9\ $end
$var wire 1 R \Add0~10_combout\ $end
$var wire 1 S \counter~0_combout\ $end
$var wire 1 T \Equal0~1_combout\ $end
$var wire 1 U \Equal0~2_combout\ $end
$var wire 1 V \counter~3_combout\ $end
$var wire 1 W \Add0~5\ $end
$var wire 1 X \Add0~6_combout\ $end
$var wire 1 Y \counter~2_combout\ $end
$var wire 1 Z \Add0~7\ $end
$var wire 1 [ \Add0~8_combout\ $end
$var wire 1 \ \Add0~11\ $end
$var wire 1 ] \Add0~12_combout\ $end
$var wire 1 ^ \Add0~13\ $end
$var wire 1 _ \Add0~14_combout\ $end
$var wire 1 ` \Equal0~0_combout\ $end
$var wire 1 a \Add0~15\ $end
$var wire 1 b \Add0~16_combout\ $end
$var wire 1 c \counter~1_combout\ $end
$var wire 1 d \PWM_DCmot~0_combout\ $end
$var wire 1 e \PWM_DCmot~1_combout\ $end
$var wire 1 f \PWM_DCmot~2_combout\ $end
$var wire 1 g \innercounter~0_combout\ $end
$var wire 1 h \innercounter~2_combout\ $end
$var wire 1 i \PWM_DCmot~3_combout\ $end
$var wire 1 j \DCmot_speedv[2]~input_o\ $end
$var wire 1 k \PWM_DCmot~4_combout\ $end
$var wire 1 l \PWM_DCmot~reg0_q\ $end
$var wire 1 m innercounter [2] $end
$var wire 1 n innercounter [1] $end
$var wire 1 o innercounter [0] $end
$var wire 1 p counter [8] $end
$var wire 1 q counter [7] $end
$var wire 1 r counter [6] $end
$var wire 1 s counter [5] $end
$var wire 1 t counter [4] $end
$var wire 1 u counter [3] $end
$var wire 1 v counter [2] $end
$var wire 1 w counter [1] $end
$var wire 1 x counter [0] $end
$upscope $end
$upscope $end
$enddefinitions $end
#0
$dumpvars
0!
0%
0&
1'
x(
1)
1*
1+
1,
1-
1.
0/
03
0B
zC
zD
zE
0F
0G
0H
1I
1J
0K
1L
0M
0N
1O
0P
0Q
0R
0S
0T
0U
0V
0W
0X
0Y
1Z
0[
1\
0]
0^
0_
1`
1a
0b
0c
0d
0e
0f
0g
1h
1i
1j
0k
0l
1"
1#
1$
10
11
12
0m
0n
0o
0p
0q
0r
0s
0t
0u
0v
0w
0x
1>
1?
1@
0A
04
05
06
07
08
09
0:
0;
0<
0=
$end
#20000
1!
1/
1G
1A
1H
1x
0L
1M
1N
#40000
0!
0/
0G
0A
0H
#60000
1!
1/
1G
1A
1H
0x
1w
0N
0O
1L
0M
1N
1O
1P
1V
0P
0V
#80000
0!
0/
0G
0A
0H
#100000
1!
1/
1G
1A
1H
1x
0L
1M
1T
0N
0O
1P
1V
#120000
0!
0/
0G
0A
0H
#140000
1!
1/
1G
1A
1H
0x
0w
1v
0P
1W
1N
1O
1L
0M
0T
0N
1P
0W
1X
0V
1Y
0X
1V
0Y
#160000
0!
0/
0G
0A
0H
#180000
1!
1/
1G
1A
1H
1x
0L
1M
1N
#200000
0!
0/
0G
0A
0H
#220000
1!
1/
1G
1A
1H
0x
1w
0N
0O
1L
0M
1N
1O
0P
1W
1X
0V
1P
0W
0X
1V
1Y
0Y
#240000
0!
0/
0G
0A
0H
#260000
1!
1/
1G
1A
1H
1x
0L
1M
1T
1e
1f
0N
0O
0P
1W
1k
1X
0V
1Y
#280000
0!
0/
0G
0A
0H
#300000
1!
1/
1G
1A
1H
0x
0w
0v
1u
1o
1l
1F
1K
0h
0X
0Z
1P
0W
1N
1O
1L
0M
0T
13
0N
0P
1X
1Z
1V
1[
0Y
1%
0[
1Y
0V
#320000
0!
0/
0G
0A
0H
#340000
1!
1/
1G
1A
1H
1x
1n
0o
1h
0L
1M
1N
#360000
0!
0/
0G
0A
0H
#380000
1!
1/
1G
1A
1H
0x
1w
1o
0K
1g
0h
0i
0N
0O
1L
0M
1N
1O
1P
1V
0P
0V
#400000
0!
0/
0G
0A
0H
#420000
1!
1/
1G
1A
1H
1x
0n
1m
0o
0k
1h
1i
0L
1M
1T
0N
0O
1k
1P
1V
#440000
0!
0/
0G
0A
0H
#460000
1!
1/
1G
1A
1H
0x
0w
1v
1o
1K
0h
0P
1W
1N
1O
1L
0M
0T
0N
1P
0W
0X
0Z
0V
1[
0Y
1X
1Z
1V
0[
1Y
#480000
0!
0/
0G
0A
0H
#500000
1!
1/
1G
1A
1H
1x
1n
0o
0K
0g
0L
1M
1N
#520000
0!
0/
0G
0A
0H
#540000
1!
1/
1G
1A
1H
0x
1w
0n
0m
1h
0N
0O
1L
0M
0e
0f
1N
1O
0P
1W
0X
0Z
0V
1P
0W
0k
1X
1Z
1V
1[
0Y
0[
1Y
#560000
0!
0/
0G
0A
0H
#580000
1!
1/
1G
1A
1H
1x
0l
0F
0L
1M
1T
03
0N
0O
0%
0P
1W
0X
0Z
0V
1[
0Y
#600000
0!
0/
0G
0A
0H
#620000
1!
1/
1G
1A
1H
0x
0w
0v
0u
1t
0[
1Q
0`
1d
1X
1Z
1P
0W
1N
1O
1L
0M
0T
0N
0P
0X
1[
0Q
1V
1Y
1R
1S
0R
0Y
0V
0S
#640000
0!
0/
0G
0A
0H
#660000
1!
1/
1G
1A
1H
1x
0L
1M
1N
#680000
0!
0/
0G
0A
0H
#700000
1!
1/
1G
1A
1H
0x
1w
0N
0O
1L
0M
1N
1O
1P
1V
0P
0V
#720000
0!
0/
0G
0A
0H
#740000
1!
1/
1G
1A
1H
1x
0L
1M
1T
0N
0O
1P
1V
#760000
0!
0/
0G
0A
0H
#780000
1!
1/
1G
1A
1H
0x
0w
1v
0P
1W
1N
1O
1L
0M
0T
0N
1P
0W
1X
0V
1Y
0X
1V
0Y
#800000
0!
0/
0G
0A
0H
#820000
1!
1/
1G
1A
1H
1x
0L
1M
1N
#840000
0!
0/
0G
0A
0H
#860000
1!
1/
1G
1A
1H
0x
1w
0N
0O
1L
0M
1N
1O
0P
1W
1X
0V
1P
0W
0X
1V
1Y
0Y
#880000
0!
0/
0G
0A
0H
#900000
1!
1/
1G
1A
1H
1x
0L
1M
1T
1e
0N
0O
0P
1W
1X
0V
1Y
#920000
0!
0/
0G
0A
0H
#940000
1!
1/
1G
1A
1H
0x
0w
0v
1u
0X
0Z
1P
0W
1N
1O
1L
0M
0T
0N
0P
1X
1Z
1V
0[
1Q
0Y
1R
1[
0Q
1Y
0V
0R
1S
0S
#960000
0!
0/
0G
0A
0H
#980000
1!
1/
1G
1A
1H
1x
0L
1M
1N
