components/servomotor V0.3 67.5 30k clock/simulation/qsim/servo.msim.vcd
$comment
	File created using the following command:
		vcd file servo.msim.vcd -direction
$end
$date
	Wed May 29 10:35:46 2024
$end
$version
	ModelSim Version 2020.1
$end
$timescale
	1ps
$end

$scope module svmot_angle_cntrl_vhd_vec_tst $end
$var wire 1 ! CLK2 $end
$var wire 1 " PWM_SVmot $end
$var wire 1 # Svmot_anglev [3] $end
$var wire 1 $ Svmot_anglev [2] $end
$var wire 1 % Svmot_anglev [1] $end
$var wire 1 & Svmot_anglev [0] $end

$scope module i1 $end
$var wire 1 ' gnd $end
$var wire 1 ( vcc $end
$var wire 1 ) unknown $end
$var wire 1 * devoe $end
$var wire 1 + devclrn $end
$var wire 1 , devpor $end
$var wire 1 - ww_devoe $end
$var wire 1 . ww_devclrn $end
$var wire 1 / ww_devpor $end
$var wire 1 0 ww_CLK2 $end
$var wire 1 1 ww_Svmot_anglev [3] $end
$var wire 1 2 ww_Svmot_anglev [2] $end
$var wire 1 3 ww_Svmot_anglev [1] $end
$var wire 1 4 ww_Svmot_anglev [0] $end
$var wire 1 5 ww_PWM_SVmot $end
$var wire 1 6 \~QUARTUS_CREATED_ADC1~_CHSEL_bus\ [4] $end
$var wire 1 7 \~QUARTUS_CREATED_ADC1~_CHSEL_bus\ [3] $end
$var wire 1 8 \~QUARTUS_CREATED_ADC1~_CHSEL_bus\ [2] $end
$var wire 1 9 \~QUARTUS_CREATED_ADC1~_CHSEL_bus\ [1] $end
$var wire 1 : \~QUARTUS_CREATED_ADC1~_CHSEL_bus\ [0] $end
$var wire 1 ; \~QUARTUS_CREATED_ADC2~_CHSEL_bus\ [4] $end
$var wire 1 < \~QUARTUS_CREATED_ADC2~_CHSEL_bus\ [3] $end
$var wire 1 = \~QUARTUS_CREATED_ADC2~_CHSEL_bus\ [2] $end
$var wire 1 > \~QUARTUS_CREATED_ADC2~_CHSEL_bus\ [1] $end
$var wire 1 ? \~QUARTUS_CREATED_ADC2~_CHSEL_bus\ [0] $end
$var wire 1 @ \CLK2~inputclkctrl_INCLK_bus\ [3] $end
$var wire 1 A \CLK2~inputclkctrl_INCLK_bus\ [2] $end
$var wire 1 B \CLK2~inputclkctrl_INCLK_bus\ [1] $end
$var wire 1 C \CLK2~inputclkctrl_INCLK_bus\ [0] $end
$var wire 1 D \~QUARTUS_CREATED_GND~I_combout\ $end
$var wire 1 E \~QUARTUS_CREATED_UNVM~~busy\ $end
$var wire 1 F \~QUARTUS_CREATED_ADC1~~eoc\ $end
$var wire 1 G \~QUARTUS_CREATED_ADC2~~eoc\ $end
$var wire 1 H \PWM_SVmot~output_o\ $end
$var wire 1 I \CLK2~input_o\ $end
$var wire 1 J \CLK2~inputclkctrl_outclk\ $end
$var wire 1 K \Add0~0_combout\ $end
$var wire 1 L \Add0~1\ $end
$var wire 1 M \Add0~2_combout\ $end
$var wire 1 N \Add0~3\ $end
$var wire 1 O \Add0~4_combout\ $end
$var wire 1 P \Equal0~0_combout\ $end
$var wire 1 Q \Add0~15\ $end
$var wire 1 R \Add0~16_combout\ $end
$var wire 1 S \Add0~17\ $end
$var wire 1 T \Add0~18_combout\ $end
$var wire 1 U \counter~0_combout\ $end
$var wire 1 V \Add0~5\ $end
$var wire 1 W \Add0~6_combout\ $end
$var wire 1 X \counter~2_combout\ $end
$var wire 1 Y \Equal0~1_combout\ $end
$var wire 1 Z \Equal0~2_combout\ $end
$var wire 1 [ \Add0~7\ $end
$var wire 1 \ \Add0~8_combout\ $end
$var wire 1 ] \counter~1_combout\ $end
$var wire 1 ^ \Add0~9\ $end
$var wire 1 _ \Add0~10_combout\ $end
$var wire 1 ` \Add0~11\ $end
$var wire 1 a \Add0~12_combout\ $end
$var wire 1 b \counter~3_combout\ $end
$var wire 1 c \Add0~13\ $end
$var wire 1 d \Add0~14_combout\ $end
$var wire 1 e \Svmot_anglev[1]~input_o\ $end
$var wire 1 f \Svmot_anglev[3]~input_o\ $end
$var wire 1 g \Svmot_anglev[0]~input_o\ $end
$var wire 1 h \Svmot_anglev[2]~input_o\ $end
$var wire 1 i \process_0~0_combout\ $end
$var wire 1 j \LessThan2~0_combout\ $end
$var wire 1 k \LessThan2~1_combout\ $end
$var wire 1 l \PWM_SVmot~10_combout\ $end
$var wire 1 m \PWM_SVmot~11_combout\ $end
$var wire 1 n \PWM_SVmot~2_combout\ $end
$var wire 1 o \LessThan3~0_combout\ $end
$var wire 1 p \PWM_SVmot~3_combout\ $end
$var wire 1 q \flag~0_combout\ $end
$var wire 1 r \flag~q\ $end
$var wire 1 s \innercounter~3_combout\ $end
$var wire 1 t \innercounter[3]~1_combout\ $end
$var wire 1 u \innercounter~4_combout\ $end
$var wire 1 v \innercounter~2_combout\ $end
$var wire 1 w \innercounter~0_combout\ $end
$var wire 1 x \PWM_SVmot~4_combout\ $end
$var wire 1 y \PWM_SVmot~5_combout\ $end
$var wire 1 z \PWM_SVmot~6_combout\ $end
$var wire 1 { \PWM_SVmot~7_combout\ $end
$var wire 1 | \PWM_SVmot~8_combout\ $end
$var wire 1 } \PWM_SVmot~9_combout\ $end
$var wire 1 ~ \PWM_SVmot~12_combout\ $end
$var wire 1 !! \PWM_SVmot~13_combout\ $end
$var wire 1 "! \PWM_SVmot~reg0_q\ $end
$var wire 1 #! counter [9] $end
$var wire 1 $! counter [8] $end
$var wire 1 %! counter [7] $end
$var wire 1 &! counter [6] $end
$var wire 1 '! counter [5] $end
$var wire 1 (! counter [4] $end
$var wire 1 )! counter [3] $end
$var wire 1 *! counter [2] $end
$var wire 1 +! counter [1] $end
$var wire 1 ,! counter [0] $end
$var wire 1 -! innercounter [3] $end
$var wire 1 .! innercounter [2] $end
$var wire 1 /! innercounter [1] $end
$var wire 1 0! innercounter [0] $end
$upscope $end
$upscope $end
$enddefinitions $end
#0
$dumpvars
0!
0"
0'
1(
x)
1*
1+
1,
1-
1.
1/
00
05
0D
zE
zF
zG
0H
0I
0J
1K
0L
0M
1N
0O
0P
1Q
0R
0S
0T
0U
0V
0W
0X
1Y
0Z
1[
0\
0]
0^
0_
1`
0a
0b
0c
0d
1e
0f
0g
1h
0i
0j
0k
1l
1m
1n
1o
1p
0q
0r
1s
0t
0u
0v
0w
1x
1y
1z
0{
0|
1}
1~
1!!
0"!
0#
1$
1%
0&
01
12
13
04
0#!
0$!
0%!
0&!
0'!
0(!
0)!
0*!
0+!
0,!
0-!
0.!
0/!
00!
1@
1A
1B
0C
06
07
08
09
0:
0;
0<
0=
0>
0?
$end
#5000
1!
10
1I
1C
1J
1,!
1"!
1H
0K
1L
15
1M
1"
#10000
0!
00
0I
0C
0J
#15000
1!
10
1I
1C
1J
0,!
1+!
0M
0N
1K
0L
1M
1N
1O
0O
#20000
0!
00
0I
0C
0J
#25000
1!
10
1I
1C
1J
1,!
0K
1L
0M
0N
1O
#30000
0!
00
0I
0C
0J
#35000
1!
10
1I
1C
1J
0,!
0+!
1*!
0O
1V
1M
1N
1K
0L
0M
1O
0V
1W
1X
0W
0X
#40000
0!
00
0I
0C
0J
#45000
1!
10
1I
1C
1J
1,!
0K
1L
1M
#50000
0!
00
0I
0C
0J
#55000
1!
10
1I
1C
1J
0,!
1+!
0M
0N
1K
0L
1M
1N
0O
1V
1W
1O
0V
0W
1X
0X
#60000
0!
00
0I
0C
0J
#65000
1!
10
1I
1C
1J
1,!
0K
1L
0M
0N
0O
1V
1W
1X
#70000
0!
00
0I
0C
0J
#75000
1!
10
1I
1C
1J
0,!
0+!
0*!
1)!
0W
0[
0Y
1O
0V
1M
1N
1K
0L
0M
0O
1W
1[
1\
0X
1]
0\
1X
0]
#80000
0!
00
0I
0C
0J
#85000
1!
10
1I
1C
1J
1,!
0K
1L
1M
#90000
0!
00
0I
0C
0J
#95000
1!
10
1I
1C
1J
0,!
1+!
0M
0N
1K
0L
1M
1N
1O
0O
#100000
0!
00
0I
0C
0J
#105000
1!
10
1I
1C
1J
1,!
0K
1L
0M
0N
1O
#110000
0!
00
0I
0C
0J
#115000
1!
10
1I
1C
1J
0,!
0+!
1*!
0O
1V
1M
1N
1K
0L
0M
1O
0V
0W
0[
1\
0X
1W
1[
0\
1X
1]
0]
#120000
0!
00
0I
0C
0J
#125000
1!
10
1I
1C
1J
1,!
0K
1L
0l
1M
#130000
0!
00
0I
0C
0J
#135000
1!
10
1I
1C
1J
0,!
1+!
0M
0N
1K
0L
1M
1N
0O
1V
0W
0[
1O
0V
1W
1[
1\
0X
1]
0\
1X
0]
#140000
0!
00
0I
0C
0J
#145000
1!
10
1I
1C
1J
1,!
0K
1L
0M
0N
0O
1V
0W
0[
1\
0X
1]
#150000
0!
00
0I
0C
0J
#155000
1!
10
1I
1C
1J
0,!
0+!
0*!
0)!
1(!
0\
1^
1W
1[
1Y
1O
0V
1M
1N
1K
0L
1l
0M
0O
0W
1\
0^
1X
1_
0]
0_
1]
0X
#160000
0!
00
0I
0C
0J
#165000
1!
10
1I
1C
1J
1,!
0K
1L
1M
#170000
0!
00
0I
0C
0J
#175000
1!
10
1I
1C
1J
0,!
1+!
0M
0N
1K
0L
1M
1N
1O
0O
#180000
0!
00
0I
0C
0J
#185000
1!
10
1I
1C
1J
1,!
0K
1L
0M
0N
1O
#190000
0!
00
0I
0C
0J
#195000
1!
10
1I
1C
1J
0,!
0+!
1*!
0O
1V
1M
1N
1K
0L
0M
1O
0V
1W
1X
0W
0X
#200000
0!
00
0I
0C
0J
#205000
1!
10
1I
1C
1J
1,!
0K
1L
1M
#210000
0!
00
0I
0C
0J
#215000
1!
10
1I
1C
1J
0,!
1+!
0M
0N
1K
0L
1M
1N
0O
1V
1W
1O
0V
0W
1X
0X
#220000
0!
00
0I
0C
0J
#225000
1!
10
1I
1C
1J
1,!
0K
1L
1P
0M
0N
0O
1V
1W
1X
#230000
0!
00
0I
0C
0J
#235000
1!
10
1I
1C
1J
0,!
0+!
0*!
1)!
0W
0[
0Y
1O
0V
1M
1N
1K
0L
0P
0M
0O
1W
1[
0\
1^
0X
1_
0]
1\
0^
1X
0_
1]
#240000
0!
00
0I
0C
0J
#245000
1!
10
1I
1C
1J
1,!
0K
1L
1M
#250000
0!
00
0I
0C
0J
#255000
1!
10
1I
1C
1J
0,!
1+!
0M
0N
1K
0L
1M
1N
1O
0O
#260000
0!
00
0I
0C
0J
#265000
1!
10
1I
1C
1J
1,!
0K
1L
0M
0N
1O
#270000
0!
00
0I
0C
0J
#275000
1!
10
1I
1C
1J
0,!
0+!
1*!
0O
1V
1M
1N
1K
0L
0M
1O
0V
0W
0[
0\
1^
0X
1W
1[
1\
0^
1X
1_
0]
0_
1]
#280000
0!
00
0I
0C
0J
#285000
1!
10
1I
1C
1J
1,!
0K
1L
0l
1M
#290000
0!
00
0I
0C
0J
#295000
1!
10
1I
1C
1J
0,!
1+!
0M
0N
1j
1K
0L
1M
1N
1k
0O
1V
0W
0[
1q
1t
1O
0V
1W
1[
0\
1^
0X
1_
0]
1\
0^
1X
0_
1]
#300000
0!
00
0I
0C
0J
#305000
1!
10
1I
1C
1J
1,!
1r
10!
0s
1u
0q
0t
0K
1L
1P
0M
0N
0O
1V
0W
0[
0\
1^
0X
1_
0]
#310000
0!
00
0I
0C
0J
#315000
1!
10
1I
1C
1J
0,!
0+!
0*!
0)!
0(!
1'!
0r
1q
1t
0_
0`
1\
0^
0m
1W
1[
1O
0V
1M
1N
0j
1K
0L
0P
1l
1m
0M
0O
0W
0\
1X
1_
1`
1]
1a
1b
0a
0]
0X
0b
#320000
0!
00
0I
0C
0J
#325000
1!
10
1I
1C
1J
1,!
1r
00!
1/!
1s
0z
0q
0t
0K
1L
1M
#330000
0!
00
0I
0C
0J
#335000
1!
10
1I
1C
1J
0,!
1+!
0r
1q
1t
0M
0N
1K
0L
1M
1N
1O
0O
#340000
0!
00
0I
0C
0J
#345000
1!
10
1I
1C
1J
1,!
1r
10!
0s
0u
1w
0q
0t
0K
1L
0M
0N
1O
#350000
0!
00
0I
0C
0J
#355000
1!
10
1I
1C
1J
0,!
0+!
1*!
0r
1q
1t
0O
1V
1M
1N
1K
0L
0M
1O
0V
1W
1X
0W
0X
#360000
0!
00
0I
0C
0J
#365000
1!
10
1I
1C
1J
1,!
1r
00!
0/!
1.!
1s
1z
0q
0t
0K
1L
1M
1{
1|
#370000
0!
00
0I
0C
0J
#375000
1!
10
1I
1C
1J
0,!
1+!
0r
1q
1t
0y
0M
0N
1K
0L
1M
1N
0O
1V
1W
1O
0V
0W
1X
0X
#380000
0!
00
0I
0C
0J
#385000
1!
10
1I
1C
1J
1,!
1r
10!
0s
1u
0q
0t
1y
0}
0K
1L
0M
0N
0~
1}
1~
0!!
0O
1V
1W
1!!
1X
#390000
0!
00
0I
0C
0J
#395000
1!
10
1I
1C
1J
0,!
0+!
0*!
1)!
0r
1q
1t
0y
0W
0[
1O
0V
1M
1N
1K
0L
0M
0O
1W
1[
1\
0X
1]
0\
1X
0]
#400000
0!
00
0I
0C
0J
#405000
1!
10
1I
1C
1J
1,!
1r
00!
1/!
1s
0z
0q
0t
1y
0}
0K
1L
1M
0~
1}
0{
0|
1~
0!!
1!!
#410000
0!
00
0I
0C
0J
#415000
1!
10
1I
1C
1J
0,!
1+!
0r
1q
1t
0y
0M
0N
1K
0L
1M
1N
1O
0}
0~
0O
0!!
#420000
0!
00
0I
0C
0J
#425000
1!
10
1I
1C
1J
1,!
1r
10!
0"!
0H
0s
0u
1v
0w
0q
0t
0K
1L
05
0M
0N
0"
1O
#430000
0!
00
0I
0C
0J
#435000
1!
10
1I
1C
1J
0,!
0+!
1*!
0r
1q
1t
0O
1V
1M
1N
1K
0L
0M
1O
0V
0W
0[
1\
0X
1W
1[
0\
1X
1]
0]
#440000
0!
00
0I
0C
0J
#445000
1!
10
1I
1C
1J
1,!
1r
00!
0/!
1-!
0.!
0x
1s
1z
0q
0t
0K
1L
0l
0m
1M
#450000
0!
00
0I
0C
0J
#455000
1!
10
1I
1C
1J
0,!
1+!
0r
1q
1t
0M
0N
1K
0L
1M
1N
0O
1V
0W
0[
1O
0V
1W
1[
1\
0X
1]
0\
1X
0]
#460000
0!
00
0I
0C
0J
#465000
1!
10
1I
1C
1J
1,!
1r
10!
0s
1u
0q
0t
0K
1L
0M
0N
0O
1V
0W
0[
1\
0X
1]
#470000
0!
00
0I
0C
0J
#475000
1!
10
1I
1C
1J
0,!
0+!
0*!
0)!
1(!
0r
1q
1t
0\
1^
1W
1[
1O
0V
1M
1N
1K
0L
1l
0M
0O
0W
1\
0^
1X
0_
0`
0]
1a
1_
1`
1]
0X
0a
1b
0b
#480000
0!
00
0I
0C
0J
#485000
1!
10
1I
1C
1J
1,!
1r
00!
1/!
1s
0z
0q
0t
0K
1L
1M
#490000
0!
00
0I
0C
0J
#495000
1!
10
1I
1C
1J
0,!
1+!
0r
1q
1t
0M
0N
1K
0L
1M
1N
1O
0O
#500000
0!
00
0I
0C
0J
#505000
1!
10
1I
1C
1J
1,!
1r
10!
0s
0u
1w
0q
0t
0K
1L
0M
0N
1O
#510000
0!
00
0I
0C
0J
#515000
1!
10
1I
1C
1J
0,!
0+!
1*!
0r
1q
1t
0O
1V
1M
1N
1K
0L
0M
1O
0V
1W
1X
0W
0X
#520000
0!
00
0I
0C
0J
#525000
1!
10
1I
1C
1J
1,!
1r
00!
0/!
1.!
1s
1z
0q
0t
0K
1L
1M
1{
#530000
0!
00
0I
0C
0J
#535000
1!
10
1I
1C
1J
0,!
1+!
0r
1q
1t
0M
0N
1K
0L
1M
1N
0O
1V
1W
1O
0V
0W
1X
0X
#540000
0!
00
0I
0C
0J
#545000
1!
10
1I
1C
1J
1,!
1r
10!
0s
1u
0q
0t
0K
1L
1P
0M
0N
0O
1V
1W
1X
#550000
0!
00
0I
0C
0J
#555000
1!
10
1I
1C
1J
0,!
0+!
0*!
1)!
0r
1q
1t
0W
0[
1O
0V
1M
1N
1K
0L
0P
0M
0O
1W
1[
0\
1^
0X
0_
0`
0]
1\
0^
1X
1_
1`
1]
1a
1b
0a
0b
#560000
0!
00
0I
0C
0J
#565000
1!
10
1I
1C
1J
1,!
1r
00!
1/!
0u
0v
0w
0z
0q
0t
0K
1L
1M
0{
#570000
0!
00
0I
0C
0J
#575000
1!
10
1I
1C
1J
0,!
1+!
0r
1q
1t
0M
0N
1K
0L
1M
1N
1O
0O
#580000
0!
00
0I
0C
0J
#585000
1!
10
1I
1C
1J
1,!
1r
0/!
0-!
0.!
1x
1s
1z
0q
0t
0K
1L
0M
0N
1O
#590000
0!
00
0I
0C
0J
#595000
1!
10
1I
1C
1J
0,!
0+!
1*!
0r
1q
1t
1y
0O
1V
0o
1M
1N
1K
0L
0M
1O
0V
0p
0W
0[
1}
1~
0\
1^
0X
0q
0t
0}
1W
1[
1\
0^
1X
0~
0_
0`
0]
1!!
1a
0!!
1_
1`
1]
0a
1b
0b
#600000
0!
00
0I
0C
0J
#605000
1!
10
1I
1C
1J
1,!
0K
1L
0l
1M
#610000
0!
00
0I
0C
0J
#615000
1!
10
1I
1C
1J
0,!
1+!
0M
0N
1j
1K
0L
1M
1N
0O
1V
0W
0[
1O
0V
1W
1[
0\
1^
0X
0_
0`
0]
1\
0^
1X
1_
1`
1]
1a
1b
0a
0b
#620000
0!
00
0I
0C
0J
#625000
1!
10
1I
1C
1J
1,!
0K
1L
1P
0M
0N
0O
1V
0W
0[
0\
1^
0X
0_
0`
0]
1a
1b
#630000
0!
00
0I
0C
0J
#635000
1!
10
1I
1C
1J
0,!
0+!
0*!
0)!
0(!
0'!
1&!
0a
1c
1_
1`
1\
0^
1W
1[
1Y
1O
0V
1o
1M
1N
0j
1K
0L
0P
1l
0M
0O
0W
0\
1X
0_
1]
1a
0c
1d
0b
0d
1b
0]
0X
#640000
0!
00
0I
0C
0J
#645000
1!
10
1I
1C
1J
1,!
0K
1L
1M
#650000
0!
00
0I
0C
0J
#655000
1!
10
1I
1C
1J
0,!
1+!
0M
0N
1K
0L
1M
1N
1O
0O
#660000
0!
00
0I
0C
0J
#665000
1!
10
1I
1C
1J
1,!
0K
1L
0M
0N
1O
#670000
0!
00
0I
0C
0J
#675000
1!
10
1I
1C
1J
0,!
0+!
1*!
0O
1V
1M
1N
1K
0L
0M
1O
0V
1W
1X
0W
0X
#680000
0!
00
0I
0C
0J
#685000
1!
10
1I
1C
1J
1,!
0K
1L
1M
#690000
0!
00
0I
0C
0J
#695000
1!
10
1I
1C
1J
0,!
1+!
0M
0N
1K
0L
1M
1N
0O
1V
1W
1O
0V
0W
1X
0X
#700000
0!
00
0I
0C
0J
#705000
1!
10
1I
1C
1J
1,!
0K
1L
0M
0N
0O
1V
1W
1X
#710000
0!
00
0I
0C
0J
#715000
1!
10
1I
1C
1J
0,!
0+!
0*!
1)!
0W
0[
0Y
1O
0V
1M
1N
1K
0L
0M
0O
1W
1[
1\
0X
1]
0\
1X
0]
#720000
0!
00
0I
0C
0J
#725000
1!
10
1I
1C
1J
1,!
0K
1L
1M
#730000
0!
00
0I
0C
0J
#735000
1!
10
1I
1C
1J
0,!
1+!
0M
0N
1K
0L
1M
1N
1O
0O
#740000
0!
00
0I
0C
0J
#745000
1!
10
1I
1C
1J
1,!
0K
1L
0M
0N
1O
#750000
0!
00
0I
0C
0J
#755000
1!
10
1I
1C
1J
0,!
0+!
1*!
0O
1V
1M
1N
1K
0L
0M
1O
0V
0W
0[
1\
0X
1W
1[
0\
1X
1]
0]
#760000
0!
00
0I
0C
0J
#765000
1!
10
1I
1C
1J
1,!
0K
1L
0l
1M
#770000
0!
00
0I
0C
0J
#775000
1!
10
1I
1C
1J
0,!
1+!
0M
0N
1K
0L
1M
1N
0O
1V
0W
0[
1O
0V
1W
1[
1\
0X
1]
0\
1X
0]
#780000
0!
00
0I
0C
0J
#785000
1!
10
1I
1C
1J
1,!
0K
1L
0M
0N
0O
1V
0W
0[
1\
0X
1]
#790000
0!
00
0I
0C
0J
#795000
1!
10
1I
1C
1J
0,!
0+!
0*!
0)!
1(!
0\
1^
1W
1[
1Y
1O
0V
1M
1N
1K
0L
1l
0M
0O
0W
1\
0^
1X
1_
0]
0_
1]
0X
#800000
0!
00
0I
0C
0J
#805000
1!
10
1I
1C
1J
1,!
0K
1L
1M
#810000
0!
00
0I
0C
0J
#815000
1!
10
1I
1C
1J
0,!
1+!
0M
0N
1K
0L
1M
1N
1O
0O
#820000
0!
00
0I
0C
0J
#825000
1!
10
1I
1C
1J
1,!
0K
1L
0M
0N
1O
#830000
0!
00
0I
0C
0J
#835000
1!
10
1I
1C
1J
0,!
0+!
1*!
0O
1V
1M
1N
1K
0L
0M
1O
0V
1W
1X
0W
0X
#840000
0!
00
0I
0C
0J
#845000
1!
10
1I
1C
1J
1,!
0K
1L
1M
#850000
0!
00
0I
0C
0J
#855000
1!
10
1I
1C
1J
0,!
1+!
0M
0N
1K
0L
1M
1N
0O
1V
1W
1O
0V
0W
1X
0X
#860000
0!
00
0I
0C
0J
#865000
1!
10
1I
1C
1J
1,!
0K
1L
1P
0M
0N
0O
1V
1W
1X
#870000
0!
00
0I
0C
0J
#875000
1!
10
1I
1C
1J
0,!
0+!
0*!
1)!
0W
0[
0Y
1O
0V
1M
1N
1K
0L
0P
0M
0O
1W
1[
0\
1^
0X
1_
0]
1\
0^
1X
0_
1]
#880000
0!
00
0I
0C
0J
#885000
1!
10
1I
1C
1J
1,!
0K
1L
1M
#890000
0!
00
0I
0C
0J
#895000
1!
10
1I
1C
1J
0,!
1+!
0M
0N
1K
0L
1M
1N
1O
0O
#900000
0!
00
0I
0C
0J
#905000
1!
10
1I
1C
1J
1,!
0K
1L
0M
0N
1O
#910000
0!
00
0I
0C
0J
#915000
1!
10
1I
1C
1J
0,!
0+!
1*!
0O
1V
1M
1N
1K
0L
0M
1O
0V
0W
0[
0\
1^
0X
1W
1[
1\
0^
1X
1_
0]
0_
1]
#920000
0!
00
0I
0C
0J
#925000
1!
10
1I
1C
1J
1,!
0K
1L
0l
1M
#930000
0!
00
0I
0C
0J
#935000
1!
10
1I
1C
1J
0,!
1+!
0M
0N
1j
1K
0L
1M
1N
0O
1V
0W
0[
1O
0V
1W
1[
0\
1^
0X
1_
0]
1\
0^
1X
0_
1]
#940000
0!
00
0I
0C
0J
#945000
1!
10
1I
1C
1J
1,!
0K
1L
1P
0M
0N
0O
1V
0W
0[
0\
1^
0X
1_
0]
#950000
0!
00
0I
0C
0J
#955000
1!
10
1I
1C
1J
0,!
0+!
0*!
0)!
0(!
1'!
0_
0`
1\
0^
1W
1[
1O
0V
1M
1N
0j
1K
0L
0P
1l
0M
0O
0W
0\
1X
1_
1`
1]
0a
1c
1d
0b
1a
0c
0]
0X
0d
1b
#960000
0!
00
0I
0C
0J
#965000
1!
10
1I
1C
1J
1,!
0K
1L
1M
#970000
0!
00
0I
0C
0J
#975000
1!
10
1I
1C
1J
0,!
1+!
0M
0N
1K
0L
1M
1N
1O
0O
#980000
0!
00
0I
0C
0J
#985000
1!
10
1I
1C
1J
1,!
0K
1L
0M
0N
1O
#990000
0!
00
0I
0C
0J
#995000
1!
10
1I
1C
1J
0,!
0+!
1*!
0O
1V
1M
1N
1K
0L
0M
1O
0V
1W
1X
0W
0X
