components/servomotor/simulation/qsim/servomotor.msim.vcd
$comment
	File created using the following command:
		vcd file servomotor.msim.vcd -direction
$end
$date
	Sat May 25 16:08:11 2024
$end
$version
	ModelSim Version 2020.1
$end
$timescale
	1ps
$end

$scope module servomotor_vhd_vec_tst $end
$var wire 1 ! CLK2 $end
$var wire 1 " PWM_SVmot $end
$var wire 1 # Svmot_anglev [3] $end
$var wire 1 $ Svmot_anglev [2] $end
$var wire 1 % Svmot_anglev [1] $end
$var wire 1 & Svmot_anglev [0] $end

$scope module i1 $end
$var wire 1 ' gnd $end
$var wire 1 ( vcc $end
$var wire 1 ) unknown $end
$var wire 1 * devoe $end
$var wire 1 + devclrn $end
$var wire 1 , devpor $end
$var wire 1 - ww_devoe $end
$var wire 1 . ww_devclrn $end
$var wire 1 / ww_devpor $end
$var wire 1 0 ww_CLK2 $end
$var wire 1 1 ww_Svmot_anglev [3] $end
$var wire 1 2 ww_Svmot_anglev [2] $end
$var wire 1 3 ww_Svmot_anglev [1] $end
$var wire 1 4 ww_Svmot_anglev [0] $end
$var wire 1 5 ww_PWM_SVmot $end
$var wire 1 6 \~QUARTUS_CREATED_ADC1~_CHSEL_bus\ [4] $end
$var wire 1 7 \~QUARTUS_CREATED_ADC1~_CHSEL_bus\ [3] $end
$var wire 1 8 \~QUARTUS_CREATED_ADC1~_CHSEL_bus\ [2] $end
$var wire 1 9 \~QUARTUS_CREATED_ADC1~_CHSEL_bus\ [1] $end
$var wire 1 : \~QUARTUS_CREATED_ADC1~_CHSEL_bus\ [0] $end
$var wire 1 ; \~QUARTUS_CREATED_ADC2~_CHSEL_bus\ [4] $end
$var wire 1 < \~QUARTUS_CREATED_ADC2~_CHSEL_bus\ [3] $end
$var wire 1 = \~QUARTUS_CREATED_ADC2~_CHSEL_bus\ [2] $end
$var wire 1 > \~QUARTUS_CREATED_ADC2~_CHSEL_bus\ [1] $end
$var wire 1 ? \~QUARTUS_CREATED_ADC2~_CHSEL_bus\ [0] $end
$var wire 1 @ \CLK2~inputclkctrl_INCLK_bus\ [3] $end
$var wire 1 A \CLK2~inputclkctrl_INCLK_bus\ [2] $end
$var wire 1 B \CLK2~inputclkctrl_INCLK_bus\ [1] $end
$var wire 1 C \CLK2~inputclkctrl_INCLK_bus\ [0] $end
$var wire 1 D \~QUARTUS_CREATED_GND~I_combout\ $end
$var wire 1 E \~QUARTUS_CREATED_UNVM~~busy\ $end
$var wire 1 F \~QUARTUS_CREATED_ADC1~~eoc\ $end
$var wire 1 G \~QUARTUS_CREATED_ADC2~~eoc\ $end
$var wire 1 H \PWM_SVmot~output_o\ $end
$var wire 1 I \CLK2~input_o\ $end
$var wire 1 J \CLK2~inputclkctrl_outclk\ $end
$var wire 1 K \Add0~1\ $end
$var wire 1 L \Add0~2_combout\ $end
$var wire 1 M \counter~0_combout\ $end
$var wire 1 N \Add0~3\ $end
$var wire 1 O \Add0~4_combout\ $end
$var wire 1 P \counter[2]~6_combout\ $end
$var wire 1 Q \Add0~5\ $end
$var wire 1 R \Add0~6_combout\ $end
$var wire 1 S \counter~1_combout\ $end
$var wire 1 T \Equal0~0_combout\ $end
$var wire 1 U \Add0~15\ $end
$var wire 1 V \Add0~16_combout\ $end
$var wire 1 W \counter~3_combout\ $end
$var wire 1 X \Add0~0_combout\ $end
$var wire 1 Y \counter~4_combout\ $end
$var wire 1 Z \Add0~7\ $end
$var wire 1 [ \Add0~8_combout\ $end
$var wire 1 \ \counter[4]~5_combout\ $end
$var wire 1 ] \Equal0~1_combout\ $end
$var wire 1 ^ \Add0~9\ $end
$var wire 1 _ \Add0~10_combout\ $end
$var wire 1 ` \counter~2_combout\ $end
$var wire 1 a \Add0~11\ $end
$var wire 1 b \Add0~12_combout\ $end
$var wire 1 c \counter[6]~11_combout\ $end
$var wire 1 d \Add0~13\ $end
$var wire 1 e \Add0~14_combout\ $end
$var wire 1 f \counter[7]~12_combout\ $end
$var wire 1 g \PWM_SVmot~0_combout\ $end
$var wire 1 h \LessThan0~0_combout\ $end
$var wire 1 i \LessThan1~0_combout\ $end
$var wire 1 j \LessThan0~1_combout\ $end
$var wire 1 k \innercounter~3_combout\ $end
$var wire 1 l \innercounter[3]~1_combout\ $end
$var wire 1 m \innercounter~0_combout\ $end
$var wire 1 n \innercounter~2_combout\ $end
$var wire 1 o \innercounter~4_combout\ $end
$var wire 1 p \Svmot_anglev[2]~input_o\ $end
$var wire 1 q \Svmot_anglev[1]~input_o\ $end
$var wire 1 r \Svmot_anglev[0]~input_o\ $end
$var wire 1 s \PWM_SVmot~1_combout\ $end
$var wire 1 t \PWM_SVmot~2_combout\ $end
$var wire 1 u \Svmot_anglev[3]~input_o\ $end
$var wire 1 v \PWM_SVmot~3_combout\ $end
$var wire 1 w \PWM_SVmot~4_combout\ $end
$var wire 1 x \PWM_SVmot~reg0_q\ $end
$var wire 1 y counter [8] $end
$var wire 1 z counter [7] $end
$var wire 1 { counter [6] $end
$var wire 1 | counter [5] $end
$var wire 1 } counter [4] $end
$var wire 1 ~ counter [3] $end
$var wire 1 !! counter [2] $end
$var wire 1 "! counter [1] $end
$var wire 1 #! counter [0] $end
$var wire 1 $! innercounter [3] $end
$var wire 1 %! innercounter [2] $end
$var wire 1 &! innercounter [1] $end
$var wire 1 '! innercounter [0] $end
$upscope $end
$upscope $end
$enddefinitions $end
#0
$dumpvars
0!
0"
0'
1(
x)
1*
1+
1,
1-
1.
1/
00
05
0D
zE
zF
zG
0H
0I
0J
1K
1L
0M
0N
1O
0P
1Q
1R
0S
0T
0U
1V
0W
0X
1Y
0Z
1[
0\
0]
1^
1_
0`
0a
1b
0c
1d
1e
0f
1g
0h
1i
0j
1k
0l
0m
0n
0o
0p
0q
0r
0s
1t
0u
0v
1w
0x
0#
0$
0%
0&
01
02
03
04
0y
0z
0{
0|
0}
0~
0!!
0"!
0#!
0$!
0%!
0&!
0'!
1@
1A
1B
0C
06
07
08
09
0:
0;
0<
0=
0>
0?
$end
#10000
1!
10
1I
1C
1J
1#!
1x
1H
1X
0K
15
0L
0Y
1"
1M
#20000
0!
00
0I
0C
0J
#30000
1!
10
1I
1C
1J
1"!
0#!
0X
1K
1L
1N
0O
0M
0L
0N
1Y
1O
1M
1P
0P
#40000
0!
00
0I
0C
0J
#50000
1!
10
1I
1C
1J
1#!
1X
0K
1L
1N
0Y
0O
0M
1P
#60000
0!
00
0I
0C
0J
#70000
1!
10
1I
1C
1J
0"!
1!!
0#!
0X
1K
1O
0Q
0L
0N
0O
1Q
1M
0R
0P
1L
1Y
0M
1S
1R
1P
0S
#80000
0!
00
0I
0C
0J
#90000
1!
10
1I
1C
1J
1#!
1X
0K
0L
0Y
1M
#100000
0!
00
0I
0C
0J
#110000
1!
10
1I
1C
1J
1"!
0#!
0X
1K
1L
1N
1O
0Q
0M
0L
0N
1Y
0O
1Q
1M
0R
0P
1S
1R
1P
0S
#120000
0!
00
0I
0C
0J
#130000
1!
10
1I
1C
1J
1#!
1X
0K
1L
1N
0Y
1O
0Q
0M
0R
0P
1S
#140000
0!
00
0I
0C
0J
#150000
1!
10
1I
1C
1J
0"!
0!!
1~
0#!
0X
1K
1R
1Z
0O
1Q
0L
0N
1O
1M
0R
0Z
1P
0[
0S
1L
1Y
0M
1\
1[
1S
0P
0\
#160000
0!
00
0I
0C
0J
#170000
1!
10
1I
1C
1J
1#!
1X
0K
0L
0Y
1M
#180000
0!
00
0I
0C
0J
#190000
1!
10
1I
1C
1J
1"!
0#!
0X
1K
1L
1N
1T
0O
0M
0L
0N
1Y
1O
1M
1P
0P
#200000
0!
00
0I
0C
0J
#210000
1!
10
1I
1C
1J
1#!
1X
0K
1L
1N
0Y
0O
0M
1P
#220000
0!
00
0I
0C
0J
#230000
1!
10
1I
1C
1J
0"!
1!!
0#!
0X
1K
1O
0Q
0L
0N
0T
0O
1Q
1M
1R
1Z
0P
1L
1Y
0M
0[
0S
0R
0Z
1P
1[
1S
1\
0\
#240000
0!
00
0I
0C
0J
#250000
1!
10
1I
1C
1J
1#!
1X
0K
0L
0Y
1M
#260000
0!
00
0I
0C
0J
#270000
1!
10
1I
1C
1J
1"!
0#!
0X
1K
1L
1N
1T
1h
1O
0Q
0M
0L
0N
1Y
0O
1Q
1M
1R
1Z
0P
0[
0S
0R
0Z
1P
1[
1S
1\
0\
#280000
0!
00
0I
0C
0J
#290000
1!
10
1I
1C
1J
1#!
1X
0K
1j
1l
1L
1N
0Y
1O
0Q
0M
1R
1Z
0P
0[
0S
1\
#300000
0!
00
0I
0C
0J
#310000
1!
10
1I
1C
1J
0"!
0!!
0~
0#!
1}
1'!
0k
1n
1[
0^
0i
0X
1K
0R
0Z
0O
1Q
0L
0N
0T
0h
1i
1O
1M
1R
1P
0[
1^
1S
1L
1Y
0l
0w
0_
0\
1`
0M
1_
1\
0S
0P
1l
1w
0`
#320000
0!
00
0I
0C
0J
#330000
1!
10
1I
1C
1J
1#!
0'!
1&!
1k
1X
0K
0L
0Y
1M
#340000
0!
00
0I
0C
0J
#350000
1!
10
1I
1C
1J
1"!
0#!
1'!
0k
1m
0n
1s
0X
1K
1L
1N
0O
0M
0L
0N
1Y
1O
1M
1P
0P
#360000
0!
00
0I
0C
0J
#370000
1!
10
1I
1C
1J
1#!
0'!
1%!
0&!
0t
1k
0s
1X
0K
1L
1N
0Y
1t
0O
0M
1P
#380000
0!
00
0I
0C
0J
#390000
1!
10
1I
1C
1J
0"!
1!!
0#!
1'!
0k
1n
0X
1K
1O
0Q
0L
0N
0O
1Q
1M
0R
0P
1L
1Y
0M
1S
1R
1P
0S
#400000
0!
00
0I
0C
0J
#410000
1!
10
1I
1C
1J
1#!
0'!
1&!
1k
1X
0K
0L
0Y
1M
#420000
0!
00
0I
0C
0J
#430000
1!
10
1I
1C
1J
1"!
0#!
1'!
0k
0m
0n
1o
1s
0X
1K
1L
1N
1O
0Q
0M
0L
0N
1Y
0t
0O
1Q
1M
0R
0P
1S
1R
1P
0S
#440000
0!
00
0I
0C
0J
#450000
1!
10
1I
1C
1J
1#!
0'!
0%!
0&!
1$!
1v
1t
1k
0s
1X
0K
1L
1N
0Y
0v
0w
1w
1O
0Q
0M
0R
0P
1S
#460000
0!
00
0I
0C
0J
#470000
1!
10
1I
1C
1J
0"!
0!!
1~
0#!
1'!
0k
1n
0X
1K
1R
1Z
0O
1Q
0L
0N
1O
1M
0R
0Z
1P
1[
0^
0S
1L
1Y
0M
0_
0\
0[
1^
1S
0P
1_
1\
1`
0`
#480000
0!
00
0I
0C
0J
#490000
1!
10
1I
1C
1J
1#!
0'!
1&!
1k
1X
0K
0L
0Y
1M
#500000
0!
00
0I
0C
0J
#510000
1!
10
1I
1C
1J
1"!
0#!
1'!
0k
1m
0n
1s
0X
1K
1L
1N
1T
0O
0M
0L
0N
1Y
1O
1M
1P
0P
#520000
0!
00
0I
0C
0J
#530000
1!
10
1I
1C
1J
1#!
0'!
1%!
0&!
0t
1k
0s
1X
0K
1L
1N
0Y
1t
1v
0w
0v
0O
0M
1P
1w
#540000
0!
00
0I
0C
0J
#550000
1!
10
1I
1C
1J
0"!
1!!
0#!
1'!
0k
1n
0X
1K
1O
0Q
0L
0N
0T
0O
1Q
1M
1R
1Z
0P
1L
1Y
0M
1[
0^
0S
0R
0Z
1P
0[
1^
1S
0_
0\
1`
1_
1\
0`
#560000
0!
00
0I
0C
0J
#570000
1!
10
1I
1C
1J
1#!
0'!
1&!
0m
0n
0o
1X
0K
0L
0Y
1M
#580000
0!
00
0I
0C
0J
#590000
1!
10
1I
1C
1J
1"!
0#!
0%!
0&!
0$!
1k
0X
1K
1L
1N
1T
1h
0i
1O
0Q
0M
0L
0N
1Y
0O
1Q
1M
1R
1Z
0P
0l
0w
1[
0^
0S
0R
0Z
1P
0[
1^
1S
0_
0\
1`
1_
1\
0`
#600000
0!
00
0I
0C
0J
#610000
1!
10
1I
1C
1J
1#!
0x
0H
1X
0K
05
1L
1N
0Y
0"
1O
0Q
0M
1R
1Z
0P
1[
0^
0S
0_
0\
1`
#620000
0!
00
0I
0C
0J
#630000
1!
10
1I
1C
1J
0"!
0!!
0~
0#!
0}
1|
1_
1a
0[
1^
0X
1K
0R
0Z
0O
1Q
1]
0L
0N
0T
0h
1O
1M
1R
1P
1[
1S
1L
1Y
0_
0a
1\
0b
0`
1c
1b
1`
0M
0\
0S
0P
0c
#640000
0!
00
0I
0C
0J
#650000
1!
10
1I
1C
1J
1#!
1X
0K
0]
0L
0Y
1M
#660000
0!
00
0I
0C
0J
#670000
1!
10
1I
1C
1J
1"!
0#!
0X
1K
1]
1L
1N
0O
0M
0L
0N
1Y
1O
1M
1P
0P
#680000
0!
00
0I
0C
0J
#690000
1!
10
1I
1C
1J
1#!
1X
0K
0]
1L
1N
0Y
0O
0M
1P
#700000
0!
00
0I
0C
0J
#710000
1!
10
1I
1C
1J
0"!
1!!
0#!
0X
1K
1O
0Q
0L
0N
0O
1Q
1M
0R
0P
1L
1Y
0M
1S
1R
1P
0S
#720000
0!
00
0I
0C
0J
#730000
1!
10
1I
1C
1J
1#!
1X
0K
0L
0Y
1M
#740000
0!
00
0I
0C
0J
#750000
1!
10
1I
1C
1J
1"!
0#!
0X
1K
1L
1N
1O
0Q
0M
0L
0N
1Y
0O
1Q
1M
0R
0P
1S
1R
1P
0S
#760000
0!
00
0I
0C
0J
#770000
1!
10
1I
1C
1J
1#!
1X
0K
1L
1N
0Y
1O
0Q
0M
0R
0P
1S
#780000
0!
00
0I
0C
0J
#790000
1!
10
1I
1C
1J
0"!
0!!
1~
0#!
0X
1K
1R
1Z
0O
1Q
1]
0L
0N
1O
1M
0R
0Z
1P
0[
0S
1L
1Y
0M
1\
1[
1S
0P
0\
#800000
0!
00
0I
0C
0J
#810000
1!
10
1I
1C
1J
1#!
1X
0K
0]
0L
0Y
1M
#820000
0!
00
0I
0C
0J
#830000
1!
10
1I
1C
1J
1"!
0#!
0X
1K
1]
1L
1N
1T
0O
0M
0L
0N
1Y
1O
1M
1P
0P
#840000
0!
00
0I
0C
0J
#850000
1!
10
1I
1C
1J
1#!
1X
0K
0]
1L
1N
0Y
0O
0M
1P
#860000
0!
00
0I
0C
0J
#870000
1!
10
1I
1C
1J
0"!
1!!
0#!
0X
1K
1O
0Q
0L
0N
0T
0O
1Q
1M
1R
1Z
0P
1L
1Y
0M
0[
0S
0R
0Z
1P
1[
1S
1\
0\
#880000
0!
00
0I
0C
0J
#890000
1!
10
1I
1C
1J
1#!
1X
0K
0L
0Y
1M
#900000
0!
00
0I
0C
0J
#910000
1!
10
1I
1C
1J
1"!
0#!
0X
1K
1L
1N
1T
1h
1O
0Q
0M
0L
0N
1Y
0O
1Q
1M
1R
1Z
0P
0[
0S
0R
0Z
1P
1[
1S
1\
0\
#920000
0!
00
0I
0C
0J
#930000
1!
10
1I
1C
1J
1#!
1X
0K
1L
1N
0Y
1O
0Q
0M
1R
1Z
0P
0[
0S
1\
#940000
0!
00
0I
0C
0J
#950000
1!
10
1I
1C
1J
0"!
0!!
0~
0#!
1}
1[
0^
0X
1K
0R
0Z
0O
1Q
0L
0N
0T
0h
1O
1M
1R
1P
0[
1^
1S
1L
1Y
1_
1a
0\
0b
0`
0M
0_
0a
1\
0S
0P
1b
1`
1c
0c
#960000
0!
00
0I
0C
0J
#970000
1!
10
1I
1C
1J
1#!
1X
0K
0L
0Y
1M
#980000
0!
00
0I
0C
0J
#990000
1!
10
1I
1C
1J
1"!
0#!
0X
1K
1L
1N
0O
0M
0L
0N
1Y
1O
1M
1P
0P
